%!PS-Adobe-3.0 EPSF-3.0
%%Title: fig2_distribution.eps
%%Creator: Matplotlib v3.5.1, https://matplotlib.org/
%%CreationDate: Mon Nov 13 17:21:57 2023
%%Orientation: portrait
%%BoundingBox: 189 299 423 493
%%HiResBoundingBox: 189.225122 299.089260 422.774878 492.910740
%%EndComments
%%BeginProlog
/mpldict 13 dict def
mpldict begin
/_d { bind def } bind def
/m { moveto } _d
/l { lineto } _d
/r { rlineto } _d
/c { curveto } _d
/cl { closepath } _d
/ce { closepath eofill } _d
/box {
      m
      1 index 0 r
      0 exch r
      neg 0 r
      cl
    } _d
/clipbox {
      box
      clip
      newpath
    } _d
/sc { setcachedevice } _d
%!PS-Adobe-3.0 Resource-Font
%%Creator: Converted from TrueType to Type 3 by Matplotlib.
10 dict begin
/FontName /DejaVuSans def
/PaintType 0 def
/FontMatrix [0.00048828125 0 0 0.00048828125 0 0] def
/FontBBox [-2090 -948 3673 2524] def
/FontType 3 def
/Encoding [/minus /space /parenleft /parenright /hyphen /period /zero /one /two /three /four /five /six /seven /eight /nine /similar /A /D /F /S /a /b /c /d /e /f /g /h /i /k /l /n /o /p /r /s /t /u /v /y] def
/CharStrings 42 dict dup begin
/.notdef 0 def
/minus{1716 0 217 557 1499 727 sc
217 727 m
1499 727 l
1499 557 l
217 557 l
217 727 l

ce} _d
/space{651 0 0 0 0 0 sc
ce} _d
/parenleft{799 0 176 -270 635 1554 sc
635 1554 m
546 1401 479 1249 436 1099 c
393 949 371 797 371 643 c
371 489 393 336 436 185 c
480 34 546 -117 635 -270 c
475 -270 l
375 -113 300 41 250 192 c
201 343 176 494 176 643 c
176 792 201 941 250 1092 c
299 1243 374 1397 475 1554 c
635 1554 l

ce} _d
/parenright{799 0 164 -270 623 1554 sc
164 1554 m
324 1554 l
424 1397 499 1243 548 1092 c
598 941 623 792 623 643 c
623 494 598 343 548 192 c
499 41 424 -113 324 -270 c
164 -270 l
253 -117 319 34 362 185 c
406 336 428 489 428 643 c
428 797 406 949 362 1099 c
319 1249 253 1401 164 1554 c

ce} _d
/hyphen{739 0 100 479 639 643 sc
100 643 m
639 643 l
639 479 l
100 479 l
100 643 l

ce} _d
/period{651 0 219 0 430 254 sc
219 254 m
430 254 l
430 0 l
219 0 l
219 254 l

ce} _d
/zero{1303 0 135 -29 1167 1520 sc
651 1360 m
547 1360 469 1309 416 1206 c
364 1104 338 950 338 745 c
338 540 364 387 416 284 c
469 182 547 131 651 131 c
756 131 834 182 886 284 c
939 387 965 540 965 745 c
965 950 939 1104 886 1206 c
834 1309 756 1360 651 1360 c

651 1520 m
818 1520 946 1454 1034 1321 c
1123 1189 1167 997 1167 745 c
1167 494 1123 302 1034 169 c
946 37 818 -29 651 -29 c
484 -29 356 37 267 169 c
179 302 135 494 135 745 c
135 997 179 1189 267 1321 c
356 1454 484 1520 651 1520 c

ce} _d
/one{1303 0 225 0 1114 1493 sc
254 170 m
584 170 l
584 1309 l
225 1237 l
225 1421 l
582 1493 l
784 1493 l
784 170 l
1114 170 l
1114 0 l
254 0 l
254 170 l

ce} _d
/two{1303 0 150 0 1098 1520 sc
393 170 m
1098 170 l
1098 0 l
150 0 l
150 170 l
227 249 331 356 463 489 c
596 623 679 709 713 748 c
778 821 823 882 848 932 c
874 983 887 1032 887 1081 c
887 1160 859 1225 803 1275 c
748 1325 675 1350 586 1350 c
523 1350 456 1339 385 1317 c
315 1295 240 1262 160 1217 c
160 1421 l
241 1454 317 1478 388 1495 c
459 1512 523 1520 582 1520 c
737 1520 860 1481 952 1404 c
1044 1327 1090 1223 1090 1094 c
1090 1033 1078 974 1055 919 c
1032 864 991 800 930 725 c
913 706 860 650 771 557 c
682 465 556 336 393 170 c

ce} _d
/three{1303 0 156 -29 1139 1520 sc
831 805 m
928 784 1003 741 1057 676 c
1112 611 1139 530 1139 434 c
1139 287 1088 173 987 92 c
886 11 742 -29 555 -29 c
492 -29 428 -23 361 -10 c
295 2 227 20 156 45 c
156 240 l
212 207 273 183 340 166 c
407 149 476 141 549 141 c
676 141 772 166 838 216 c
905 266 938 339 938 434 c
938 522 907 591 845 640 c
784 690 698 715 588 715 c
414 715 l
414 881 l
596 881 l
695 881 771 901 824 940 c
877 980 903 1037 903 1112 c
903 1189 876 1247 821 1288 c
767 1329 689 1350 588 1350 c
533 1350 473 1344 410 1332 c
347 1320 277 1301 201 1276 c
201 1456 l
278 1477 349 1493 416 1504 c
483 1515 547 1520 606 1520 c
759 1520 881 1485 970 1415 c
1059 1346 1104 1252 1104 1133 c
1104 1050 1080 980 1033 923 c
986 866 918 827 831 805 c

ce} _d
/four{1303 0 100 0 1188 1493 sc
774 1317 m
264 520 l
774 520 l
774 1317 l

721 1493 m
975 1493 l
975 520 l
1188 520 l
1188 352 l
975 352 l
975 0 l
774 0 l
774 352 l
100 352 l
100 547 l
721 1493 l

ce} _d
/five{1303 0 158 -29 1124 1493 sc
221 1493 m
1014 1493 l
1014 1323 l
406 1323 l
406 957 l
435 967 465 974 494 979 c
523 984 553 987 582 987 c
749 987 881 941 978 850 c
1075 759 1124 635 1124 479 c
1124 318 1074 193 974 104 c
874 15 733 -29 551 -29 c
488 -29 424 -24 359 -13 c
294 -2 227 14 158 35 c
158 238 l
218 205 280 181 344 165 c
408 149 476 141 547 141 c
662 141 754 171 821 232 c
888 293 922 375 922 479 c
922 583 888 665 821 726 c
754 787 662 817 547 817 c
493 817 439 811 385 799 c
332 787 277 768 221 743 c
221 1493 l

ce} _d
/six{1303 0 143 -29 1174 1520 sc
676 827 m
585 827 513 796 460 734 c
407 672 381 587 381 479 c
381 372 407 287 460 224 c
513 162 585 131 676 131 c
767 131 838 162 891 224 c
944 287 971 372 971 479 c
971 587 944 672 891 734 c
838 796 767 827 676 827 c

1077 1460 m
1077 1276 l
1026 1300 975 1318 923 1331 c
872 1344 821 1350 770 1350 c
637 1350 535 1305 464 1215 c
394 1125 354 989 344 807 c
383 865 433 909 492 940 c
551 971 617 987 688 987 c
838 987 956 941 1043 850 c
1130 759 1174 636 1174 479 c
1174 326 1129 203 1038 110 c
947 17 827 -29 676 -29 c
503 -29 371 37 280 169 c
189 302 143 494 143 745 c
143 981 199 1169 311 1309 c
423 1450 573 1520 762 1520 c
813 1520 864 1515 915 1505 c
967 1495 1021 1480 1077 1460 c

ce} _d
/seven{1303 0 168 0 1128 1493 sc
168 1493 m
1128 1493 l
1128 1407 l
586 0 l
375 0 l
885 1323 l
168 1323 l
168 1493 l

ce} _d
/eight{1303 0 139 -29 1163 1520 sc
651 709 m
555 709 479 683 424 632 c
369 581 342 510 342 420 c
342 330 369 259 424 208 c
479 157 555 131 651 131 c
747 131 823 157 878 208 c
933 260 961 331 961 420 c
961 510 933 581 878 632 c
823 683 748 709 651 709 c

449 795 m
362 816 295 857 246 916 c
198 975 174 1048 174 1133 c
174 1252 216 1347 301 1416 c
386 1485 503 1520 651 1520 c
800 1520 916 1485 1001 1416 c
1086 1347 1128 1252 1128 1133 c
1128 1048 1104 975 1055 916 c
1007 857 940 816 854 795 c
951 772 1027 728 1081 662 c
1136 596 1163 515 1163 420 c
1163 275 1119 164 1030 87 c
942 10 816 -29 651 -29 c
486 -29 360 10 271 87 c
183 164 139 275 139 420 c
139 515 166 596 221 662 c
276 728 352 772 449 795 c

375 1114 m
375 1037 399 976 447 933 c
496 890 564 868 651 868 c
738 868 805 890 854 933 c
903 976 928 1037 928 1114 c
928 1191 903 1252 854 1295 c
805 1338 738 1360 651 1360 c
564 1360 496 1338 447 1295 c
399 1252 375 1191 375 1114 c

ce} _d
/nine{1303 0 129 -29 1159 1520 sc
225 31 m
225 215 l
276 191 327 173 379 160 c
431 147 482 141 532 141 c
665 141 767 186 837 275 c
908 365 948 501 958 684 c
919 627 870 583 811 552 c
752 521 686 506 614 506 c
465 506 346 551 259 641 c
172 732 129 855 129 1012 c
129 1165 174 1288 265 1381 c
356 1474 476 1520 627 1520 c
800 1520 931 1454 1022 1321 c
1113 1189 1159 997 1159 745 c
1159 510 1103 322 991 181 c
880 41 730 -29 541 -29 c
490 -29 439 -24 387 -14 c
335 -4 281 11 225 31 c

627 664 m
718 664 789 695 842 757 c
895 819 922 904 922 1012 c
922 1119 895 1204 842 1266 c
789 1329 718 1360 627 1360 c
536 1360 464 1329 411 1266 c
358 1204 332 1119 332 1012 c
332 904 358 819 411 757 c
464 695 536 664 627 664 c

ce} _d
/similar{1716 0 217 467 1499 818 sc
1499 818 m
1499 639 l
1429 587 1364 549 1304 526 c
1245 503 1183 492 1118 492 c
1045 492 959 512 862 551 c
855 554 850 556 845 558 c
841 559 834 562 824 566 c
721 607 638 627 575 627 c
516 627 458 614 401 589 c
344 564 282 523 217 467 c
217 646 l
287 698 352 735 411 758 c
471 781 533 793 598 793 c
671 793 757 773 855 734 c
862 731 868 728 871 727 c
875 726 882 723 892 719 c
995 678 1078 658 1141 658 c
1198 658 1255 670 1311 695 c
1368 720 1430 761 1499 818 c

ce} _d
/A{1401 0 16 0 1384 1493 sc
700 1294 m
426 551 l
975 551 l
700 1294 l

586 1493 m
815 1493 l
1384 0 l
1174 0 l
1038 383 l
365 383 l
229 0 l
16 0 l
586 1493 l

ce} _d
/D{1577 0 201 0 1456 1493 sc
403 1327 m
403 166 l
647 166 l
853 166 1004 213 1099 306 c
1195 399 1243 547 1243 748 c
1243 948 1195 1094 1099 1187 c
1004 1280 853 1327 647 1327 c
403 1327 l

201 1493 m
616 1493 l
905 1493 1118 1433 1253 1312 c
1388 1192 1456 1004 1456 748 c
1456 491 1388 302 1252 181 c
1116 60 904 0 616 0 c
201 0 l
201 1493 l

ce} _d
/F{1178 0 201 0 1059 1493 sc
201 1493 m
1059 1493 l
1059 1323 l
403 1323 l
403 883 l
995 883 l
995 713 l
403 713 l
403 0 l
201 0 l
201 1493 l

ce} _d
/S{1300 0 135 -29 1186 1520 sc
1096 1444 m
1096 1247 l
1019 1284 947 1311 879 1329 c
811 1347 745 1356 682 1356 c
572 1356 487 1335 427 1292 c
368 1249 338 1189 338 1110 c
338 1044 358 994 397 960 c
437 927 512 900 623 879 c
745 854 l
896 825 1007 775 1078 702 c
1150 630 1186 533 1186 412 c
1186 267 1137 158 1040 83 c
943 8 801 -29 614 -29 c
543 -29 468 -21 388 -5 c
309 11 226 35 141 66 c
141 274 l
223 228 303 193 382 170 c
461 147 538 135 614 135 c
729 135 818 158 881 203 c
944 248 975 313 975 397 c
975 470 952 528 907 569 c
862 610 789 641 686 662 c
563 686 l
412 716 303 763 236 827 c
169 891 135 980 135 1094 c
135 1226 181 1330 274 1406 c
367 1482 496 1520 659 1520 c
729 1520 800 1514 873 1501 c
946 1488 1020 1469 1096 1444 c

ce} _d
/a{1255 0 123 -29 1069 1147 sc
702 563 m
553 563 450 546 393 512 c
336 478 307 420 307 338 c
307 273 328 221 371 182 c
414 144 473 125 547 125 c
649 125 731 161 792 233 c
854 306 885 402 885 522 c
885 563 l
702 563 l

1069 639 m
1069 0 l
885 0 l
885 170 l
843 102 791 52 728 19 c
665 -13 589 -29 498 -29 c
383 -29 292 3 224 67 c
157 132 123 218 123 326 c
123 452 165 547 249 611 c
334 675 460 707 627 707 c
885 707 l
885 725 l
885 810 857 875 801 921 c
746 968 668 991 567 991 c
503 991 441 983 380 968 c
319 953 261 930 205 899 c
205 1069 l
272 1095 338 1114 401 1127 c
464 1140 526 1147 586 1147 c
748 1147 869 1105 949 1021 c
1029 937 1069 810 1069 639 c

ce} _d
/b{1300 0 186 -29 1188 1556 sc
997 559 m
997 694 969 800 913 877 c
858 954 781 993 684 993 c
587 993 510 954 454 877 c
399 800 371 694 371 559 c
371 424 399 317 454 240 c
510 163 587 125 684 125 c
781 125 858 163 913 240 c
969 317 997 424 997 559 c

371 950 m
410 1017 458 1066 517 1098 c
576 1131 647 1147 729 1147 c
865 1147 975 1093 1060 985 c
1145 877 1188 735 1188 559 c
1188 383 1145 241 1060 133 c
975 25 865 -29 729 -29 c
647 -29 576 -13 517 19 c
458 52 410 101 371 168 c
371 0 l
186 0 l
186 1556 l
371 1556 l
371 950 l

ce} _d
/c{1126 0 113 -29 999 1147 sc
999 1077 m
999 905 l
947 934 895 955 842 969 c
790 984 737 991 684 991 c
565 991 472 953 406 877 c
340 802 307 696 307 559 c
307 422 340 316 406 240 c
472 165 565 127 684 127 c
737 127 790 134 842 148 c
895 163 947 184 999 213 c
999 43 l
948 19 894 1 839 -11 c
784 -23 726 -29 664 -29 c
495 -29 361 24 262 130 c
163 236 113 379 113 559 c
113 742 163 885 263 990 c
364 1095 501 1147 676 1147 c
733 1147 788 1141 842 1129 c
896 1118 948 1100 999 1077 c

ce} _d
/d{1300 0 113 -29 1114 1556 sc
930 950 m
930 1556 l
1114 1556 l
1114 0 l
930 0 l
930 168 l
891 101 842 52 783 19 c
724 -13 654 -29 571 -29 c
436 -29 325 25 240 133 c
155 241 113 383 113 559 c
113 735 155 877 240 985 c
325 1093 436 1147 571 1147 c
654 1147 724 1131 783 1098 c
842 1066 891 1017 930 950 c

303 559 m
303 424 331 317 386 240 c
442 163 519 125 616 125 c
713 125 790 163 846 240 c
902 317 930 424 930 559 c
930 694 902 800 846 877 c
790 954 713 993 616 993 c
519 993 442 954 386 877 c
331 800 303 694 303 559 c

ce} _d
/e{1260 0 113 -29 1151 1147 sc
1151 606 m
1151 516 l
305 516 l
313 389 351 293 419 226 c
488 160 583 127 705 127 c
776 127 844 136 910 153 c
977 170 1043 196 1108 231 c
1108 57 l
1042 29 974 8 905 -7 c
836 -22 765 -29 694 -29 c
515 -29 374 23 269 127 c
165 231 113 372 113 549 c
113 732 162 878 261 985 c
360 1093 494 1147 662 1147 c
813 1147 932 1098 1019 1001 c
1107 904 1151 773 1151 606 c

967 660 m
966 761 937 841 882 901 c
827 961 755 991 664 991 c
561 991 479 962 417 904 c
356 846 320 764 311 659 c
967 660 l

ce} _d
/f{721 0 47 0 760 1556 sc
760 1556 m
760 1403 l
584 1403 l
518 1403 472 1390 446 1363 c
421 1336 408 1288 408 1219 c
408 1120 l
711 1120 l
711 977 l
408 977 l
408 0 l
223 0 l
223 977 l
47 977 l
47 1120 l
223 1120 l
223 1198 l
223 1323 252 1413 310 1470 c
368 1527 460 1556 586 1556 c
760 1556 l

ce} _d
/g{1300 0 113 -426 1114 1147 sc
930 573 m
930 706 902 810 847 883 c
792 956 715 993 616 993 c
517 993 440 956 385 883 c
330 810 303 706 303 573 c
303 440 330 337 385 264 c
440 191 517 154 616 154 c
715 154 792 191 847 264 c
902 337 930 440 930 573 c

1114 139 m
1114 -52 1072 -193 987 -286 c
902 -379 773 -426 598 -426 c
533 -426 472 -421 415 -411 c
358 -402 302 -387 248 -367 c
248 -188 l
302 -217 355 -239 408 -253 c
461 -267 514 -274 569 -274 c
690 -274 780 -242 840 -179 c
900 -116 930 -21 930 106 c
930 197 l
892 131 843 82 784 49 c
725 16 654 0 571 0 c
434 0 323 52 239 157 c
155 262 113 400 113 573 c
113 746 155 885 239 990 c
323 1095 434 1147 571 1147 c
654 1147 725 1131 784 1098 c
843 1065 892 1016 930 950 c
930 1120 l
1114 1120 l
1114 139 l

ce} _d
/h{1298 0 186 0 1124 1556 sc
1124 676 m
1124 0 l
940 0 l
940 670 l
940 776 919 855 878 908 c
837 961 775 987 692 987 c
593 987 514 955 457 892 c
400 829 371 742 371 633 c
371 0 l
186 0 l
186 1556 l
371 1556 l
371 946 l
415 1013 467 1064 526 1097 c
586 1130 655 1147 733 1147 c
862 1147 959 1107 1025 1027 c
1091 948 1124 831 1124 676 c

ce} _d
/i{569 0 193 0 377 1556 sc
193 1120 m
377 1120 l
377 0 l
193 0 l
193 1120 l

193 1556 m
377 1556 l
377 1323 l
193 1323 l
193 1556 l

ce} _d
/k{1186 0 186 0 1180 1556 sc
186 1556 m
371 1556 l
371 637 l
920 1120 l
1155 1120 l
561 596 l
1180 0 l
940 0 l
371 547 l
371 0 l
186 0 l
186 1556 l

ce} _d
/l{569 0 193 0 377 1556 sc
193 1556 m
377 1556 l
377 0 l
193 0 l
193 1556 l

ce} _d
/n{1298 0 186 0 1124 1147 sc
1124 676 m
1124 0 l
940 0 l
940 670 l
940 776 919 855 878 908 c
837 961 775 987 692 987 c
593 987 514 955 457 892 c
400 829 371 742 371 633 c
371 0 l
186 0 l
186 1120 l
371 1120 l
371 946 l
415 1013 467 1064 526 1097 c
586 1130 655 1147 733 1147 c
862 1147 959 1107 1025 1027 c
1091 948 1124 831 1124 676 c

ce} _d
/o{1253 0 113 -29 1141 1147 sc
627 991 m
528 991 450 952 393 875 c
336 798 307 693 307 559 c
307 425 335 319 392 242 c
449 165 528 127 627 127 c
725 127 803 166 860 243 c
917 320 946 426 946 559 c
946 692 917 797 860 874 c
803 952 725 991 627 991 c

627 1147 m
787 1147 913 1095 1004 991 c
1095 887 1141 743 1141 559 c
1141 376 1095 232 1004 127 c
913 23 787 -29 627 -29 c
466 -29 340 23 249 127 c
158 232 113 376 113 559 c
113 743 158 887 249 991 c
340 1095 466 1147 627 1147 c

ce} _d
/p{1300 0 186 -426 1188 1147 sc
371 168 m
371 -426 l
186 -426 l
186 1120 l
371 1120 l
371 950 l
410 1017 458 1066 517 1098 c
576 1131 647 1147 729 1147 c
865 1147 975 1093 1060 985 c
1145 877 1188 735 1188 559 c
1188 383 1145 241 1060 133 c
975 25 865 -29 729 -29 c
647 -29 576 -13 517 19 c
458 52 410 101 371 168 c

997 559 m
997 694 969 800 913 877 c
858 954 781 993 684 993 c
587 993 510 954 454 877 c
399 800 371 694 371 559 c
371 424 399 317 454 240 c
510 163 587 125 684 125 c
781 125 858 163 913 240 c
969 317 997 424 997 559 c

ce} _d
/r{842 0 186 0 842 1147 sc
842 948 m
821 960 799 969 774 974 c
750 980 723 983 694 983 c
590 983 510 949 454 881 c
399 814 371 717 371 590 c
371 0 l
186 0 l
186 1120 l
371 1120 l
371 946 l
410 1014 460 1064 522 1097 c
584 1130 659 1147 748 1147 c
761 1147 775 1146 790 1144 c
805 1143 822 1140 841 1137 c
842 948 l

ce} _d
/s{1067 0 111 -29 967 1147 sc
907 1087 m
907 913 l
855 940 801 960 745 973 c
689 986 631 993 571 993 c
480 993 411 979 365 951 c
320 923 297 881 297 825 c
297 782 313 749 346 724 c
379 700 444 677 543 655 c
606 641 l
737 613 829 573 884 522 c
939 471 967 400 967 309 c
967 205 926 123 843 62 c
761 1 648 -29 504 -29 c
444 -29 381 -23 316 -11 c
251 0 183 18 111 41 c
111 231 l
179 196 246 169 312 151 c
378 134 443 125 508 125 c
595 125 661 140 708 169 c
755 199 778 241 778 295 c
778 345 761 383 727 410 c
694 437 620 462 506 487 c
442 502 l
328 526 246 563 195 612 c
144 662 119 730 119 817 c
119 922 156 1004 231 1061 c
306 1118 412 1147 549 1147 c
617 1147 681 1142 741 1132 c
801 1122 856 1107 907 1087 c

ce} _d
/t{803 0 55 0 754 1438 sc
375 1438 m
375 1120 l
754 1120 l
754 977 l
375 977 l
375 369 l
375 278 387 219 412 193 c
437 167 488 154 565 154 c
754 154 l
754 0 l
565 0 l
423 0 325 26 271 79 c
217 132 190 229 190 369 c
190 977 l
55 977 l
55 1120 l
190 1120 l
190 1438 l
375 1438 l

ce} _d
/u{1298 0 174 -29 1112 1147 sc
174 442 m
174 1120 l
358 1120 l
358 449 l
358 343 379 263 420 210 c
461 157 523 131 606 131 c
705 131 784 163 841 226 c
899 289 928 376 928 485 c
928 1120 l
1112 1120 l
1112 0 l
928 0 l
928 172 l
883 104 831 53 772 20 c
713 -13 645 -29 567 -29 c
438 -29 341 11 274 91 c
207 171 174 288 174 442 c

637 1147 m
637 1147 l

ce} _d
/v{1212 0 61 0 1151 1120 sc
61 1120 m
256 1120 l
606 180 l
956 1120 l
1151 1120 l
731 0 l
481 0 l
61 1120 l

ce} _d
/y{1212 0 61 -426 1151 1120 sc
659 -104 m
607 -237 556 -324 507 -365 c
458 -406 392 -426 309 -426 c
162 -426 l
162 -272 l
270 -272 l
321 -272 360 -260 388 -236 c
416 -212 447 -155 481 -66 c
514 18 l
61 1120 l
256 1120 l
606 244 l
956 1120 l
1151 1120 l
659 -104 l

ce} _d
end readonly def

/BuildGlyph {
 exch begin
 CharStrings exch
 2 copy known not {pop /.notdef} if
 true 3 1 roll get exec
 end
} _d

/BuildChar {
 1 index /Encoding get exch get
 1 index /BuildGlyph get exec
} _d

FontName currentdict end definefont pop
%!PS-Adobe-3.0 Resource-Font
%%Creator: Converted from TrueType to Type 3 by Matplotlib.
10 dict begin
/FontName /DejaVuSans-Bold def
/PaintType 0 def
/FontMatrix [0.00048828125 0 0 0.00048828125 0 0] def
/FontBBox [-2190 -850 4045 2405] def
/FontType 3 def
/Encoding [/A /B] def
/CharStrings 3 dict dup begin
/.notdef 0 def
/A{1585 0 10 0 1575 1493 sc
1094 272 m
492 272 l
397 0 l
10 0 l
563 1493 l
1022 1493 l
1575 0 l
1188 0 l
1094 272 l

588 549 m
997 549 l
793 1143 l
588 549 l

ce} _d
/B{1561 0 188 0 1417 1493 sc
786 915 m
847 915 893 928 924 955 c
955 982 971 1021 971 1073 c
971 1124 955 1163 924 1190 c
893 1217 847 1231 786 1231 c
573 1231 l
573 915 l
786 915 l

799 262 m
876 262 934 278 973 311 c
1012 344 1032 393 1032 459 c
1032 524 1013 572 974 604 c
935 637 877 653 799 653 c
573 653 l
573 262 l
799 262 l

1157 799 m
1240 775 1304 731 1349 666 c
1394 601 1417 522 1417 428 c
1417 284 1368 177 1271 106 c
1174 35 1026 0 827 0 c
188 0 l
188 1493 l
766 1493 l
973 1493 1123 1462 1216 1399 c
1309 1336 1356 1236 1356 1098 c
1356 1025 1339 963 1305 912 c
1271 861 1222 824 1157 799 c

ce} _d
end readonly def

/BuildGlyph {
 exch begin
 CharStrings exch
 2 copy known not {pop /.notdef} if
 true 3 1 roll get exec
 end
} _d

/BuildChar {
 1 index /Encoding get exch get
 1 index /BuildGlyph get exec
} _d

FontName currentdict end definefont pop
%!PS-Adobe-3.0 Resource-Font
%%Creator: Converted from TrueType to Type 3 by Matplotlib.
10 dict begin
/FontName /DejaVuSans-Oblique def
/PaintType 0 def
/FontMatrix [0.00048828125 0 0 0.00048828125 0 0] def
/FontBBox [-2080 -717 3398 2187] def
/FontType 3 def
/Encoding [/P /x /nu] def
/CharStrings 4 dict dup begin
/.notdef 0 def
/P{1235 0 55 0 1231 1493 sc
346 1493 m
813 1493 l
949 1493 1053 1461 1124 1398 c
1195 1335 1231 1242 1231 1120 c
1231 956 1178 828 1073 737 c
968 646 820 600 629 600 c
375 600 l
258 0 l
55 0 l
346 1493 l

516 1327 m
408 766 l
662 766 l
777 766 865 795 926 854 c
987 913 1018 997 1018 1106 c
1018 1176 997 1230 955 1269 c
914 1308 855 1327 780 1327 c
516 1327 l

ce} _d
/x{1212 0 -53 0 1229 1120 sc
1229 1120 m
715 571 l
1030 0 l
819 0 l
582 444 l
170 0 l
-53 0 l
498 590 l
205 1120 l
416 1120 l
631 715 l
1006 1120 l
1229 1120 l

ce} _d
/nu{1144 0 183 0 1093 1120 sc
307 0 m
183 1120 l
381 1120 l
487 180 l
583 263 676 361 765 476 c
832 562 875 642 892 717 c
900 752 902 803 899 870 c
896 949 867 1033 814 1120 c
1000 1120 l
1000 1120 l
1035 1061 1059 990 1073 907 c
1086 831 1088 767 1078 715 c
1053 584 983 461 870 344 c
722 192 600 77 503 0 c
307 0 l

ce} _d
end readonly def

/BuildGlyph {
 exch begin
 CharStrings exch
 2 copy known not {pop /.notdef} if
 true 3 1 roll get exec
 end
} _d

/BuildChar {
 1 index /Encoding get exch get
 1 index /BuildGlyph get exec
} _d

FontName currentdict end definefont pop
end
%%EndProlog
mpldict begin
189.225 299.089 translate
233.55 193.821 0 0 clipbox
gsave
0 0 m
233.549756 0 l
233.549756 193.821481 l
0 193.821481 l
cl
1.000 setgray
fill
grestore
gsave
35.485625 134.735963 m
226.150069 134.735963 l
226.150069 177.670769 l
35.485625 177.670769 l
cl
1.000 setgray
fill
grestore
0.800 setlinewidth
1 setlinejoin
0 setlinecap
[] 0 setdash
0.000 setgray
gsave
/o {
gsave
newpath
translate
0.8 setlinewidth
1 setlinejoin

0 setlinecap

0 0 m
0 -3.5 l

gsave
0.000 setgray
fill
grestore
stroke
grestore
} bind def
73.3128 134.736 o
grestore
/DejaVuSans 7.000 selectfont
gsave

66.633152 122.423463 translate
0.000000 rotate
0.000000 0 m /one glyphshow
4.453613 0 m /zero glyphshow
8.907227 0 m /zero glyphshow
grestore
gsave
/o {
gsave
newpath
translate
0.8 setlinewidth
1 setlinejoin

0 setlinecap

0 0 m
0 -3.5 l

gsave
0.000 setgray
fill
grestore
stroke
grestore
} bind def
111.522 134.736 o
grestore
gsave

104.842459 122.423463 translate
0.000000 rotate
0.000000 0 m /two glyphshow
4.453613 0 m /zero glyphshow
8.907227 0 m /zero glyphshow
grestore
gsave
/o {
gsave
newpath
translate
0.8 setlinewidth
1 setlinejoin

0 setlinecap

0 0 m
0 -3.5 l

gsave
0.000 setgray
fill
grestore
stroke
grestore
} bind def
149.731 134.736 o
grestore
gsave

143.051767 122.423463 translate
0.000000 rotate
0.000000 0 m /three glyphshow
4.453613 0 m /zero glyphshow
8.907227 0 m /zero glyphshow
grestore
gsave
/o {
gsave
newpath
translate
0.8 setlinewidth
1 setlinejoin

0 setlinecap

0 0 m
0 -3.5 l

gsave
0.000 setgray
fill
grestore
stroke
grestore
} bind def
187.941 134.736 o
grestore
gsave

181.261074 122.423463 translate
0.000000 rotate
0.000000 0 m /four glyphshow
4.453613 0 m /zero glyphshow
8.907227 0 m /zero glyphshow
grestore
gsave
/o {
gsave
newpath
translate
0.8 setlinewidth
1 setlinejoin

0 setlinecap

0 0 m
0 -3.5 l

gsave
0.000 setgray
fill
grestore
stroke
grestore
} bind def
226.15 134.736 o
grestore
gsave

219.470381 122.423463 translate
0.000000 rotate
0.000000 0 m /five glyphshow
4.453613 0 m /zero glyphshow
8.907227 0 m /zero glyphshow
grestore
gsave

122.981909 111.657838 translate
0.000000 rotate
0.000000 0 m /r glyphshow
2.877930 0 m /a glyphshow
7.167480 0 m /n glyphshow
11.604004 0 m /k glyphshow
grestore
gsave
/o {
gsave
newpath
translate
0.8 setlinewidth
1 setlinejoin

0 setlinecap

-0 0 m
-3.5 0 l

gsave
0.000 setgray
fill
grestore
stroke
grestore
} bind def
35.4856 139.43 o
grestore
gsave
11.485625 136.156119 translate
0.000000 rotate
/DejaVuSans 7.0 selectfont
0.000000 0.678125 moveto
/one glyphshow
4.453613 0.678125 moveto
/zero glyphshow
/DejaVuSans 4.8999999999999995 selectfont
8.974219 3.357812 moveto
/minus glyphshow
13.079883 3.357812 moveto
/eight glyphshow
grestore
gsave
/o {
gsave
newpath
translate
0.8 setlinewidth
1 setlinejoin

0 setlinecap

-0 0 m
-3.5 0 l

gsave
0.000 setgray
fill
grestore
stroke
grestore
} bind def
35.4856 149.301 o
grestore
gsave
11.485625 146.027579 translate
0.000000 rotate
/DejaVuSans 7.0 selectfont
0.000000 0.678125 moveto
/one glyphshow
4.453613 0.678125 moveto
/zero glyphshow
/DejaVuSans 4.8999999999999995 selectfont
8.974219 3.357812 moveto
/minus glyphshow
13.079883 3.357812 moveto
/six glyphshow
grestore
gsave
/o {
gsave
newpath
translate
0.8 setlinewidth
1 setlinejoin

0 setlinecap

-0 0 m
-3.5 0 l

gsave
0.000 setgray
fill
grestore
stroke
grestore
} bind def
35.4856 159.172 o
grestore
gsave
11.485625 155.899038 translate
0.000000 rotate
/DejaVuSans 7.0 selectfont
0.000000 0.743750 moveto
/one glyphshow
4.453613 0.743750 moveto
/zero glyphshow
/DejaVuSans 4.8999999999999995 selectfont
8.974219 3.423438 moveto
/minus glyphshow
13.079883 3.423438 moveto
/four glyphshow
grestore
gsave
/o {
gsave
newpath
translate
0.8 setlinewidth
1 setlinejoin

0 setlinecap

-0 0 m
-3.5 0 l

gsave
0.000 setgray
fill
grestore
stroke
grestore
} bind def
35.4856 169.044 o
grestore
gsave
11.485625 165.770497 translate
0.000000 rotate
/DejaVuSans 7.0 selectfont
0.000000 0.678125 moveto
/one glyphshow
4.453613 0.678125 moveto
/zero glyphshow
/DejaVuSans 4.8999999999999995 selectfont
8.974219 3.357812 moveto
/minus glyphshow
13.079883 3.357812 moveto
/two glyphshow
grestore
gsave

6.032500 130.008054 translate
90.000000 rotate
0.000000 0 m /r glyphshow
2.752930 0 m /e glyphshow
7.059570 0 m /l glyphshow
9.004395 0 m /period glyphshow
11.229492 0 m /space glyphshow
13.454590 0 m /a glyphshow
17.744141 0 m /b glyphshow
22.187500 0 m /u glyphshow
26.624023 0 m /n glyphshow
31.060547 0 m /d glyphshow
35.503906 0 m /a glyphshow
39.793457 0 m /n glyphshow
44.229980 0 m /c glyphshow
48.078613 0 m /e glyphshow
grestore
0.200 setlinewidth
2 setlinecap
gsave
190.664 42.935 35.486 134.736 clipbox
35.485625 175.719187 m
35.867718 174.633476 l
36.249811 174.397781 l
36.631904 173.439348 l
37.013997 173.435326 l
38.160277 172.482272 l
38.54237 172.281656 l
38.924463 171.659196 l
39.306556 170.545938 l
39.688649 170.291903 l
40.452835 168.906134 l
41.981207 168.449733 l
42.745393 165.992511 l
43.127486 165.708612 l
43.50958 164.647455 l
43.891673 164.53594 l
44.273766 163.698056 l
44.655859 162.081184 l
45.420045 161.783414 l
46.184231 161.082788 l
46.566324 160.482782 l
47.33051 160.42315 l
48.094696 160.057935 l
48.858883 159.851668 l
49.240976 159.536933 l
49.623069 159.484902 l
50.005162 159.273278 l
50.769348 158.538039 l
52.29772 157.331205 l
53.443999 157.20094 l
54.208186 155.585224 l
54.972372 155.484367 l
55.354465 155.209822 l
55.736558 154.518173 l
56.500744 154.473705 l
57.647023 154.044544 l
58.029116 153.405958 l
59.557489 152.848821 l
60.321675 152.744685 l
61.085861 152.397369 l
61.467954 151.878207 l
61.850047 151.84969 l
62.23214 151.50972 l
62.614233 151.480474 l
62.996326 150.904494 l
63.378419 150.87593 l
63.760512 150.272401 l
64.142606 149.906606 l
64.524699 149.838206 l
65.288885 149.547573 l
66.435164 149.480683 l
67.19935 149.341808 l
67.963536 149.31573 l
68.727722 149.019559 l
71.020281 148.694979 l
71.402374 148.614041 l
71.784467 148.300758 l
73.694932 148.183722 l
74.077025 147.777295 l
74.841212 147.56453 l
75.605398 147.524256 l
75.987491 147.198931 l
76.369584 147.195667 l
77.13377 146.805393 l
79.426328 146.573853 l
81.718887 146.261729 l
82.10098 145.988148 l
82.865166 145.878067 l
83.629352 145.792966 l
84.011445 145.779602 l
84.775631 145.601418 l
85.539818 145.519732 l
86.686097 145.39112 l
88.978655 144.960078 l
91.271214 144.855729 l
91.653307 144.678231 l
93.181679 144.555802 l
93.945865 144.484322 l
94.327958 144.249157 l
103.880285 143.445168 l
106.93703 143.323824 l
108.083309 143.230857 l
109.993774 143.11338 l
111.522147 143.020302 l
124.513311 142.024612 l
129.480521 141.839179 l
132.537266 141.71591 l
135.59401 141.563734 l
142.853779 141.392681 l
145.910523 141.305915 l
150.877733 141.163086 l
156.609129 140.880012 l
162.340525 140.688121 l
165.015177 140.594623 l
170.746573 140.461676 l
177.242155 140.288593 l
181.063086 140.17734 l
219.654486 138.700764 l
220.800766 138.607098 l
222.711231 138.514451 l
225.385883 138.21119 l
225.767976 137.866463 l
226.150069 137.715729 l
226.150069 137.715729 l
stroke
grestore
gsave
190.664 42.935 35.486 134.736 clipbox
35.485625 175.54016 m
36.249811 175.044568 l
37.013997 174.202057 l
37.39609 174.103071 l
37.778183 172.86758 l
38.160277 169.327692 l
38.54237 169.04927 l
38.924463 166.950301 l
40.070742 163.205786 l
40.834928 161.888477 l
41.217021 160.556784 l
41.599114 160.554416 l
41.981207 160.440367 l
42.3633 159.952639 l
42.745393 159.853254 l
43.127486 159.354702 l
43.50958 159.326693 l
43.891673 158.620398 l
44.655859 158.608216 l
45.037952 157.132703 l
45.420045 156.96389 l
46.566324 155.144269 l
46.948417 154.356262 l
47.712603 152.221159 l
48.094696 152.193572 l
48.47679 151.470005 l
48.858883 151.415627 l
49.240976 150.909102 l
49.623069 150.841862 l
50.005162 150.429679 l
50.387255 150.367398 l
50.769348 150.085547 l
51.151441 150.066508 l
51.533534 149.705476 l
53.443999 149.164557 l
54.590279 148.535732 l
55.354465 147.788419 l
56.118651 147.604674 l
56.500744 147.398634 l
57.26493 147.335877 l
58.029116 146.805523 l
58.411209 146.515917 l
58.793302 146.486711 l
59.557489 146.27548 l
59.939582 146.26373 l
60.321675 145.945103 l
60.703768 145.842801 l
61.467954 145.47279 l
62.23214 145.269333 l
62.996326 145.219866 l
63.760512 144.915292 l
64.524699 144.899864 l
64.906792 144.774962 l
66.435164 144.686781 l
66.817257 144.616955 l
67.581443 144.308755 l
70.256095 143.763999 l
71.784467 143.651155 l
72.548653 143.507011 l
73.694932 143.36162 l
74.459119 143.35026 l
75.987491 142.979864 l
78.280049 142.713482 l
78.662142 142.519503 l
85.157725 141.794673 l
91.653307 141.481368 l
93.945865 141.167241 l
95.856331 141.066537 l
100.823541 140.639078 l
108.465402 140.312042 l
110.75796 140.227791 l
118.399822 139.902492 l
119.928194 139.851486 l
130.244707 139.53244 l
132.155173 139.463365 l
139.032848 139.263929 l
142.471686 139.156505 l
150.113547 139.033299 l
155.080757 138.895609 l
163.486805 138.694835 l
173.421225 138.473614 l
178.388435 138.362119 l
184.501924 138.185092 l
223.85751 137.105315 l
225.767976 136.806052 l
226.150069 136.687545 l
226.150069 136.687545 l
stroke
grestore
gsave
190.664 42.935 35.486 134.736 clipbox
35.485625 175.334345 m
35.867718 174.868541 l
36.249811 174.623068 l
36.631904 174.187358 l
37.013997 174.056256 l
37.39609 172.821805 l
37.778183 172.716139 l
38.160277 172.198157 l
38.924463 172.068188 l
39.306556 171.127101 l
39.688649 170.867745 l
40.070742 168.169907 l
40.452835 167.584658 l
40.834928 166.174845 l
41.217021 164.186562 l
41.981207 163.935995 l
42.3633 162.866742 l
43.127486 162.51239 l
43.50958 162.308292 l
43.891673 161.885345 l
44.273766 161.261384 l
44.655859 160.98199 l
45.037952 160.120717 l
45.420045 159.948724 l
45.802138 159.259162 l
46.184231 159.191567 l
46.566324 158.333922 l
46.948417 157.790087 l
47.712603 157.496119 l
48.094696 156.286633 l
48.858883 156.185953 l
49.240976 155.798746 l
49.623069 155.730785 l
50.005162 155.536962 l
50.387255 154.942608 l
50.769348 154.764974 l
51.533534 154.09424 l
52.679813 153.751152 l
53.061906 153.167328 l
53.443999 152.899456 l
53.826093 151.816074 l
54.590279 151.499506 l
54.972372 151.35097 l
55.354465 151.047269 l
56.500744 150.531781 l
58.411209 149.410861 l
59.175396 149.271536 l
59.557489 148.910711 l
61.085861 148.620002 l
61.467954 148.357168 l
62.23214 148.293004 l
62.614233 147.564321 l
63.378419 147.473116 l
63.760512 147.247181 l
64.142606 147.210801 l
64.524699 146.986564 l
66.817257 146.347963 l
69.491909 145.496368 l
69.874002 145.189664 l
70.256095 145.114687 l
71.020281 144.805335 l
71.784467 144.770733 l
72.548653 144.586062 l
74.077025 144.418467 l
74.841212 144.214023 l
77.13377 144.032476 l
79.426328 143.930374 l
82.10098 143.50848 l
84.011445 143.176755 l
85.921911 143.097704 l
87.450283 142.770794 l
88.596562 142.705748 l
92.799586 142.571389 l
95.474238 142.276336 l
97.00261 142.16307 l
97.766796 142.048787 l
104.262378 141.782316 l
106.554937 141.648269 l
118.399822 141.066966 l
119.164008 140.972628 l
121.456567 140.893181 l
122.984939 140.786422 l
131.390986 140.485087 l
136.74029 140.294429 l
141.325406 140.17534 l
144.764244 140.006279 l
149.349361 139.865069 l
150.49564 139.767947 l
156.609129 139.658895 l
158.519595 139.565742 l
167.307735 139.407257 l
182.973551 139.095565 l
188.704948 138.975667 l
214.305183 138.347532 l
216.215649 138.243034 l
218.126114 138.143661 l
222.711231 138.011824 l
223.475417 137.847876 l
224.239603 137.794038 l
224.621696 137.596064 l
225.767976 137.440254 l
226.150069 137.270912 l
226.150069 137.270912 l
stroke
grestore
gsave
190.664 42.935 35.486 134.736 clipbox
35.485625 175.027665 m
35.867718 174.776857 l
36.249811 174.141137 l
37.778183 172.983639 l
38.160277 171.747406 l
39.306556 170.920072 l
39.688649 170.867574 l
40.452835 170.355884 l
40.834928 170.237463 l
41.217021 169.517719 l
41.981207 169.382825 l
42.3633 168.696092 l
43.50958 167.42736 l
43.891673 165.727289 l
44.655859 165.135932 l
45.037952 164.016658 l
45.420045 163.591784 l
45.802138 162.592334 l
46.184231 162.178195 l
46.566324 162.006823 l
46.948417 161.505351 l
47.33051 161.465124 l
47.712603 160.48543 l
48.858883 160.206472 l
49.240976 160.013035 l
50.005162 159.959432 l
51.533534 159.134108 l
52.29772 159.005121 l
53.061906 158.210649 l
53.443999 157.786642 l
54.208186 157.67739 l
55.736558 157.470275 l
56.118651 157.310887 l
56.500744 156.97489 l
56.882837 156.864718 l
57.647023 156.316831 l
59.557489 155.971726 l
59.939582 155.688364 l
60.703768 155.652603 l
61.085861 155.314264 l
61.467954 155.242853 l
61.850047 154.731923 l
63.378419 154.105858 l
64.142606 153.374879 l
64.524699 153.294625 l
64.906792 153.022801 l
65.670978 153.01627 l
66.435164 152.830029 l
66.817257 152.793226 l
68.345629 151.893182 l
68.727722 151.512078 l
69.491909 151.39317 l
70.256095 151.229799 l
70.638188 150.991869 l
71.020281 150.886021 l
71.784467 150.426539 l
74.077025 149.960751 l
74.459119 149.728305 l
75.223305 149.671339 l
75.987491 149.269803 l
76.751677 149.251922 l
77.13377 149.065691 l
77.515863 148.236106 l
77.897956 148.233527 l
78.662142 148.02216 l
79.808422 147.840605 l
80.190515 147.814684 l
80.954701 147.466328 l
82.10098 147.395844 l
83.247259 146.988671 l
84.011445 146.9354 l
85.157725 146.649486 l
91.271214 146.01151 l
92.0354 145.922244 l
92.417493 145.874675 l
93.181679 145.459029 l
93.945865 145.413922 l
94.710051 145.257015 l
96.238424 145.0537 l
98.530982 144.571097 l
98.913075 144.56082 l
99.677261 144.379986 l
100.823541 144.266692 l
103.880285 143.870677 l
105.408657 143.779928 l
107.701216 143.259252 l
108.465402 143.246759 l
108.847495 143.085805 l
113.432612 142.738856 l
118.781915 142.335106 l
121.83866 142.19671 l
123.749125 142.055171 l
125.65959 141.88383 l
127.187963 141.815661 l
128.334242 141.72993 l
129.480521 141.57958 l
139.032848 141.053075 l
143.235872 140.899774 l
145.52843 140.828093 l
149.731454 140.663011 l
154.698664 140.522132 l
164.250991 140.2784 l
165.015177 140.192654 l
175.33169 139.929843 l
176.095876 139.849836 l
192.907971 139.514286 l
202.078205 139.332942 l
218.8903 138.745792 l
219.654486 138.669883 l
222.329138 138.495089 l
225.003789 138.319578 l
225.767976 138.056326 l
226.150069 137.631358 l
226.150069 137.631358 l
stroke
grestore
gsave
190.664 42.935 35.486 134.736 clipbox
35.485625 175.206684 m
36.631904 174.151622 l
37.013997 174.077108 l
37.39609 173.251759 l
37.778183 172.720009 l
38.160277 172.57831 l
38.54237 172.062319 l
38.924463 171.315676 l
39.306556 170.066978 l
39.688649 170.06681 l
40.070742 169.547579 l
40.834928 169.024985 l
41.217021 166.394035 l
41.599114 164.58066 l
42.3633 162.64191 l
43.127486 161.606543 l
43.50958 161.485472 l
44.273766 159.007048 l
44.655859 158.915211 l
45.420045 157.041154 l
45.802138 156.990803 l
46.184231 156.399407 l
46.566324 155.299032 l
46.948417 155.27593 l
47.33051 155.069548 l
47.712603 154.664633 l
48.094696 154.519065 l
48.47679 154.06801 l
49.240976 152.879684 l
49.623069 152.782339 l
50.769348 152.049972 l
51.533534 151.974261 l
52.29772 150.697395 l
53.443999 150.348227 l
53.826093 150.343956 l
54.972372 149.859776 l
55.354465 149.400692 l
56.118651 149.127541 l
56.882837 148.95074 l
57.647023 148.860147 l
58.029116 148.618003 l
58.411209 148.615845 l
58.793302 148.407972 l
59.939582 148.174529 l
60.321675 147.988461 l
60.703768 147.957069 l
61.085861 147.615871 l
61.850047 147.469427 l
62.23214 147.160881 l
63.760512 146.973167 l
64.142606 146.576376 l
65.288885 146.259679 l
65.670978 146.254987 l
66.053071 145.810438 l
66.817257 145.633183 l
67.581443 145.484783 l
68.727722 145.303169 l
69.491909 145.150406 l
70.638188 144.885804 l
71.020281 144.594967 l
72.548653 144.273368 l
72.930746 144.260419 l
73.312839 144.022936 l
74.077025 144.009314 l
74.841212 143.826691 l
75.605398 143.700466 l
82.865166 142.919079 l
86.304004 142.737789 l
87.450283 142.629394 l
90.889121 142.325286 l
96.238424 142.055507 l
102.351913 141.713837 l
104.644471 141.610944 l
106.172844 141.494382 l
109.993774 141.303833 l
112.286333 141.203769 l
113.432612 141.123239 l
114.578891 141.075867 l
118.781915 140.934599 l
121.456567 140.817491 l
131.008893 140.602888 l
142.471686 140.373169 l
147.056802 140.257975 l
168.454015 139.824794 l
172.657038 139.680231 l
178.388435 139.56961 l
180.680993 139.518251 l
186.794482 139.418778 l
190.23332 139.329521 l
197.110995 139.207785 l
202.460298 139.106122 l
205.517043 138.996787 l
210.10216 138.905763 l
211.630532 138.814474 l
224.239603 138.153197 l
226.150069 137.864061 l
226.150069 137.864061 l
stroke
grestore
gsave
190.664 42.935 35.486 134.736 clipbox
35.485625 174.279716 m
35.867718 173.988479 l
36.631904 173.930811 l
37.013997 173.359895 l
37.39609 173.227379 l
38.160277 172.490467 l
39.306556 172.160458 l
39.688649 171.69594 l
40.452835 171.233544 l
40.834928 170.50181 l
41.217021 170.312035 l
41.599114 169.208558 l
43.50958 168.489135 l
45.037952 164.111809 l
45.420045 164.094519 l
45.802138 163.51304 l
46.566324 161.284381 l
46.948417 161.185455 l
47.33051 160.853083 l
47.712603 160.743712 l
48.47679 159.432396 l
48.858883 159.270869 l
49.240976 158.728871 l
49.623069 158.693105 l
51.151441 158.095362 l
51.915627 157.188249 l
53.061906 156.89616 l
54.208186 156.665622 l
54.590279 156.29214 l
55.354465 156.244061 l
56.118651 155.205022 l
56.882837 154.772536 l
57.26493 154.711727 l
57.647023 154.463951 l
58.029116 154.367721 l
58.411209 153.744635 l
59.175396 153.201203 l
59.557489 152.667441 l
61.085861 152.012815 l
61.467954 151.489802 l
61.850047 151.315512 l
62.23214 151.304249 l
62.614233 150.551327 l
63.760512 150.063157 l
64.142606 149.914523 l
64.906792 149.833024 l
65.288885 149.755425 l
66.053071 149.205242 l
66.435164 148.790322 l
67.19935 148.457899 l
67.581443 147.989665 l
68.727722 147.663542 l
69.491909 147.587243 l
69.874002 147.307008 l
70.638188 147.141878 l
72.16656 146.738081 l
72.548653 146.306495 l
74.841212 145.618492 l
75.223305 145.232107 l
75.987491 145.169108 l
76.369584 144.938353 l
77.515863 144.866485 l
77.897956 144.4543 l
79.044235 144.393366 l
79.808422 144.103313 l
82.865166 143.685375 l
84.011445 143.562497 l
85.157725 143.266685 l
90.124935 142.882969 l
91.653307 142.665239 l
93.945865 142.553761 l
97.384703 142.238601 l
100.441448 142.032803 l
109.229588 141.380488 l
114.960984 141.21951 l
118.399822 140.972824 l
122.220753 140.800306 l
123.749125 140.754975 l
163.868898 139.686704 l
171.892852 139.577365 l
218.8903 138.673294 l
225.385883 138.200555 l
225.767976 138.04009 l
226.150069 138.011498 l
226.150069 138.011498 l
stroke
grestore
gsave
190.664 42.935 35.486 134.736 clipbox
35.485625 175.55849 m
35.867718 175.390053 l
36.249811 174.794282 l
36.631904 173.136245 l
37.39609 172.785143 l
37.778183 171.776373 l
38.160277 171.099665 l
38.924463 170.855279 l
39.688649 170.065784 l
40.070742 170.052015 l
40.452835 169.56473 l
40.834928 169.306895 l
41.217021 169.201772 l
41.599114 168.833904 l
42.745393 168.603782 l
43.127486 167.769646 l
43.891673 167.275781 l
44.273766 166.802572 l
44.655859 165.954862 l
45.037952 165.392235 l
45.420045 165.191595 l
45.802138 164.544802 l
46.184231 164.160784 l
46.566324 163.598231 l
47.33051 163.319198 l
47.712603 162.731218 l
48.094696 162.717643 l
48.47679 162.400852 l
48.858883 161.854765 l
49.240976 161.563226 l
49.623069 160.947354 l
50.005162 159.931763 l
50.387255 159.849984 l
50.769348 159.550756 l
52.29772 158.965449 l
52.679813 158.686273 l
53.061906 158.552946 l
53.443999 158.271069 l
53.826093 158.218353 l
54.208186 157.727653 l
54.590279 156.922798 l
54.972372 156.384887 l
55.354465 156.122474 l
56.118651 155.341267 l
56.500744 155.271597 l
56.882837 154.81615 l
57.26493 154.028756 l
57.647023 153.67125 l
58.411209 153.608399 l
58.793302 153.5045 l
59.175396 153.114634 l
60.703768 152.819848 l
61.085861 152.770658 l
61.467954 152.449797 l
62.614233 152.256827 l
63.378419 151.609466 l
63.760512 151.451413 l
64.524699 150.688569 l
65.288885 150.537821 l
65.670978 150.520641 l
67.19935 149.792903 l
68.345629 149.684946 l
68.727722 149.303196 l
71.020281 148.801886 l
72.16656 148.562196 l
73.312839 148.166619 l
75.223305 148.059277 l
75.605398 148.013448 l
77.515863 147.193599 l
78.280049 147.1737 l
78.662142 146.931581 l
79.426328 146.782057 l
79.808422 146.487025 l
80.572608 146.228913 l
80.954701 145.927997 l
82.10098 145.787721 l
82.865166 145.730702 l
83.247259 145.319193 l
84.393538 145.15727 l
88.978655 144.514762 l
89.360748 144.277742 l
90.507028 144.047505 l
90.889121 143.856737 l
91.271214 143.847641 l
92.0354 143.601754 l
94.327958 143.434588 l
95.092144 143.222403 l
95.856331 143.144403 l
96.620517 143.043124 l
101.96982 142.462301 l
103.498192 142.147995 l
124.131218 140.766309 l
132.537266 140.388145 l
134.447731 140.27146 l
140.943313 140.150199 l
147.438896 139.945982 l
148.585175 139.888267 l
153.552385 139.77514 l
200.16774 138.547122 l
203.224484 138.492372 l
210.866346 138.222415 l
213.158904 138.134587 l
216.215649 138.036695 l
218.8903 137.827655 l
222.711231 137.609301 l
224.239603 137.485838 l
226.150069 137.082121 l
226.150069 137.082121 l
stroke
grestore
gsave
190.664 42.935 35.486 134.736 clipbox
35.485625 175.367524 m
35.867718 174.781931 l
36.631904 174.496911 l
37.013997 173.974848 l
37.778183 172.628393 l
38.924463 171.370344 l
39.306556 170.924595 l
39.688649 170.788687 l
40.070742 169.34263 l
40.452835 165.974608 l
40.834928 164.360047 l
41.217021 163.963038 l
41.981207 161.782041 l
42.3633 160.768344 l
43.127486 160.160626 l
43.50958 159.771348 l
44.273766 159.720199 l
44.655859 159.523616 l
45.037952 158.544083 l
45.420045 158.478152 l
45.802138 157.920633 l
46.184231 156.651277 l
46.566324 155.987952 l
46.948417 155.860131 l
47.33051 155.336439 l
47.712603 153.539354 l
48.47679 153.157024 l
48.858883 152.463893 l
49.240976 152.193876 l
49.623069 151.767056 l
50.387255 151.586545 l
50.769348 151.16615 l
51.151441 151.140219 l
52.29772 150.321518 l
52.679813 150.262473 l
53.061906 149.890681 l
53.443999 149.701282 l
53.826093 148.741025 l
54.590279 148.566781 l
54.972372 148.09565 l
56.118651 147.58353 l
57.26493 146.895112 l
57.647023 146.880418 l
58.029116 146.551661 l
59.175396 146.473678 l
60.321675 145.90862 l
62.996326 145.29739 l
64.524699 145.08106 l
65.288885 144.906931 l
65.670978 144.567963 l
66.435164 144.455215 l
66.817257 144.240371 l
67.963536 144.101228 l
68.345629 143.939226 l
69.109815 143.885516 l
69.491909 143.629992 l
70.638188 143.542304 l
71.402374 143.404686 l
74.841212 142.883416 l
75.223305 142.635534 l
76.751677 142.490815 l
78.662142 142.317967 l
79.808422 142.222741 l
92.799586 141.052386 l
93.181679 140.854423 l
97.384703 140.672706 l
100.059354 140.590436 l
107.701216 140.370487 l
111.140054 140.244108 l
118.781915 140.093982 l
166.925642 139.044782 l
182.591458 138.773687 l
184.884017 138.711565 l
192.525878 138.603457 l
207.045415 138.298225 l
211.630532 138.111759 l
217.361928 137.946985 l
222.329138 137.770206 l
222.711231 137.623762 l
225.767976 137.390016 l
226.150069 137.257922 l
226.150069 137.257922 l
stroke
grestore
gsave
190.664 42.935 35.486 134.736 clipbox
35.485625 175.404213 m
35.867718 175.173232 l
36.249811 174.571135 l
36.631904 174.53434 l
37.013997 173.799356 l
37.39609 173.584189 l
37.778183 172.04253 l
38.160277 171.031106 l
38.54237 170.988998 l
38.924463 170.65721 l
39.688649 170.370321 l
40.834928 169.177932 l
41.217021 165.452812 l
42.745393 161.335083 l
43.50958 161.131659 l
43.891673 159.889982 l
44.273766 159.782428 l
44.655859 159.339922 l
45.037952 159.290146 l
45.802138 157.723406 l
46.566324 157.503686 l
47.712603 156.647456 l
48.094696 156.168535 l
48.47679 156.155159 l
48.858883 155.245245 l
49.240976 155.009585 l
49.623069 154.951675 l
50.005162 154.775457 l
50.769348 153.833989 l
51.151441 153.545943 l
51.915627 153.413884 l
52.679813 153.007928 l
53.443999 152.739257 l
53.826093 152.02896 l
54.208186 151.714673 l
55.354465 151.333402 l
56.118651 151.260046 l
56.500744 151.116567 l
56.882837 151.103284 l
57.647023 150.549488 l
58.029116 150.540856 l
58.793302 150.212819 l
59.175396 149.588532 l
59.557489 149.536461 l
60.703768 149.014242 l
62.23214 148.773545 l
62.996326 148.659432 l
63.378419 147.904843 l
64.906792 147.224658 l
65.288885 147.002032 l
66.435164 146.914327 l
69.109815 145.847836 l
69.491909 145.512792 l
70.256095 145.3316 l
71.402374 145.157669 l
72.16656 144.886858 l
72.930746 144.832165 l
73.312839 144.527624 l
74.077025 144.483292 l
74.459119 144.205792 l
75.605398 144.109001 l
77.515863 143.91478 l
77.897956 143.750484 l
79.808422 143.534339 l
81.336794 143.205909 l
82.865166 143.035921 l
95.474238 141.784918 l
96.238424 141.582751 l
97.384703 141.437499 l
99.295168 141.310198 l
100.059354 141.115296 l
101.205634 141.00953 l
102.351913 140.926189 l
114.578891 140.297367 l
118.017729 140.240726 l
122.602846 140.129552 l
124.895404 139.995225 l
130.244707 139.842313 l
132.155173 139.747282 l
133.683545 139.676113 l
134.829824 139.602893 l
136.358196 139.545299 l
142.853779 139.423377 l
178.006341 138.633438 l
198.257274 138.239919 l
203.224484 138.087262 l
216.215649 137.680635 l
223.85751 137.405917 l
225.385883 137.01594 l
225.767976 136.781641 l
226.150069 136.719225 l
226.150069 136.719225 l
stroke
grestore
gsave
190.664 42.935 35.486 134.736 clipbox
35.485625 174.948162 m
35.867718 174.664326 l
36.249811 174.010862 l
37.39609 173.279071 l
38.160277 173.001917 l
38.54237 172.418512 l
38.924463 171.028448 l
40.070742 169.879148 l
40.452835 169.796296 l
40.834928 169.555983 l
41.217021 168.994391 l
42.745393 168.473028 l
43.127486 167.607388 l
43.50958 167.416716 l
43.891673 167.032578 l
44.655859 165.253887 l
45.037952 165.145528 l
45.420045 164.755707 l
46.184231 164.310881 l
46.566324 164.234477 l
47.33051 162.817489 l
48.858883 162.040143 l
49.623069 161.993197 l
50.387255 160.620886 l
50.769348 160.60897 l
51.151441 160.354005 l
52.679813 160.015076 l
53.061906 158.902865 l
53.443999 158.70293 l
53.826093 157.940611 l
54.208186 157.92936 l
54.590279 157.507355 l
59.557489 154.66152 l
59.939582 154.462472 l
60.321675 153.96673 l
60.703768 153.668766 l
61.085861 152.942701 l
62.23214 152.799277 l
62.614233 152.240961 l
62.996326 152.218337 l
64.906792 151.656159 l
66.053071 151.558154 l
66.817257 151.216133 l
67.581443 150.423721 l
68.345629 150.20908 l
68.727722 149.75013 l
69.491909 149.63252 l
69.874002 149.28189 l
70.638188 149.185754 l
73.312839 148.622924 l
74.077025 148.101703 l
74.459119 147.89817 l
76.369584 147.754653 l
76.751677 147.58678 l
77.515863 146.974857 l
77.897956 146.811868 l
78.280049 146.807521 l
80.190515 146.280169 l
81.336794 146.158129 l
82.483073 145.800874 l
82.865166 145.735099 l
83.629352 145.460297 l
85.539818 145.093101 l
88.596562 144.748167 l
88.978655 144.353286 l
97.00261 143.571106 l
98.148889 143.465521 l
98.913075 143.292431 l
99.677261 143.27603 l
100.441448 143.174492 l
105.026564 142.629073 l
105.790751 142.511829 l
117.253543 141.985943 l
118.017729 141.876986 l
121.456567 141.72653 l
123.749125 141.660919 l
127.570056 141.52651 l
128.334242 141.445503 l
132.537266 141.19118 l
138.650755 141.06813 l
140.943313 140.967391 l
156.609129 140.421383 l
158.519595 140.324182 l
168.454015 140.076218 l
173.039131 139.881991 l
175.713783 139.815842 l
204.752857 139.150376 l
220.800766 138.55159 l
222.711231 138.427381 l
225.003789 138.333445 l
225.767976 138.178312 l
226.150069 137.999188 l
226.150069 137.999188 l
stroke
grestore
1.500 setlinewidth
0.529 0.808 0.980 setrgbcolor
gsave
190.664 42.935 35.486 134.736 clipbox
35.485625 175.686439 m
36.249811 175.267412 l
36.631904 173.535224 l
37.013997 172.541296 l
37.778183 172.071345 l
38.924463 170.532654 l
39.306556 170.341675 l
39.688649 169.322172 l
40.070742 168.999828 l
40.834928 168.775312 l
41.217021 167.812517 l
41.599114 167.736985 l
41.981207 166.537869 l
42.3633 166.423421 l
42.745393 166.10354 l
43.127486 165.958468 l
43.50958 165.623227 l
43.891673 164.90861 l
44.273766 164.734559 l
44.655859 164.318625 l
45.037952 163.476366 l
45.420045 162.969588 l
45.802138 161.813658 l
46.184231 161.568367 l
47.33051 161.462272 l
47.712603 161.214635 l
48.094696 160.739607 l
48.858883 160.598813 l
49.240976 160.20012 l
49.623069 160.171227 l
50.387255 158.914997 l
52.29772 157.348961 l
52.679813 157.052453 l
53.061906 156.989521 l
53.443999 156.731663 l
54.590279 156.515774 l
55.354465 155.203864 l
55.736558 155.08395 l
56.118651 154.794912 l
56.882837 154.671696 l
57.26493 154.374562 l
57.647023 154.299507 l
58.029116 153.975597 l
58.411209 153.850984 l
58.793302 153.442968 l
59.175396 153.416865 l
59.557489 153.153739 l
60.321675 153.077115 l
60.703768 152.844238 l
61.467954 152.809292 l
61.850047 151.850257 l
62.23214 151.727942 l
62.614233 151.458486 l
62.996326 150.7998 l
63.760512 150.67639 l
64.524699 150.112115 l
65.670978 149.636248 l
66.053071 149.61526 l
66.435164 149.475667 l
66.817257 149.470187 l
67.19935 149.23 l
67.963536 149.185233 l
68.345629 148.905283 l
70.256095 148.317304 l
72.16656 148.092278 l
72.930746 147.633266 l
73.312839 147.632774 l
74.077025 147.275684 l
75.223305 147.069779 l
77.13377 146.722542 l
77.515863 146.450035 l
80.572608 146.056039 l
80.954701 145.915478 l
81.718887 145.82178 l
82.483073 145.612447 l
84.393538 145.484265 l
85.921911 145.219819 l
86.686097 144.788121 l
88.596562 144.54202 l
88.978655 144.328611 l
89.742841 144.235668 l
90.507028 144.129953 l
91.653307 143.968813 l
93.563772 143.739219 l
95.474238 143.620666 l
97.766796 143.348342 l
98.530982 143.305529 l
98.913075 143.147966 l
100.441448 143.03139 l
101.205634 142.907222 l
102.734006 142.725778 l
106.172844 142.442188 l
107.319123 142.382257 l
108.083309 142.311106 l
111.140054 142.171644 l
112.668426 142.039641 l
114.196798 141.865887 l
127.570056 141.232436 l
128.716335 141.137265 l
131.390986 141.004333 l
138.650755 140.585843 l
140.56122 140.469917 l
142.471686 140.367121 l
145.146337 140.255624 l
148.967268 140.150145 l
158.901688 139.897257 l
161.576339 139.806618 l
163.104712 139.751974 l
174.567504 139.49756 l
217.361928 138.183961 l
219.654486 138.102993 l
221.947045 137.974434 l
223.093324 137.769366 l
224.621696 137.726008 l
225.003789 137.523063 l
225.385883 137.505988 l
225.767976 137.098502 l
226.150069 137.075459 l
226.150069 137.075459 l
stroke
grestore
0.800 setlinewidth
0 setlinejoin
0.000 setgray
gsave
35.485625 134.735963 m
35.485625 177.670769 l
stroke
grestore
gsave
226.150069 134.735963 m
226.150069 177.670769 l
stroke
grestore
gsave
35.485625 134.735963 m
226.150069 134.735963 l
stroke
grestore
gsave
35.485625 177.670769 m
226.150069 177.670769 l
stroke
grestore
gsave
8.792603 186.257731 translate
0.000000 rotate
/DejaVuSans-Bold 9.0 selectfont
0.000000 0.437500 moveto
/A glyphshow
grestore
/DejaVuSans 8.400 selectfont
gsave

58.692847 183.670769 translate
0.000000 rotate
0.000000 0 m /S glyphshow
5.326080 0 m /n glyphshow
10.643967 0 m /a glyphshow
15.785675 0 m /p glyphshow
21.111755 0 m /s glyphshow
25.483231 0 m /h glyphshow
30.801117 0 m /o glyphshow
35.934631 0 m /t glyphshow
39.224503 0 m /s glyphshow
43.595978 0 m /space glyphshow
46.263107 0 m /o glyphshow
51.396622 0 m /f glyphshow
54.350540 0 m /space glyphshow
57.017670 0 m /r glyphshow
60.467331 0 m /a glyphshow
65.609039 0 m /n glyphshow
70.926926 0 m /k glyphshow
75.785950 0 m /hyphen glyphshow
78.813614 0 m /a glyphshow
83.955322 0 m /b glyphshow
89.281403 0 m /u glyphshow
94.599289 0 m /n glyphshow
99.917175 0 m /d glyphshow
105.243256 0 m /a glyphshow
110.384964 0 m /n glyphshow
115.702850 0 m /c glyphshow
120.316055 0 m /e glyphshow
125.478256 0 m /space glyphshow
128.145386 0 m /p glyphshow
133.471466 0 m /l glyphshow
135.802643 0 m /o glyphshow
140.936157 0 m /t glyphshow
grestore
gsave
35.485625 26.485625 m
226.150069 26.485625 l
226.150069 90.887835 l
35.485625 90.887835 l
cl
1.000 setgray
fill
grestore
0.200 setlinewidth
0 setlinecap
gsave
190.664 64.402 35.486 26.486 clipbox
15.367233 -4398.292838 m
19.883606 -4398.292838 l
19.883606 -4398.292838 l
15.367233 -4398.292838 l
cl
gsave
0.529 0.808 0.980 setrgbcolor
fill
grestore
stroke
grestore
gsave
190.664 64.402 35.486 26.486 clipbox
19.883606 -4398.292838 m
24.39998 -4398.292838 l
24.39998 -4398.292838 l
19.883606 -4398.292838 l
cl
gsave
0.529 0.808 0.980 setrgbcolor
fill
grestore
stroke
grestore
gsave
190.664 64.402 35.486 26.486 clipbox
24.39998 -4398.292838 m
28.916354 -4398.292838 l
28.916354 -4398.292838 l
24.39998 -4398.292838 l
cl
gsave
0.529 0.808 0.980 setrgbcolor
fill
grestore
stroke
grestore
gsave
190.664 64.402 35.486 26.486 clipbox
28.916354 -4398.292838 m
33.432728 -4398.292838 l
33.432728 -4398.292838 l
28.916354 -4398.292838 l
cl
gsave
0.529 0.808 0.980 setrgbcolor
fill
grestore
stroke
grestore
gsave
190.664 64.402 35.486 26.486 clipbox
33.432728 -4398.292838 m
37.949102 -4398.292838 l
37.949102 -4398.292838 l
33.432728 -4398.292838 l
cl
gsave
0.529 0.808 0.980 setrgbcolor
fill
grestore
stroke
grestore
gsave
190.664 64.402 35.486 26.486 clipbox
37.949102 -4398.292838 m
42.465475 -4398.292838 l
42.465475 -4398.292838 l
37.949102 -4398.292838 l
cl
gsave
0.529 0.808 0.980 setrgbcolor
fill
grestore
stroke
grestore
gsave
190.664 64.402 35.486 26.486 clipbox
42.465475 -4398.292838 m
46.981849 -4398.292838 l
46.981849 -4398.292838 l
42.465475 -4398.292838 l
cl
gsave
0.529 0.808 0.980 setrgbcolor
fill
grestore
stroke
grestore
gsave
190.664 64.402 35.486 26.486 clipbox
46.981849 -4398.292838 m
51.498223 -4398.292838 l
51.498223 -4398.292838 l
46.981849 -4398.292838 l
cl
gsave
0.529 0.808 0.980 setrgbcolor
fill
grestore
stroke
grestore
gsave
190.664 64.402 35.486 26.486 clipbox
51.498223 -4398.292838 m
56.014597 -4398.292838 l
56.014597 83.060146 l
51.498223 83.060146 l
cl
gsave
0.529 0.808 0.980 setrgbcolor
fill
grestore
stroke
grestore
gsave
190.664 64.402 35.486 26.486 clipbox
56.014597 -4398.292838 m
60.530971 -4398.292838 l
60.530971 87.021238 l
56.014597 87.021238 l
cl
gsave
0.529 0.808 0.980 setrgbcolor
fill
grestore
stroke
grestore
gsave
190.664 64.402 35.486 26.486 clipbox
60.530971 -4398.292838 m
65.047344 -4398.292838 l
65.047344 87.417104 l
60.530971 87.417104 l
cl
gsave
0.529 0.808 0.980 setrgbcolor
fill
grestore
stroke
grestore
gsave
190.664 64.402 35.486 26.486 clipbox
65.047344 -4398.292838 m
69.563718 -4398.292838 l
69.563718 85.781001 l
65.047344 85.781001 l
cl
gsave
0.529 0.808 0.980 setrgbcolor
fill
grestore
stroke
grestore
gsave
190.664 64.402 35.486 26.486 clipbox
69.563718 -4398.292838 m
74.080092 -4398.292838 l
74.080092 84.130492 l
69.563718 84.130492 l
cl
gsave
0.529 0.808 0.980 setrgbcolor
fill
grestore
stroke
grestore
gsave
190.664 64.402 35.486 26.486 clipbox
74.080092 -4398.292838 m
78.596466 -4398.292838 l
78.596466 82.364047 l
74.080092 82.364047 l
cl
gsave
0.529 0.808 0.980 setrgbcolor
fill
grestore
stroke
grestore
gsave
190.664 64.402 35.486 26.486 clipbox
78.596466 -4398.292838 m
83.11284 -4398.292838 l
83.11284 80.60606 l
78.596466 80.60606 l
cl
gsave
0.529 0.808 0.980 setrgbcolor
fill
grestore
stroke
grestore
gsave
190.664 64.402 35.486 26.486 clipbox
83.11284 -4398.292838 m
87.629213 -4398.292838 l
87.629213 78.186757 l
83.11284 78.186757 l
cl
gsave
0.529 0.808 0.980 setrgbcolor
fill
grestore
stroke
grestore
gsave
190.664 64.402 35.486 26.486 clipbox
87.629213 -4398.292838 m
92.145587 -4398.292838 l
92.145587 78.07579 l
87.629213 78.07579 l
cl
gsave
0.529 0.808 0.980 setrgbcolor
fill
grestore
stroke
grestore
gsave
190.664 64.402 35.486 26.486 clipbox
92.145587 -4398.292838 m
96.661961 -4398.292838 l
96.661961 76.187271 l
92.145587 76.187271 l
cl
gsave
0.529 0.808 0.980 setrgbcolor
fill
grestore
stroke
grestore
gsave
190.664 64.402 35.486 26.486 clipbox
96.661961 -4398.292838 m
101.178335 -4398.292838 l
101.178335 75.187528 l
96.661961 75.187528 l
cl
gsave
0.529 0.808 0.980 setrgbcolor
fill
grestore
stroke
grestore
gsave
190.664 64.402 35.486 26.486 clipbox
101.178335 -4398.292838 m
105.694708 -4398.292838 l
105.694708 73.631383 l
101.178335 73.631383 l
cl
gsave
0.529 0.808 0.980 setrgbcolor
fill
grestore
stroke
grestore
gsave
190.664 64.402 35.486 26.486 clipbox
105.694708 -4398.292838 m
110.211082 -4398.292838 l
110.211082 72.145576 l
105.694708 72.145576 l
cl
gsave
0.529 0.808 0.980 setrgbcolor
fill
grestore
stroke
grestore
gsave
190.664 64.402 35.486 26.486 clipbox
110.211082 -4398.292838 m
114.727456 -4398.292838 l
114.727456 69.507085 l
110.211082 69.507085 l
cl
gsave
0.529 0.808 0.980 setrgbcolor
fill
grestore
stroke
grestore
gsave
190.664 64.402 35.486 26.486 clipbox
114.727456 -4398.292838 m
119.24383 -4398.292838 l
119.24383 68.507342 l
114.727456 68.507342 l
cl
gsave
0.529 0.808 0.980 setrgbcolor
fill
grestore
stroke
grestore
gsave
190.664 64.402 35.486 26.486 clipbox
119.24383 -4398.292838 m
123.760204 -4398.292838 l
123.760204 69.146347 l
119.24383 69.146347 l
cl
gsave
0.529 0.808 0.980 setrgbcolor
fill
grestore
stroke
grestore
gsave
190.664 64.402 35.486 26.486 clipbox
123.760204 -4398.292838 m
128.276577 -4398.292838 l
128.276577 68.146604 l
123.760204 68.146604 l
cl
gsave
0.529 0.808 0.980 setrgbcolor
fill
grestore
stroke
grestore
gsave
190.664 64.402 35.486 26.486 clipbox
128.276577 -4398.292838 m
132.792951 -4398.292838 l
132.792951 63.383301 l
128.276577 63.383301 l
cl
gsave
0.529 0.808 0.980 setrgbcolor
fill
grestore
stroke
grestore
gsave
190.664 64.402 35.486 26.486 clipbox
132.792951 -4398.292838 m
137.309325 -4398.292838 l
137.309325 66.147118 l
132.792951 66.147118 l
cl
gsave
0.529 0.808 0.980 setrgbcolor
fill
grestore
stroke
grestore
gsave
190.664 64.402 35.486 26.486 clipbox
137.309325 -4398.292838 m
141.825699 -4398.292838 l
141.825699 63.508628 l
137.309325 63.508628 l
cl
gsave
0.529 0.808 0.980 setrgbcolor
fill
grestore
stroke
grestore
gsave
190.664 64.402 35.486 26.486 clipbox
141.825699 -4398.292838 m
146.342073 -4398.292838 l
146.342073 62.508885 l
141.825699 62.508885 l
cl
gsave
0.529 0.808 0.980 setrgbcolor
fill
grestore
stroke
grestore
gsave
190.664 64.402 35.486 26.486 clipbox
146.342073 -4398.292838 m
150.858446 -4398.292838 l
150.858446 62.497123 l
146.342073 62.497123 l
cl
gsave
0.529 0.808 0.980 setrgbcolor
fill
grestore
stroke
grestore
gsave
190.664 64.402 35.486 26.486 clipbox
150.858446 -4398.292838 m
155.37482 -4398.292838 l
155.37482 61.850006 l
150.858446 61.850006 l
cl
gsave
0.529 0.808 0.980 setrgbcolor
fill
grestore
stroke
grestore
gsave
190.664 64.402 35.486 26.486 clipbox
155.37482 -4398.292838 m
159.891194 -4398.292838 l
159.891194 57.384844 l
155.37482 57.384844 l
cl
gsave
0.529 0.808 0.980 setrgbcolor
fill
grestore
stroke
grestore
gsave
190.664 64.402 35.486 26.486 clipbox
159.891194 -4398.292838 m
164.407568 -4398.292838 l
164.407568 56.385101 l
159.891194 56.385101 l
cl
gsave
0.529 0.808 0.980 setrgbcolor
fill
grestore
stroke
grestore
gsave
190.664 64.402 35.486 26.486 clipbox
164.407568 -4398.292838 m
168.923942 -4398.292838 l
168.923942 57.51017 l
164.407568 57.51017 l
cl
gsave
0.529 0.808 0.980 setrgbcolor
fill
grestore
stroke
grestore
gsave
190.664 64.402 35.486 26.486 clipbox
168.923942 -4398.292838 m
173.440315 -4398.292838 l
173.440315 56.510427 l
168.923942 56.510427 l
cl
gsave
0.529 0.808 0.980 setrgbcolor
fill
grestore
stroke
grestore
gsave
190.664 64.402 35.486 26.486 clipbox
173.440315 -4398.292838 m
177.956689 -4398.292838 l
177.956689 54.726479 l
173.440315 54.726479 l
cl
gsave
0.529 0.808 0.980 setrgbcolor
fill
grestore
stroke
grestore
gsave
190.664 64.402 35.486 26.486 clipbox
177.956689 -4398.292838 m
182.473063 -4398.292838 l
182.473063 53.726736 l
177.956689 53.726736 l
cl
gsave
0.529 0.808 0.980 setrgbcolor
fill
grestore
stroke
grestore
gsave
190.664 64.402 35.486 26.486 clipbox
182.473063 -4398.292838 m
186.989437 -4398.292838 l
186.989437 54.0676 l
182.473063 54.0676 l
cl
gsave
0.529 0.808 0.980 setrgbcolor
fill
grestore
stroke
grestore
gsave
190.664 64.402 35.486 26.486 clipbox
186.989437 -4398.292838 m
191.505811 -4398.292838 l
191.505811 51.72725 l
186.989437 51.72725 l
cl
gsave
0.529 0.808 0.980 setrgbcolor
fill
grestore
stroke
grestore
gsave
190.664 64.402 35.486 26.486 clipbox
191.505811 -4398.292838 m
196.022184 -4398.292838 l
196.022184 50.727507 l
191.505811 50.727507 l
cl
gsave
0.529 0.808 0.980 setrgbcolor
fill
grestore
stroke
grestore
gsave
190.664 64.402 35.486 26.486 clipbox
196.022184 -4398.292838 m
200.538558 -4398.292838 l
200.538558 50.511969 l
196.022184 50.511969 l
cl
gsave
0.529 0.808 0.980 setrgbcolor
fill
grestore
stroke
grestore
gsave
190.664 64.402 35.486 26.486 clipbox
200.538558 -4398.292838 m
205.054932 -4398.292838 l
205.054932 47.387414 l
200.538558 47.387414 l
cl
gsave
0.529 0.808 0.980 setrgbcolor
fill
grestore
stroke
grestore
gsave
190.664 64.402 35.486 26.486 clipbox
205.054932 -4398.292838 m
209.571306 -4398.292838 l
209.571306 -4398.292838 l
205.054932 -4398.292838 l
cl
gsave
0.529 0.808 0.980 setrgbcolor
fill
grestore
stroke
grestore
gsave
190.664 64.402 35.486 26.486 clipbox
209.571306 -4398.292838 m
214.08768 -4398.292838 l
214.08768 47.512741 l
209.571306 47.512741 l
cl
gsave
0.529 0.808 0.980 setrgbcolor
fill
grestore
stroke
grestore
gsave
190.664 64.402 35.486 26.486 clipbox
214.08768 -4398.292838 m
218.604053 -4398.292838 l
218.604053 -4398.292838 l
214.08768 -4398.292838 l
cl
gsave
0.529 0.808 0.980 setrgbcolor
fill
grestore
stroke
grestore
gsave
190.664 64.402 35.486 26.486 clipbox
218.604053 -4398.292838 m
223.120427 -4398.292838 l
223.120427 -4398.292838 l
218.604053 -4398.292838 l
cl
gsave
0.529 0.808 0.980 setrgbcolor
fill
grestore
stroke
grestore
gsave
190.664 64.402 35.486 26.486 clipbox
223.120427 -4398.292838 m
227.636801 -4398.292838 l
227.636801 -4398.292838 l
223.120427 -4398.292838 l
cl
gsave
0.529 0.808 0.980 setrgbcolor
fill
grestore
stroke
grestore
gsave
190.664 64.402 35.486 26.486 clipbox
227.636801 -4398.292838 m
232.153175 -4398.292838 l
232.153175 -4398.292838 l
227.636801 -4398.292838 l
cl
gsave
0.529 0.808 0.980 setrgbcolor
fill
grestore
stroke
grestore
gsave
190.664 64.402 35.486 26.486 clipbox
232.153175 -4398.292838 m
236.669548 -4398.292838 l
236.669548 -4398.292838 l
232.153175 -4398.292838 l
cl
gsave
0.529 0.808 0.980 setrgbcolor
fill
grestore
stroke
grestore
gsave
190.664 64.402 35.486 26.486 clipbox
16.484921 -4398.292838 m
16.484921 -4398.292838 l
18.720298 -4398.292838 l
20.955675 -4398.292838 l
23.191052 -4398.292838 l
25.426429 -4398.292838 l
27.661806 -4398.292838 l
29.897183 -4398.292838 l
32.13256 -4398.292838 l
34.367937 -4398.292838 l
36.603313 -4398.292838 l
38.83869 -4398.292838 l
41.074067 -4398.292838 l
43.309444 -4398.292838 l
45.544821 -4398.292838 l
47.780198 -4398.292838 l
50.015575 -4398.292838 l
52.250952 79.208583 l
54.486329 83.312775 l
56.721706 85.581473 l
58.957083 86.810196 l
61.19246 87.226159 l
63.427837 87.043557 l
65.663214 86.459828 l
67.89859 85.660203 l
70.133967 84.745334 l
72.369344 83.792281 l
74.604721 82.838846 l
76.840098 81.898755 l
79.075475 81.001713 l
81.310852 80.135256 l
83.546229 79.298739 l
85.781606 78.506441 l
88.016983 77.719948 l
90.25236 76.974329 l
92.487737 76.230405 l
94.723114 75.523416 l
96.958491 74.825835 l
99.193867 74.136422 l
101.429244 73.4611 l
103.664621 72.78371 l
105.899998 72.140007 l
108.135375 71.478133 l
110.370752 70.831005 l
112.606129 70.220128 l
114.841506 69.583597 l
117.076883 68.933822 l
119.31226 68.315775 l
121.547637 67.705926 l
123.783014 67.074966 l
126.018391 66.454391 l
128.253767 65.85611 l
130.489144 65.253342 l
132.724521 64.638878 l
134.959898 64.032505 l
137.195275 63.419612 l
139.430652 62.803306 l
141.666029 62.234583 l
143.901406 61.625619 l
146.136783 61.035991 l
148.37216 60.43096 l
150.607537 59.82675 l
152.842914 59.249944 l
155.078291 58.662492 l
157.313668 58.075173 l
159.549044 57.487185 l
161.784421 56.901125 l
164.019798 56.32843 l
166.255175 55.713338 l
168.490552 55.142058 l
170.725929 54.558701 l
172.961306 53.996897 l
175.196683 53.385447 l
177.43206 52.861321 l
179.667437 52.304893 l
181.902814 51.750155 l
184.138191 51.217091 l
186.373568 50.730437 l
188.608945 50.217401 l
190.844321 49.650328 l
193.079698 49.145792 l
195.315075 48.63513 l
197.550452 48.179075 l
199.785829 47.635807 l
202.021206 47.068831 l
204.256583 46.448939 l
206.49196 45.270444 l
208.727337 43.889391 l
210.962714 40.241617 l
213.198091 -4398.292838 l
215.433468 -4398.292838 l
217.668845 -4398.292838 l
219.904222 -4398.292838 l
222.139598 -4398.292838 l
224.374975 -4398.292838 l
226.610352 -4398.292838 l
228.845729 -4398.292838 l
231.081106 -4398.292838 l
233.316483 -4398.292838 l
235.55186 -4398.292838 l
235.55186 -4398.292838 l
235.55186 -4398.292838 l
233.316483 -4398.292838 l
231.081106 -4398.292838 l
228.845729 -4398.292838 l
226.610352 -4398.292838 l
224.374975 -4398.292838 l
222.139598 -4398.292838 l
219.904222 34.301597 l
217.668845 39.104323 l
215.433468 42.265142 l
213.198091 45.15129 l
210.962714 47.194441 l
208.727337 48.535262 l
206.49196 49.399361 l
204.256583 49.933212 l
202.021206 50.388846 l
199.785829 50.732628 l
197.550452 51.083741 l
195.315075 51.476047 l
193.079698 51.843163 l
190.844321 52.237727 l
188.608945 52.676425 l
186.373568 53.115198 l
184.138191 53.584173 l
181.902814 54.058185 l
179.667437 54.553768 l
177.43206 55.053143 l
175.196683 55.565183 l
172.961306 56.067836 l
170.725929 56.613834 l
168.490552 57.134687 l
166.255175 57.658535 l
164.019798 58.185078 l
161.784421 58.717516 l
159.549044 59.253487 l
157.313668 59.822681 l
155.078291 60.359545 l
152.842914 60.927687 l
150.607537 61.470684 l
148.37216 62.031998 l
146.136783 62.583847 l
143.901406 63.151129 l
141.666029 63.704556 l
139.430652 64.267095 l
137.195275 64.834096 l
134.959898 65.409927 l
132.724521 65.975167 l
130.489144 66.542968 l
128.253767 67.114844 l
126.018391 67.692342 l
123.783014 68.255597 l
121.547637 68.832515 l
119.31226 69.435207 l
117.076883 70.013446 l
114.841506 70.605962 l
112.606129 71.198938 l
110.370752 71.794242 l
108.135375 72.395765 l
105.899998 73.000109 l
103.664621 73.619387 l
101.429244 74.249431 l
99.193867 74.880869 l
96.958491 75.530768 l
94.723114 76.187293 l
92.487737 76.85811 l
90.25236 77.556204 l
88.016983 78.270402 l
85.781606 79.000044 l
83.546229 79.759009 l
81.310852 80.554359 l
79.075475 81.372827 l
76.840098 82.231659 l
74.604721 83.12078 l
72.369344 84.055516 l
70.133967 85.026527 l
67.89859 85.994563 l
65.663214 86.89279 l
63.427837 87.59678 l
61.19246 87.960462 l
58.957083 87.74956 l
56.721706 86.80304 l
54.486329 84.992041 l
52.250952 82.358819 l
50.015575 79.300576 l
47.780198 76.07602 l
45.544821 70.079874 l
43.309444 -4398.292838 l
41.074067 -4398.292838 l
38.83869 -4398.292838 l
36.603313 -4398.292838 l
34.367937 -4398.292838 l
32.13256 -4398.292838 l
29.897183 -4398.292838 l
27.661806 -4398.292838 l
25.426429 -4398.292838 l
23.191052 -4398.292838 l
20.955675 -4398.292838 l
18.720298 -4398.292838 l
16.484921 -4398.292838 l
cl
0.827 setgray
fill
grestore
0.800 setlinewidth
1 setlinejoin
gsave
/o {
gsave
newpath
translate
0.8 setlinewidth
1 setlinejoin

0 setlinecap

0 0 m
0 -3.5 l

gsave
0.000 setgray
fill
grestore
stroke
grestore
} bind def
35.4856 26.4856 o
grestore
gsave
26.985625 12.938750 translate
0.000000 rotate
/DejaVuSans 7.0 selectfont
0.000000 0.678125 moveto
/one glyphshow
4.453613 0.678125 moveto
/zero glyphshow
/DejaVuSans 4.8999999999999995 selectfont
8.974219 3.357812 moveto
/minus glyphshow
13.079883 3.357812 moveto
/nine glyphshow
grestore
gsave
/o {
gsave
newpath
translate
0.8 setlinewidth
1 setlinejoin

0 setlinecap

0 0 m
0 -3.5 l

gsave
0.000 setgray
fill
grestore
stroke
grestore
} bind def
75.7224 26.4856 o
grestore
gsave
67.222410 12.938750 translate
0.000000 rotate
/DejaVuSans 7.0 selectfont
0.000000 0.743750 moveto
/one glyphshow
4.453613 0.743750 moveto
/zero glyphshow
/DejaVuSans 4.8999999999999995 selectfont
8.974219 3.423438 moveto
/minus glyphshow
13.079883 3.423438 moveto
/seven glyphshow
grestore
gsave
/o {
gsave
newpath
translate
0.8 setlinewidth
1 setlinejoin

0 setlinecap

0 0 m
0 -3.5 l

gsave
0.000 setgray
fill
grestore
stroke
grestore
} bind def
115.959 26.4856 o
grestore
gsave
107.459194 12.938750 translate
0.000000 rotate
/DejaVuSans 7.0 selectfont
0.000000 0.743750 moveto
/one glyphshow
4.453613 0.743750 moveto
/zero glyphshow
/DejaVuSans 4.8999999999999995 selectfont
8.974219 3.423438 moveto
/minus glyphshow
13.079883 3.423438 moveto
/five glyphshow
grestore
gsave
/o {
gsave
newpath
translate
0.8 setlinewidth
1 setlinejoin

0 setlinecap

0 0 m
0 -3.5 l

gsave
0.000 setgray
fill
grestore
stroke
grestore
} bind def
156.196 26.4856 o
grestore
gsave
147.695979 12.938750 translate
0.000000 rotate
/DejaVuSans 7.0 selectfont
0.000000 0.678125 moveto
/one glyphshow
4.453613 0.678125 moveto
/zero glyphshow
/DejaVuSans 4.8999999999999995 selectfont
8.974219 3.357812 moveto
/minus glyphshow
13.079883 3.357812 moveto
/three glyphshow
grestore
gsave
/o {
gsave
newpath
translate
0.8 setlinewidth
1 setlinejoin

0 setlinecap

0 0 m
0 -3.5 l

gsave
0.000 setgray
fill
grestore
stroke
grestore
} bind def
196.433 26.4856 o
grestore
gsave
187.932764 12.938750 translate
0.000000 rotate
/DejaVuSans 7.0 selectfont
0.000000 0.743750 moveto
/one glyphshow
4.453613 0.743750 moveto
/zero glyphshow
/DejaVuSans 4.8999999999999995 selectfont
8.974219 3.423438 moveto
/minus glyphshow
13.079883 3.423438 moveto
/one glyphshow
grestore
/DejaVuSans 7.000 selectfont
gsave

102.942847 2.173125 translate
0.000000 rotate
0.000000 0 m /a glyphshow
4.289551 0 m /b glyphshow
8.732910 0 m /s glyphshow
12.379883 0 m /period glyphshow
14.604980 0 m /space glyphshow
16.830078 0 m /a glyphshow
21.119629 0 m /b glyphshow
25.562988 0 m /u glyphshow
29.999512 0 m /n glyphshow
34.436035 0 m /d glyphshow
38.879395 0 m /a glyphshow
43.168945 0 m /n glyphshow
47.605469 0 m /c glyphshow
51.454102 0 m /e glyphshow
grestore
gsave
/o {
gsave
newpath
translate
0.8 setlinewidth
1 setlinejoin

0 setlinecap

-0 0 m
-3.5 0 l

gsave
0.000 setgray
fill
grestore
stroke
grestore
} bind def
35.4856 32.8405 o
grestore
gsave
11.485625 29.567092 translate
0.000000 rotate
/DejaVuSans 7.0 selectfont
0.000000 0.743750 moveto
/one glyphshow
4.453613 0.743750 moveto
/zero glyphshow
/DejaVuSans 4.8999999999999995 selectfont
8.974219 3.423438 moveto
/minus glyphshow
13.079883 3.423438 moveto
/five glyphshow
grestore
gsave
/o {
gsave
newpath
translate
0.8 setlinewidth
1 setlinejoin

0 setlinecap

-0 0 m
-3.5 0 l

gsave
0.000 setgray
fill
grestore
stroke
grestore
} bind def
35.4856 50.6541 o
grestore
gsave
11.485625 47.380694 translate
0.000000 rotate
/DejaVuSans 7.0 selectfont
0.000000 0.743750 moveto
/one glyphshow
4.453613 0.743750 moveto
/zero glyphshow
/DejaVuSans 4.8999999999999995 selectfont
8.974219 3.423438 moveto
/minus glyphshow
13.079883 3.423438 moveto
/one glyphshow
grestore
gsave
/o {
gsave
newpath
translate
0.8 setlinewidth
1 setlinejoin

0 setlinecap

-0 0 m
-3.5 0 l

gsave
0.000 setgray
fill
grestore
stroke
grestore
} bind def
35.4856 68.4677 o
grestore
gsave
15.485625 65.194295 translate
0.000000 rotate
/DejaVuSans 7.0 selectfont
0.000000 0.678125 moveto
/one glyphshow
4.453613 0.678125 moveto
/zero glyphshow
/DejaVuSans 4.8999999999999995 selectfont
8.974219 3.357812 moveto
/three glyphshow
grestore
gsave
/o {
gsave
newpath
translate
0.8 setlinewidth
1 setlinejoin

0 setlinecap

-0 0 m
-3.5 0 l

gsave
0.000 setgray
fill
grestore
stroke
grestore
} bind def
35.4856 86.2813 o
grestore
gsave
15.485625 83.007897 translate
0.000000 rotate
/DejaVuSans 7.0 selectfont
0.000000 0.743750 moveto
/one glyphshow
4.453613 0.743750 moveto
/zero glyphshow
/DejaVuSans 4.8999999999999995 selectfont
8.974219 3.423438 moveto
/seven glyphshow
grestore
gsave

6.032500 35.678917 translate
90.000000 rotate
0.000000 0 m /p glyphshow
4.443359 0 m /r glyphshow
7.196289 0 m /o glyphshow
11.479004 0 m /b glyphshow
15.922363 0 m /period glyphshow
18.147461 0 m /space glyphshow
20.372559 0 m /d glyphshow
24.815918 0 m /e glyphshow
29.122559 0 m /n glyphshow
33.559082 0 m /s glyphshow
37.206055 0 m /i glyphshow
39.150879 0 m /t glyphshow
41.895508 0 m /y glyphshow
grestore
1.000 setlinewidth
2 setlinecap
gsave
190.664 64.402 35.486 26.486 clipbox
45.512266 -1 m
45.544821 63.987313 l
47.780198 72.694668 l
50.015575 77.556819 l
52.250952 81.364648 l
54.486329 84.329208 l
56.721706 86.287137 l
58.957083 87.336356 l
61.19246 87.627951 l
63.427837 87.339882 l
65.663214 86.688399 l
67.89859 85.834599 l
70.133967 84.891036 l
72.369344 83.928374 l
74.604721 82.984946 l
76.840098 82.072361 l
79.075475 81.196157 l
81.310852 80.356137 l
83.546229 79.542534 l
85.781606 78.768946 l
88.016983 78.014692 l
90.25236 77.287067 l
92.487737 76.569612 l
94.723114 75.8837 l
96.958491 75.210242 l
99.193867 74.544244 l
101.429244 73.895155 l
103.664621 73.246336 l
105.899998 72.61748 l
108.135375 71.990867 l
110.370752 71.371979 l
112.606129 70.770803 l
114.841506 70.161561 l
117.076883 69.548008 l
119.31226 68.955375 l
121.547637 68.350115 l
123.783014 67.754004 l
126.018391 67.170767 l
128.253767 66.58612 l
130.489144 66.003709 l
132.724521 65.420205 l
134.959898 64.841331 l
137.195275 64.25338 l
139.430652 63.670498 l
141.666029 63.105986 l
143.901406 62.535035 l
146.136783 61.960799 l
148.37216 61.392622 l
150.607537 60.818363 l
152.842914 60.265304 l
155.078291 59.69147 l
157.313668 59.139924 l
159.549044 58.565329 l
161.784421 58.015148 l
164.019798 57.47148 l
166.255175 56.920822 l
168.490552 56.384385 l
170.725929 55.847285 l
172.961306 55.29724 l
175.196683 54.767392 l
177.43206 54.252402 l
179.667437 53.739285 l
181.902814 53.229777 l
184.138191 52.742186 l
186.373568 52.269207 l
188.608945 51.813924 l
190.844321 51.34783 l
193.079698 50.930914 l
195.315075 50.536116 l
197.550452 50.13204 l
199.785829 49.747318 l
202.021206 49.367833 l
204.256583 48.888064 l
206.49196 48.274946 l
208.727337 47.362266 l
210.962714 45.906235 l
213.198091 43.651801 l
215.433468 40.371653 l
217.668845 35.924251 l
219.904222 29.412998 l
219.919576 -1 l
stroke
grestore
0 setlinecap
[3.7 1.6] 0 setdash
gsave
190.664 64.402 35.486 26.486 clipbox
55.604017 26.485625 m
55.604017 90.887835 l
stroke
grestore
0.800 setlinewidth
0 setlinejoin
2 setlinecap
[] 0 setdash
gsave
35.485625 26.485625 m
35.485625 90.887835 l
stroke
grestore
gsave
226.150069 26.485625 m
226.150069 90.887835 l
stroke
grestore
gsave
35.485625 26.485625 m
226.150069 26.485625 l
stroke
grestore
gsave
35.485625 90.887835 m
226.150069 90.887835 l
stroke
grestore
gsave
8.792603 97.328056 translate
0.000000 rotate
/DejaVuSans-Bold 9.0 selectfont
0.000000 0.437500 moveto
/B glyphshow
grestore
gsave
107.938114 76.719349 translate
0.000000 rotate
/DejaVuSans-Oblique 7.0 selectfont
0.000000 0.640625 moveto
/P glyphshow
/DejaVuSans 7.0 selectfont
4.221191 0.640625 moveto
/parenleft glyphshow
/DejaVuSans-Oblique 7.0 selectfont
6.952148 0.640625 moveto
/x glyphshow
/DejaVuSans 7.0 selectfont
11.094727 0.640625 moveto
/parenright glyphshow
15.189453 0.640625 moveto
/similar glyphshow
/DejaVuSans-Oblique 7.0 selectfont
22.418457 0.640625 moveto
/x glyphshow
/DejaVuSans 4.8999999999999995 selectfont
26.873665 3.320312 moveto
/minus glyphshow
/DejaVuSans-Oblique 4.8999999999999995 selectfont
30.979329 3.320312 moveto
/nu glyphshow
grestore
/DejaVuSans 8.400 selectfont
gsave

79.763159 96.887835 translate
0.000000 rotate
0.000000 0 m /A glyphshow
5.739868 0 m /b glyphshow
11.065948 0 m /u glyphshow
16.383835 0 m /n glyphshow
21.701721 0 m /d glyphshow
27.027802 0 m /a glyphshow
32.169510 0 m /n glyphshow
37.487396 0 m /c glyphshow
42.100601 0 m /e glyphshow
47.262802 0 m /space glyphshow
49.929932 0 m /d glyphshow
55.256012 0 m /i glyphshow
57.587189 0 m /s glyphshow
61.958664 0 m /t glyphshow
65.248535 0 m /r glyphshow
68.698196 0 m /i glyphshow
71.029373 0 m /b glyphshow
76.355453 0 m /u glyphshow
81.673340 0 m /t glyphshow
84.963211 0 m /i glyphshow
87.294388 0 m /o glyphshow
92.427902 0 m /n glyphshow
97.745789 0 m /s glyphshow
grestore
1.000 setlinewidth
1 setlinejoin
gsave
150.090994 83.25891 m
155.921994 83.25891 l
161.752994 83.25891 l
stroke
grestore
/DejaVuSans 5.831 selectfont
gsave

166.417794 81.218060 translate
0.000000 rotate
0.000000 0 m /A glyphshow
3.986908 0 m /F glyphshow
7.339218 0 m /D glyphshow
11.826981 0 m /space glyphshow
13.679565 0 m /parenleft glyphshow
15.953323 0 m /s glyphshow
18.989746 0 m /p glyphshow
22.689240 0 m /e glyphshow
26.274902 0 m /c glyphshow
29.479233 0 m /i glyphshow
31.098465 0 m /e glyphshow
34.684128 0 m /s glyphshow
37.720551 0 m /space glyphshow
39.573135 0 m /a glyphshow
43.144562 0 m /v glyphshow
46.593628 0 m /g glyphshow
50.293121 0 m /period glyphshow
52.145706 0 m /parenright glyphshow
grestore
0.200 setlinewidth
0 setlinejoin
0 setlinecap
gsave
150.090994 72.661935 m
161.752994 72.661935 l
161.752994 76.743635 l
150.090994 76.743635 l
cl
gsave
0.529 0.808 0.980 setrgbcolor
fill
grestore
stroke
grestore
gsave

166.417794 72.661935 translate
0.000000 rotate
0.000000 0 m /S glyphshow
3.824493 0 m /A glyphshow
7.811401 0 m /D glyphshow
12.299164 0 m /space glyphshow
14.151749 0 m /parenleft glyphshow
16.425507 0 m /s glyphshow
19.461929 0 m /n glyphshow
23.155731 0 m /a glyphshow
26.727158 0 m /p glyphshow
30.426651 0 m /s glyphshow
33.463074 0 m /h glyphshow
37.156876 0 m /o glyphshow
40.722610 0 m /t glyphshow
43.007751 0 m /parenright glyphshow
grestore

end
showpage
