%!PS-Adobe-3.0 EPSF-3.0
%%Title: fig3_focal.eps
%%Creator: Matplotlib v3.5.1, https://matplotlib.org/
%%CreationDate: Mon Nov 13 17:22:52 2023
%%Orientation: portrait
%%BoundingBox: 189 299 423 493
%%HiResBoundingBox: 189.225122 299.089260 422.774878 492.910740
%%EndComments
%%BeginProlog
/mpldict 12 dict def
mpldict begin
/_d { bind def } bind def
/m { moveto } _d
/l { lineto } _d
/r { rlineto } _d
/c { curveto } _d
/cl { closepath } _d
/ce { closepath eofill } _d
/box {
      m
      1 index 0 r
      0 exch r
      neg 0 r
      cl
    } _d
/clipbox {
      box
      clip
      newpath
    } _d
/sc { setcachedevice } _d
%!PS-Adobe-3.0 Resource-Font
%%Creator: Converted from TrueType to Type 3 by Matplotlib.
10 dict begin
/FontName /DejaVuSans def
/PaintType 0 def
/FontMatrix [0.00048828125 0 0 0.00048828125 0 0] def
/FontBBox [-2090 -948 3673 2524] def
/FontType 3 def
/Encoding [/minus /space /hyphen /period /zero /one /two /three /five /seven /nine /A /D /F /L /S /V /a /b /c /d /e /f /g /h /i /l /m /n /o /p /r /s /t /u /v /x /y] def
/CharStrings 39 dict dup begin
/.notdef 0 def
/minus{1716 0 217 557 1499 727 sc
217 727 m
1499 727 l
1499 557 l
217 557 l
217 727 l

ce} _d
/space{651 0 0 0 0 0 sc
ce} _d
/hyphen{739 0 100 479 639 643 sc
100 643 m
639 643 l
639 479 l
100 479 l
100 643 l

ce} _d
/period{651 0 219 0 430 254 sc
219 254 m
430 254 l
430 0 l
219 0 l
219 254 l

ce} _d
/zero{1303 0 135 -29 1167 1520 sc
651 1360 m
547 1360 469 1309 416 1206 c
364 1104 338 950 338 745 c
338 540 364 387 416 284 c
469 182 547 131 651 131 c
756 131 834 182 886 284 c
939 387 965 540 965 745 c
965 950 939 1104 886 1206 c
834 1309 756 1360 651 1360 c

651 1520 m
818 1520 946 1454 1034 1321 c
1123 1189 1167 997 1167 745 c
1167 494 1123 302 1034 169 c
946 37 818 -29 651 -29 c
484 -29 356 37 267 169 c
179 302 135 494 135 745 c
135 997 179 1189 267 1321 c
356 1454 484 1520 651 1520 c

ce} _d
/one{1303 0 225 0 1114 1493 sc
254 170 m
584 170 l
584 1309 l
225 1237 l
225 1421 l
582 1493 l
784 1493 l
784 170 l
1114 170 l
1114 0 l
254 0 l
254 170 l

ce} _d
/two{1303 0 150 0 1098 1520 sc
393 170 m
1098 170 l
1098 0 l
150 0 l
150 170 l
227 249 331 356 463 489 c
596 623 679 709 713 748 c
778 821 823 882 848 932 c
874 983 887 1032 887 1081 c
887 1160 859 1225 803 1275 c
748 1325 675 1350 586 1350 c
523 1350 456 1339 385 1317 c
315 1295 240 1262 160 1217 c
160 1421 l
241 1454 317 1478 388 1495 c
459 1512 523 1520 582 1520 c
737 1520 860 1481 952 1404 c
1044 1327 1090 1223 1090 1094 c
1090 1033 1078 974 1055 919 c
1032 864 991 800 930 725 c
913 706 860 650 771 557 c
682 465 556 336 393 170 c

ce} _d
/three{1303 0 156 -29 1139 1520 sc
831 805 m
928 784 1003 741 1057 676 c
1112 611 1139 530 1139 434 c
1139 287 1088 173 987 92 c
886 11 742 -29 555 -29 c
492 -29 428 -23 361 -10 c
295 2 227 20 156 45 c
156 240 l
212 207 273 183 340 166 c
407 149 476 141 549 141 c
676 141 772 166 838 216 c
905 266 938 339 938 434 c
938 522 907 591 845 640 c
784 690 698 715 588 715 c
414 715 l
414 881 l
596 881 l
695 881 771 901 824 940 c
877 980 903 1037 903 1112 c
903 1189 876 1247 821 1288 c
767 1329 689 1350 588 1350 c
533 1350 473 1344 410 1332 c
347 1320 277 1301 201 1276 c
201 1456 l
278 1477 349 1493 416 1504 c
483 1515 547 1520 606 1520 c
759 1520 881 1485 970 1415 c
1059 1346 1104 1252 1104 1133 c
1104 1050 1080 980 1033 923 c
986 866 918 827 831 805 c

ce} _d
/five{1303 0 158 -29 1124 1493 sc
221 1493 m
1014 1493 l
1014 1323 l
406 1323 l
406 957 l
435 967 465 974 494 979 c
523 984 553 987 582 987 c
749 987 881 941 978 850 c
1075 759 1124 635 1124 479 c
1124 318 1074 193 974 104 c
874 15 733 -29 551 -29 c
488 -29 424 -24 359 -13 c
294 -2 227 14 158 35 c
158 238 l
218 205 280 181 344 165 c
408 149 476 141 547 141 c
662 141 754 171 821 232 c
888 293 922 375 922 479 c
922 583 888 665 821 726 c
754 787 662 817 547 817 c
493 817 439 811 385 799 c
332 787 277 768 221 743 c
221 1493 l

ce} _d
/seven{1303 0 168 0 1128 1493 sc
168 1493 m
1128 1493 l
1128 1407 l
586 0 l
375 0 l
885 1323 l
168 1323 l
168 1493 l

ce} _d
/nine{1303 0 129 -29 1159 1520 sc
225 31 m
225 215 l
276 191 327 173 379 160 c
431 147 482 141 532 141 c
665 141 767 186 837 275 c
908 365 948 501 958 684 c
919 627 870 583 811 552 c
752 521 686 506 614 506 c
465 506 346 551 259 641 c
172 732 129 855 129 1012 c
129 1165 174 1288 265 1381 c
356 1474 476 1520 627 1520 c
800 1520 931 1454 1022 1321 c
1113 1189 1159 997 1159 745 c
1159 510 1103 322 991 181 c
880 41 730 -29 541 -29 c
490 -29 439 -24 387 -14 c
335 -4 281 11 225 31 c

627 664 m
718 664 789 695 842 757 c
895 819 922 904 922 1012 c
922 1119 895 1204 842 1266 c
789 1329 718 1360 627 1360 c
536 1360 464 1329 411 1266 c
358 1204 332 1119 332 1012 c
332 904 358 819 411 757 c
464 695 536 664 627 664 c

ce} _d
/A{1401 0 16 0 1384 1493 sc
700 1294 m
426 551 l
975 551 l
700 1294 l

586 1493 m
815 1493 l
1384 0 l
1174 0 l
1038 383 l
365 383 l
229 0 l
16 0 l
586 1493 l

ce} _d
/D{1577 0 201 0 1456 1493 sc
403 1327 m
403 166 l
647 166 l
853 166 1004 213 1099 306 c
1195 399 1243 547 1243 748 c
1243 948 1195 1094 1099 1187 c
1004 1280 853 1327 647 1327 c
403 1327 l

201 1493 m
616 1493 l
905 1493 1118 1433 1253 1312 c
1388 1192 1456 1004 1456 748 c
1456 491 1388 302 1252 181 c
1116 60 904 0 616 0 c
201 0 l
201 1493 l

ce} _d
/F{1178 0 201 0 1059 1493 sc
201 1493 m
1059 1493 l
1059 1323 l
403 1323 l
403 883 l
995 883 l
995 713 l
403 713 l
403 0 l
201 0 l
201 1493 l

ce} _d
/L{1141 0 201 0 1130 1493 sc
201 1493 m
403 1493 l
403 170 l
1130 170 l
1130 0 l
201 0 l
201 1493 l

ce} _d
/S{1300 0 135 -29 1186 1520 sc
1096 1444 m
1096 1247 l
1019 1284 947 1311 879 1329 c
811 1347 745 1356 682 1356 c
572 1356 487 1335 427 1292 c
368 1249 338 1189 338 1110 c
338 1044 358 994 397 960 c
437 927 512 900 623 879 c
745 854 l
896 825 1007 775 1078 702 c
1150 630 1186 533 1186 412 c
1186 267 1137 158 1040 83 c
943 8 801 -29 614 -29 c
543 -29 468 -21 388 -5 c
309 11 226 35 141 66 c
141 274 l
223 228 303 193 382 170 c
461 147 538 135 614 135 c
729 135 818 158 881 203 c
944 248 975 313 975 397 c
975 470 952 528 907 569 c
862 610 789 641 686 662 c
563 686 l
412 716 303 763 236 827 c
169 891 135 980 135 1094 c
135 1226 181 1330 274 1406 c
367 1482 496 1520 659 1520 c
729 1520 800 1514 873 1501 c
946 1488 1020 1469 1096 1444 c

ce} _d
/V{1401 0 16 0 1384 1493 sc
586 0 m
16 1493 l
227 1493 l
700 236 l
1174 1493 l
1384 1493 l
815 0 l
586 0 l

ce} _d
/a{1255 0 123 -29 1069 1147 sc
702 563 m
553 563 450 546 393 512 c
336 478 307 420 307 338 c
307 273 328 221 371 182 c
414 144 473 125 547 125 c
649 125 731 161 792 233 c
854 306 885 402 885 522 c
885 563 l
702 563 l

1069 639 m
1069 0 l
885 0 l
885 170 l
843 102 791 52 728 19 c
665 -13 589 -29 498 -29 c
383 -29 292 3 224 67 c
157 132 123 218 123 326 c
123 452 165 547 249 611 c
334 675 460 707 627 707 c
885 707 l
885 725 l
885 810 857 875 801 921 c
746 968 668 991 567 991 c
503 991 441 983 380 968 c
319 953 261 930 205 899 c
205 1069 l
272 1095 338 1114 401 1127 c
464 1140 526 1147 586 1147 c
748 1147 869 1105 949 1021 c
1029 937 1069 810 1069 639 c

ce} _d
/b{1300 0 186 -29 1188 1556 sc
997 559 m
997 694 969 800 913 877 c
858 954 781 993 684 993 c
587 993 510 954 454 877 c
399 800 371 694 371 559 c
371 424 399 317 454 240 c
510 163 587 125 684 125 c
781 125 858 163 913 240 c
969 317 997 424 997 559 c

371 950 m
410 1017 458 1066 517 1098 c
576 1131 647 1147 729 1147 c
865 1147 975 1093 1060 985 c
1145 877 1188 735 1188 559 c
1188 383 1145 241 1060 133 c
975 25 865 -29 729 -29 c
647 -29 576 -13 517 19 c
458 52 410 101 371 168 c
371 0 l
186 0 l
186 1556 l
371 1556 l
371 950 l

ce} _d
/c{1126 0 113 -29 999 1147 sc
999 1077 m
999 905 l
947 934 895 955 842 969 c
790 984 737 991 684 991 c
565 991 472 953 406 877 c
340 802 307 696 307 559 c
307 422 340 316 406 240 c
472 165 565 127 684 127 c
737 127 790 134 842 148 c
895 163 947 184 999 213 c
999 43 l
948 19 894 1 839 -11 c
784 -23 726 -29 664 -29 c
495 -29 361 24 262 130 c
163 236 113 379 113 559 c
113 742 163 885 263 990 c
364 1095 501 1147 676 1147 c
733 1147 788 1141 842 1129 c
896 1118 948 1100 999 1077 c

ce} _d
/d{1300 0 113 -29 1114 1556 sc
930 950 m
930 1556 l
1114 1556 l
1114 0 l
930 0 l
930 168 l
891 101 842 52 783 19 c
724 -13 654 -29 571 -29 c
436 -29 325 25 240 133 c
155 241 113 383 113 559 c
113 735 155 877 240 985 c
325 1093 436 1147 571 1147 c
654 1147 724 1131 783 1098 c
842 1066 891 1017 930 950 c

303 559 m
303 424 331 317 386 240 c
442 163 519 125 616 125 c
713 125 790 163 846 240 c
902 317 930 424 930 559 c
930 694 902 800 846 877 c
790 954 713 993 616 993 c
519 993 442 954 386 877 c
331 800 303 694 303 559 c

ce} _d
/e{1260 0 113 -29 1151 1147 sc
1151 606 m
1151 516 l
305 516 l
313 389 351 293 419 226 c
488 160 583 127 705 127 c
776 127 844 136 910 153 c
977 170 1043 196 1108 231 c
1108 57 l
1042 29 974 8 905 -7 c
836 -22 765 -29 694 -29 c
515 -29 374 23 269 127 c
165 231 113 372 113 549 c
113 732 162 878 261 985 c
360 1093 494 1147 662 1147 c
813 1147 932 1098 1019 1001 c
1107 904 1151 773 1151 606 c

967 660 m
966 761 937 841 882 901 c
827 961 755 991 664 991 c
561 991 479 962 417 904 c
356 846 320 764 311 659 c
967 660 l

ce} _d
/f{721 0 47 0 760 1556 sc
760 1556 m
760 1403 l
584 1403 l
518 1403 472 1390 446 1363 c
421 1336 408 1288 408 1219 c
408 1120 l
711 1120 l
711 977 l
408 977 l
408 0 l
223 0 l
223 977 l
47 977 l
47 1120 l
223 1120 l
223 1198 l
223 1323 252 1413 310 1470 c
368 1527 460 1556 586 1556 c
760 1556 l

ce} _d
/g{1300 0 113 -426 1114 1147 sc
930 573 m
930 706 902 810 847 883 c
792 956 715 993 616 993 c
517 993 440 956 385 883 c
330 810 303 706 303 573 c
303 440 330 337 385 264 c
440 191 517 154 616 154 c
715 154 792 191 847 264 c
902 337 930 440 930 573 c

1114 139 m
1114 -52 1072 -193 987 -286 c
902 -379 773 -426 598 -426 c
533 -426 472 -421 415 -411 c
358 -402 302 -387 248 -367 c
248 -188 l
302 -217 355 -239 408 -253 c
461 -267 514 -274 569 -274 c
690 -274 780 -242 840 -179 c
900 -116 930 -21 930 106 c
930 197 l
892 131 843 82 784 49 c
725 16 654 0 571 0 c
434 0 323 52 239 157 c
155 262 113 400 113 573 c
113 746 155 885 239 990 c
323 1095 434 1147 571 1147 c
654 1147 725 1131 784 1098 c
843 1065 892 1016 930 950 c
930 1120 l
1114 1120 l
1114 139 l

ce} _d
/h{1298 0 186 0 1124 1556 sc
1124 676 m
1124 0 l
940 0 l
940 670 l
940 776 919 855 878 908 c
837 961 775 987 692 987 c
593 987 514 955 457 892 c
400 829 371 742 371 633 c
371 0 l
186 0 l
186 1556 l
371 1556 l
371 946 l
415 1013 467 1064 526 1097 c
586 1130 655 1147 733 1147 c
862 1147 959 1107 1025 1027 c
1091 948 1124 831 1124 676 c

ce} _d
/i{569 0 193 0 377 1556 sc
193 1120 m
377 1120 l
377 0 l
193 0 l
193 1120 l

193 1556 m
377 1556 l
377 1323 l
193 1323 l
193 1556 l

ce} _d
/l{569 0 193 0 377 1556 sc
193 1556 m
377 1556 l
377 0 l
193 0 l
193 1556 l

ce} _d
/m{1995 0 186 0 1821 1147 sc
1065 905 m
1111 988 1166 1049 1230 1088 c
1294 1127 1369 1147 1456 1147 c
1573 1147 1663 1106 1726 1024 c
1789 943 1821 827 1821 676 c
1821 0 l
1636 0 l
1636 670 l
1636 777 1617 857 1579 909 c
1541 961 1483 987 1405 987 c
1310 987 1234 955 1179 892 c
1124 829 1096 742 1096 633 c
1096 0 l
911 0 l
911 670 l
911 778 892 858 854 909 c
816 961 757 987 678 987 c
584 987 509 955 454 891 c
399 828 371 742 371 633 c
371 0 l
186 0 l
186 1120 l
371 1120 l
371 946 l
413 1015 463 1065 522 1098 c
581 1131 650 1147 731 1147 c
812 1147 881 1126 938 1085 c
995 1044 1038 984 1065 905 c

ce} _d
/n{1298 0 186 0 1124 1147 sc
1124 676 m
1124 0 l
940 0 l
940 670 l
940 776 919 855 878 908 c
837 961 775 987 692 987 c
593 987 514 955 457 892 c
400 829 371 742 371 633 c
371 0 l
186 0 l
186 1120 l
371 1120 l
371 946 l
415 1013 467 1064 526 1097 c
586 1130 655 1147 733 1147 c
862 1147 959 1107 1025 1027 c
1091 948 1124 831 1124 676 c

ce} _d
/o{1253 0 113 -29 1141 1147 sc
627 991 m
528 991 450 952 393 875 c
336 798 307 693 307 559 c
307 425 335 319 392 242 c
449 165 528 127 627 127 c
725 127 803 166 860 243 c
917 320 946 426 946 559 c
946 692 917 797 860 874 c
803 952 725 991 627 991 c

627 1147 m
787 1147 913 1095 1004 991 c
1095 887 1141 743 1141 559 c
1141 376 1095 232 1004 127 c
913 23 787 -29 627 -29 c
466 -29 340 23 249 127 c
158 232 113 376 113 559 c
113 743 158 887 249 991 c
340 1095 466 1147 627 1147 c

ce} _d
/p{1300 0 186 -426 1188 1147 sc
371 168 m
371 -426 l
186 -426 l
186 1120 l
371 1120 l
371 950 l
410 1017 458 1066 517 1098 c
576 1131 647 1147 729 1147 c
865 1147 975 1093 1060 985 c
1145 877 1188 735 1188 559 c
1188 383 1145 241 1060 133 c
975 25 865 -29 729 -29 c
647 -29 576 -13 517 19 c
458 52 410 101 371 168 c

997 559 m
997 694 969 800 913 877 c
858 954 781 993 684 993 c
587 993 510 954 454 877 c
399 800 371 694 371 559 c
371 424 399 317 454 240 c
510 163 587 125 684 125 c
781 125 858 163 913 240 c
969 317 997 424 997 559 c

ce} _d
/r{842 0 186 0 842 1147 sc
842 948 m
821 960 799 969 774 974 c
750 980 723 983 694 983 c
590 983 510 949 454 881 c
399 814 371 717 371 590 c
371 0 l
186 0 l
186 1120 l
371 1120 l
371 946 l
410 1014 460 1064 522 1097 c
584 1130 659 1147 748 1147 c
761 1147 775 1146 790 1144 c
805 1143 822 1140 841 1137 c
842 948 l

ce} _d
/s{1067 0 111 -29 967 1147 sc
907 1087 m
907 913 l
855 940 801 960 745 973 c
689 986 631 993 571 993 c
480 993 411 979 365 951 c
320 923 297 881 297 825 c
297 782 313 749 346 724 c
379 700 444 677 543 655 c
606 641 l
737 613 829 573 884 522 c
939 471 967 400 967 309 c
967 205 926 123 843 62 c
761 1 648 -29 504 -29 c
444 -29 381 -23 316 -11 c
251 0 183 18 111 41 c
111 231 l
179 196 246 169 312 151 c
378 134 443 125 508 125 c
595 125 661 140 708 169 c
755 199 778 241 778 295 c
778 345 761 383 727 410 c
694 437 620 462 506 487 c
442 502 l
328 526 246 563 195 612 c
144 662 119 730 119 817 c
119 922 156 1004 231 1061 c
306 1118 412 1147 549 1147 c
617 1147 681 1142 741 1132 c
801 1122 856 1107 907 1087 c

ce} _d
/t{803 0 55 0 754 1438 sc
375 1438 m
375 1120 l
754 1120 l
754 977 l
375 977 l
375 369 l
375 278 387 219 412 193 c
437 167 488 154 565 154 c
754 154 l
754 0 l
565 0 l
423 0 325 26 271 79 c
217 132 190 229 190 369 c
190 977 l
55 977 l
55 1120 l
190 1120 l
190 1438 l
375 1438 l

ce} _d
/u{1298 0 174 -29 1112 1147 sc
174 442 m
174 1120 l
358 1120 l
358 449 l
358 343 379 263 420 210 c
461 157 523 131 606 131 c
705 131 784 163 841 226 c
899 289 928 376 928 485 c
928 1120 l
1112 1120 l
1112 0 l
928 0 l
928 172 l
883 104 831 53 772 20 c
713 -13 645 -29 567 -29 c
438 -29 341 11 274 91 c
207 171 174 288 174 442 c

637 1147 m
637 1147 l

ce} _d
/v{1212 0 61 0 1151 1120 sc
61 1120 m
256 1120 l
606 180 l
956 1120 l
1151 1120 l
731 0 l
481 0 l
61 1120 l

ce} _d
/x{1212 0 59 0 1145 1120 sc
1124 1120 m
719 575 l
1145 0 l
928 0 l
602 440 l
276 0 l
59 0 l
494 586 l
96 1120 l
313 1120 l
610 721 l
907 1120 l
1124 1120 l

ce} _d
/y{1212 0 61 -426 1151 1120 sc
659 -104 m
607 -237 556 -324 507 -365 c
458 -406 392 -426 309 -426 c
162 -426 l
162 -272 l
270 -272 l
321 -272 360 -260 388 -236 c
416 -212 447 -155 481 -66 c
514 18 l
61 1120 l
256 1120 l
606 244 l
956 1120 l
1151 1120 l
659 -104 l

ce} _d
end readonly def

/BuildGlyph {
 exch begin
 CharStrings exch
 2 copy known not {pop /.notdef} if
 true 3 1 roll get exec
 end
} _d

/BuildChar {
 1 index /Encoding get exch get
 1 index /BuildGlyph get exec
} _d

FontName currentdict end definefont pop
%!PS-Adobe-3.0 Resource-Font
%%Creator: Converted from TrueType to Type 3 by Matplotlib.
10 dict begin
/FontName /DejaVuSans-Bold def
/PaintType 0 def
/FontMatrix [0.00048828125 0 0 0.00048828125 0 0] def
/FontBBox [-2190 -850 4045 2405] def
/FontType 3 def
/Encoding [/A /B] def
/CharStrings 3 dict dup begin
/.notdef 0 def
/A{1585 0 10 0 1575 1493 sc
1094 272 m
492 272 l
397 0 l
10 0 l
563 1493 l
1022 1493 l
1575 0 l
1188 0 l
1094 272 l

588 549 m
997 549 l
793 1143 l
588 549 l

ce} _d
/B{1561 0 188 0 1417 1493 sc
786 915 m
847 915 893 928 924 955 c
955 982 971 1021 971 1073 c
971 1124 955 1163 924 1190 c
893 1217 847 1231 786 1231 c
573 1231 l
573 915 l
786 915 l

799 262 m
876 262 934 278 973 311 c
1012 344 1032 393 1032 459 c
1032 524 1013 572 974 604 c
935 637 877 653 799 653 c
573 653 l
573 262 l
799 262 l

1157 799 m
1240 775 1304 731 1349 666 c
1394 601 1417 522 1417 428 c
1417 284 1368 177 1271 106 c
1174 35 1026 0 827 0 c
188 0 l
188 1493 l
766 1493 l
973 1493 1123 1462 1216 1399 c
1309 1336 1356 1236 1356 1098 c
1356 1025 1339 963 1305 912 c
1271 861 1222 824 1157 799 c

ce} _d
end readonly def

/BuildGlyph {
 exch begin
 CharStrings exch
 2 copy known not {pop /.notdef} if
 true 3 1 roll get exec
 end
} _d

/BuildChar {
 1 index /Encoding get exch get
 1 index /BuildGlyph get exec
} _d

FontName currentdict end definefont pop
end
%%EndProlog
mpldict begin
189.225 299.089 translate
233.55 193.821 0 0 clipbox
gsave
0 0 m
233.549756 0 l
233.549756 193.821481 l
0 193.821481 l
cl
1.000 setgray
fill
grestore
gsave
35.485625 134.735963 m
232.829756 134.735963 l
232.829756 177.670769 l
35.485625 177.670769 l
cl
1.000 setgray
fill
grestore
0.800 setlinewidth
1 setlinejoin
0 setlinecap
[] 0 setdash
0.000 setgray
gsave
/o {
gsave
newpath
translate
0.8 setlinewidth
1 setlinejoin

0 setlinecap

0 0 m
0 -3.5 l

gsave
0.000 setgray
fill
grestore
stroke
grestore
} bind def
35.4856 134.736 o
grestore
/DejaVuSans 7.000 selectfont
gsave

33.259062 122.423463 translate
0.000000 rotate
0.000000 0 m /zero glyphshow
grestore
gsave
/o {
gsave
newpath
translate
0.8 setlinewidth
1 setlinejoin

0 setlinecap

0 0 m
0 -3.5 l

gsave
0.000 setgray
fill
grestore
stroke
grestore
} bind def
74.9702 134.736 o
grestore
gsave

68.290558 122.423463 translate
0.000000 rotate
0.000000 0 m /five glyphshow
4.453613 0 m /zero glyphshow
8.907227 0 m /zero glyphshow
grestore
gsave
/o {
gsave
newpath
translate
0.8 setlinewidth
1 setlinejoin

0 setlinecap

0 0 m
0 -3.5 l

gsave
0.000 setgray
fill
grestore
stroke
grestore
} bind def
114.455 134.736 o
grestore
gsave

105.548615 122.423463 translate
0.000000 rotate
0.000000 0 m /one glyphshow
4.453613 0 m /zero glyphshow
8.907227 0 m /zero glyphshow
13.360840 0 m /zero glyphshow
grestore
gsave
/o {
gsave
newpath
translate
0.8 setlinewidth
1 setlinejoin

0 setlinecap

0 0 m
0 -3.5 l

gsave
0.000 setgray
fill
grestore
stroke
grestore
} bind def
153.939 134.736 o
grestore
gsave

145.033235 122.423463 translate
0.000000 rotate
0.000000 0 m /one glyphshow
4.453613 0 m /five glyphshow
8.907227 0 m /zero glyphshow
13.360840 0 m /zero glyphshow
grestore
gsave
/o {
gsave
newpath
translate
0.8 setlinewidth
1 setlinejoin

0 setlinecap

0 0 m
0 -3.5 l

gsave
0.000 setgray
fill
grestore
stroke
grestore
} bind def
193.424 134.736 o
grestore
gsave

184.517855 122.423463 translate
0.000000 rotate
0.000000 0 m /two glyphshow
4.453613 0 m /zero glyphshow
8.907227 0 m /zero glyphshow
13.360840 0 m /zero glyphshow
grestore
gsave

126.243628 111.657838 translate
0.000000 rotate
0.000000 0 m /t glyphshow
2.744629 0 m /i glyphshow
4.689453 0 m /m glyphshow
11.508301 0 m /e glyphshow
grestore
gsave
/o {
gsave
newpath
translate
0.8 setlinewidth
1 setlinejoin

0 setlinecap

-0 0 m
-3.5 0 l

gsave
0.000 setgray
fill
grestore
stroke
grestore
} bind def
35.4856 143.515 o
grestore
gsave
11.485625 140.241498 translate
0.000000 rotate
/DejaVuSans 7.0 selectfont
0.000000 0.743750 moveto
/one glyphshow
4.453613 0.743750 moveto
/zero glyphshow
/DejaVuSans 4.8999999999999995 selectfont
8.974219 3.423438 moveto
/minus glyphshow
13.079883 3.423438 moveto
/seven glyphshow
grestore
gsave
/o {
gsave
newpath
translate
0.8 setlinewidth
1 setlinejoin

0 setlinecap

-0 0 m
-3.5 0 l

gsave
0.000 setgray
fill
grestore
stroke
grestore
} bind def
35.4856 156.249 o
grestore
gsave
11.485625 152.975842 translate
0.000000 rotate
/DejaVuSans 7.0 selectfont
0.000000 0.743750 moveto
/one glyphshow
4.453613 0.743750 moveto
/zero glyphshow
/DejaVuSans 4.8999999999999995 selectfont
8.974219 3.423438 moveto
/minus glyphshow
13.079883 3.423438 moveto
/five glyphshow
grestore
gsave
/o {
gsave
newpath
translate
0.8 setlinewidth
1 setlinejoin

0 setlinecap

-0 0 m
-3.5 0 l

gsave
0.000 setgray
fill
grestore
stroke
grestore
} bind def
35.4856 168.984 o
grestore
gsave
11.485625 165.710187 translate
0.000000 rotate
/DejaVuSans 7.0 selectfont
0.000000 0.678125 moveto
/one glyphshow
4.453613 0.678125 moveto
/zero glyphshow
/DejaVuSans 4.8999999999999995 selectfont
8.974219 3.357812 moveto
/minus glyphshow
13.079883 3.357812 moveto
/three glyphshow
grestore
gsave

6.032500 136.734616 translate
90.000000 rotate
0.000000 0 m /a glyphshow
4.289551 0 m /b glyphshow
8.732910 0 m /u glyphshow
13.169434 0 m /n glyphshow
17.605957 0 m /d glyphshow
22.049316 0 m /a glyphshow
26.338867 0 m /n glyphshow
30.775391 0 m /c glyphshow
34.624023 0 m /e glyphshow
grestore
1.500 setlinewidth
[5.55 2.4] 0 setdash
gsave
197.344 42.935 35.486 134.736 clipbox
35.485625 140.911239 m
232.829756 140.911239 l
stroke
grestore
2 setlinecap
[] 0 setdash
0.118 0.565 1.000 setrgbcolor
gsave
197.344 42.935 35.486 134.736 clipbox
35.485625 154.041035 m
36.433256 146.043288 l
37.143979 142.404375 l
37.459856 141.674467 l
37.933671 141.185679 l
38.170579 141.155404 l
38.328518 141.271017 l
38.565425 141.917572 l
38.881302 143.844348 l
39.276149 148.283845 l
39.907902 158.836454 l
40.460687 166.898207 l
40.855533 169.856588 l
41.092441 170.380754 l
41.25038 170.321468 l
41.487287 169.83281 l
42.19801 167.678182 l
42.671826 164.69877 l
43.224611 160.139367 l
43.935334 152.458364 l
44.251211 146.073879 l
44.646057 138.075758 l
44.803995 137.628212 l
44.961934 137.753744 l
45.277811 138.496225 l
45.909565 139.986784 l
46.541319 141.152897 l
46.936165 141.856595 l
47.40998 142.218307 l
47.646888 142.934495 l
48.594519 146.957134 l
48.831427 147.167875 l
48.989365 146.971895 l
49.226273 145.951257 l
50.252873 139.948342 l
50.726688 138.819277 l
51.121535 138.370094 l
51.437412 138.285595 l
51.674319 138.450224 l
52.464012 139.466945 l
53.727519 139.836765 l
53.964427 139.974483 l
54.122366 139.766329 l
54.517212 138.724175 l
54.67515 138.706962 l
54.912058 139.055165 l
55.306904 140.186957 l
55.622781 141.821389 l
55.938658 144.960685 l
56.491443 153.797625 l
57.123197 162.713479 l
57.912889 169.642981 l
58.149797 170.189586 l
58.386705 170.135008 l
58.623612 169.815371 l
58.86052 169.031295 l
59.255366 166.296511 l
59.88712 160.527212 l
60.439905 153.150747 l
61.387536 138.574871 l
61.624444 138.090204 l
61.861351 138.028185 l
62.098259 138.169277 l
62.493105 138.778837 l
62.808982 139.52002 l
63.124859 141.134354 l
63.440736 142.68653 l
63.598675 142.842967 l
63.756613 142.560456 l
63.993521 141.380354 l
64.388367 139.190196 l
64.783213 138.308936 l
64.941152 138.293198 l
65.09909 138.638474 l
65.335998 140.028879 l
66.204659 146.321275 l
66.520536 147.227941 l
66.678475 147.275081 l
66.836413 147.094131 l
67.15229 146.24746 l
68.573737 141.54532 l
69.126521 140.510751 l
69.995183 139.381032 l
70.784875 139.020625 l
71.574568 138.391278 l
71.969414 138.300902 l
73.074983 138.479624 l
73.46983 139.532718 l
74.101583 141.160276 l
74.41746 141.566773 l
74.575399 141.524507 l
74.733337 141.06736 l
75.52303 137.563247 l
75.680968 137.518433 l
75.838907 137.754998 l
77.023445 141.10378 l
77.57623 142.760323 l
77.892107 143.117922 l
78.681799 143.620575 l
78.839738 143.462199 l
79.076646 142.809781 l
79.787369 140.232811 l
80.340153 139.602925 l
80.498092 139.512279 l
80.65603 139.718652 l
80.971907 140.963248 l
81.682631 143.767669 l
82.393354 145.98675 l
83.340985 150.492342 l
83.498923 150.441326 l
83.656862 149.947715 l
83.893769 148.364094 l
84.367585 142.897207 l
84.762431 139.105547 l
85.078308 137.788659 l
85.394185 137.361177 l
85.710062 137.296534 l
86.183877 137.513745 l
86.657693 137.928042 l
87.605324 139.196569 l
88.473985 139.909286 l
89.184708 140.820538 l
89.816462 142.270293 l
90.369247 143.306052 l
90.764093 143.529349 l
91.001001 143.468487 l
91.237909 143.094705 l
91.632755 141.701872 l
92.264509 139.735593 l
92.738324 138.785413 l
93.13317 138.446005 l
93.922863 138.200931 l
94.080801 138.294521 l
94.396678 138.936128 l
94.633586 139.283035 l
94.870494 139.252389 l
95.660186 138.864117 l
96.134001 138.629533 l
96.449878 138.486478 l
96.765755 138.601267 l
97.397509 139.170249 l
98.187202 140.012667 l
98.424109 139.934505 l
98.897925 139.705512 l
99.134833 139.803316 l
99.37174 140.170623 l
100.003494 141.413532 l
100.161433 141.0259 l
100.714217 138.84278 l
101.109064 139.375724 l
101.898756 140.293553 l
102.293602 140.334469 l
102.451541 140.797777 l
102.688448 142.523625 l
103.715049 153.355458 l
104.58371 163.008482 l
105.057526 165.840514 l
105.373403 166.697451 l
105.531341 166.716724 l
105.68928 166.336163 l
106.005156 164.53687 l
106.557941 159.546281 l
108.216295 142.531632 l
108.611141 140.225748 l
108.848049 139.784713 l
109.084957 139.810142 l
109.400834 140.227882 l
109.953618 141.170509 l
110.111557 141.068245 l
110.427434 140.720575 l
110.664342 140.812282 l
110.980219 141.020948 l
111.138157 140.942439 l
112.085788 139.86862 l
112.401665 140.005162 l
114.533834 141.530321 l
115.560435 141.241161 l
116.03425 140.821206 l
116.271158 140.719653 l
116.508065 140.896288 l
116.981881 141.786785 l
117.297758 142.195749 l
117.534666 142.145047 l
118.245389 141.624465 l
118.482296 141.794769 l
118.719204 142.271633 l
119.271989 144.183971 l
119.745804 145.439014 l
120.14065 145.924507 l
120.298589 145.946149 l
120.456527 145.707796 l
120.693435 144.700466 l
121.325189 141.69236 l
121.562097 141.397929 l
121.799005 141.482548 l
122.430758 141.942859 l
122.588697 141.820026 l
122.825605 141.299427 l
123.615297 138.978105 l
124.089112 138.853526 l
124.799836 137.996083 l
125.747467 137.618713 l
126.142313 137.449734 l
126.616128 137.556663 l
127.168913 138.079888 l
127.563759 138.269466 l
127.879636 138.171786 l
128.827267 137.615705 l
129.380052 137.630529 l
130.327682 137.997316 l
130.722529 138.368746 l
131.196344 139.252134 l
131.828098 140.365941 l
132.143975 140.532792 l
132.854698 140.56654 l
134.592021 142.25383 l
134.986868 142.611748 l
135.223775 142.526493 l
135.618622 141.922747 l
136.013468 141.519079 l
136.250375 141.200666 l
136.724191 139.766521 l
137.276976 138.44954 l
137.750791 137.871403 l
138.145637 137.721547 l
138.619453 137.821001 l
139.172237 138.187743 l
139.646053 138.774396 l
140.040899 139.680812 l
140.830591 141.893575 l
140.909561 141.863241 l
141.067499 141.502986 l
141.541315 140.007082 l
141.778222 139.881707 l
142.252038 140.102126 l
142.804822 140.261406 l
143.357607 140.185635 l
143.752453 140.17466 l
144.226269 140.398308 l
144.621115 140.832678 l
145.805654 143.913383 l
146.595346 147.292354 l
147.306069 150.65716 l
147.542977 150.79737 l
147.779885 150.621903 l
148.095762 149.996553 l
148.490608 148.578977 l
149.359269 145.259836 l
150.3069 142.459534 l
150.859685 140.723082 l
151.965254 138.543863 l
152.281131 138.278144 l
152.597008 138.333676 l
152.833916 138.642886 l
153.307731 139.406669 l
153.544639 139.396281 l
154.097424 138.923529 l
155.360932 137.813675 l
155.597839 137.957915 l
156.54547 138.937847 l
156.940316 139.060006 l
157.57207 139.637617 l
157.730009 139.23051 l
158.124855 137.830201 l
158.361763 137.644923 l
158.519701 137.697913 l
158.756609 138.148973 l
159.546301 139.945097 l
159.70424 139.951405 l
159.862178 139.729118 l
160.651871 138.01215 l
160.888778 138.002946 l
161.125686 138.25222 l
161.520532 139.191368 l
161.994348 140.201729 l
162.231255 140.267619 l
162.78404 140.001724 l
163.020948 140.409212 l
163.336825 141.672636 l
163.968579 144.734316 l
164.126517 144.801307 l
164.284456 144.307883 l
164.600333 141.777386 l
164.995179 138.587187 l
165.311056 137.550975 l
165.784871 136.785389 l
166.021779 136.704274 l
166.258687 136.930358 l
166.495594 137.502423 l
166.890441 139.101643 l
167.917041 144.588671 l
168.074979 144.173245 l
168.390856 141.712191 l
168.785702 139.032911 l
169.02261 138.39016 l
169.180549 138.335111 l
169.496426 138.681186 l
169.891272 139.033578 l
170.207149 139.029272 l
170.838903 138.831869 l
171.15478 139.014719 l
171.549626 139.585383 l
172.260349 141.182355 l
172.813134 142.979448 l
173.523857 146.084133 l
173.997672 149.098062 l
174.945303 155.800825 l
175.182211 156.274658 l
175.340149 156.217847 l
175.577057 155.662537 l
175.971903 153.906838 l
177.31438 147.611913 l
178.814796 142.25479 l
179.051704 142.083153 l
179.288611 142.181603 l
179.762427 142.578513 l
179.920365 142.092138 l
180.394181 139.949861 l
180.867996 139.120004 l
181.025935 139.259605 l
181.183873 139.820604 l
181.49975 142.128367 l
182.210473 147.446375 l
182.447381 148.240294 l
182.605319 148.372752 l
182.763258 148.287132 l
183.079135 147.739639 l
183.473981 147.058494 l
183.63192 147.319935 l
184.500581 149.757516 l
184.737489 149.643035 l
185.053366 149.126772 l
185.527181 147.923319 l
185.843058 146.639645 l
186.316874 143.377521 l
186.948628 139.450515 l
187.264505 138.585011 l
187.580382 138.35662 l
187.817289 138.474332 l
188.054197 138.938334 l
188.843889 141.184034 l
189.238736 141.079957 l
189.475643 141.698382 l
189.949459 143.191051 l
190.186367 143.407495 l
190.423274 143.254576 l
190.739151 142.646065 l
191.449874 140.532147 l
191.844721 139.484557 l
192.081628 139.36485 l
192.397505 139.619388 l
192.871321 140.291698 l
193.108228 141.192285 l
193.503075 144.351165 l
194.213798 150.134407 l
194.529675 151.050101 l
194.687613 151.077811 l
194.924521 150.718813 l
195.240398 149.668982 l
196.03009 145.845261 l
196.582875 143.728698 l
197.05669 142.758782 l
197.609475 142.183029 l
197.846383 142.123219 l
198.083291 142.278219 l
198.478137 142.518936 l
198.794014 142.393066 l
199.109891 142.054162 l
199.425768 141.244394 l
199.978552 139.732743 l
200.294429 139.484022 l
200.689275 139.494795 l
201.005152 139.7449 l
201.715876 140.590215 l
202.110722 140.596036 l
202.742476 140.567905 l
203.058353 140.785689 l
203.37423 141.294541 l
203.769076 142.422999 l
204.479799 145.324936 l
204.953614 146.962897 l
205.269491 147.463158 l
206.059184 148.354208 l
206.532999 149.024507 l
206.769907 150.015917 l
207.243722 152.106845 l
207.401661 152.203982 l
207.559599 152.021838 l
208.112384 150.725259 l
208.665169 149.087502 l
209.060015 146.991724 l
209.6128 143.860524 l
209.928677 143.047233 l
210.323523 142.638609 l
210.6394 142.293939 l
210.876307 142.063585 l
211.192184 142.146348 l
211.429092 141.647892 l
211.666 141.174534 l
211.823938 141.238596 l
212.060846 141.847367 l
212.534661 143.935455 l
213.087446 146.462094 l
213.245385 146.584288 l
213.403323 146.324521 l
213.640231 145.380093 l
214.666831 140.082915 l
214.824769 140.061859 l
215.061677 140.372691 l
215.535493 141.573469 l
216.404154 144.177555 l
216.641062 144.037858 l
216.87797 143.946123 l
217.430754 143.944774 l
217.588693 143.647444 l
217.825601 142.536693 l
218.457355 138.336295 l
218.694262 138.2352 l
219.010139 138.480916 l
219.326016 138.98417 l
220.431586 142.100171 l
220.826432 143.474967 l
220.98437 142.768213 l
221.379216 140.537723 l
221.616124 140.113889 l
221.774063 140.249815 l
222.01097 140.94658 l
222.642724 142.990916 l
223.274478 143.878926 l
223.432417 143.890444 l
223.590355 143.532334 l
223.985201 141.392869 l
224.380048 139.857681 l
224.695924 139.362443 l
224.932832 139.320348 l
225.16974 139.637948 l
225.801494 140.579696 l
226.038402 140.699292 l
226.19634 140.62212 l
226.433248 140.228517 l
227.22294 138.665025 l
227.854694 137.970226 l
228.091602 138.028575 l
228.565417 138.604997 l
229.039233 139.390607 l
229.434079 139.993436 l
230.065833 140.562861 l
230.302741 140.749781 l
230.460679 140.507554 l
231.092433 138.659592 l
231.645218 138.408922 l
232.119033 137.909993 l
232.513879 137.876966 l
232.829756 137.990628 l
232.829756 137.990628 l
stroke
grestore
1.000 0.078 0.576 setrgbcolor
gsave
197.344 42.935 35.486 134.736 clipbox
35.485625 139.16207 m
35.643563 139.180042 l
35.801502 139.24659 l
36.03841 140.042011 l
36.117379 139.966702 l
36.354287 139.742614 l
36.591194 139.949052 l
36.749133 139.598631 l
36.986041 138.794468 l
37.143979 138.825126 l
37.380887 139.02733 l
37.459856 139.044687 l
38.012641 140.3722 l
38.09161 140.416911 l
38.328518 140.195131 l
38.565425 140.616216 l
39.197179 139.251878 l
39.276149 139.186054 l
39.513056 139.812424 l
40.065841 142.377071 l
40.381718 141.975102 l
40.618626 142.563007 l
40.855533 142.777196 l
41.882133 139.122014 l
41.961103 139.106702 l
42.27698 139.435488 l
42.434918 139.488105 l
42.671826 139.611781 l
42.829764 139.680512 l
43.145641 139.713581 l
43.30358 139.606876 l
43.540487 139.85087 l
43.935334 139.316877 l
44.172241 139.627564 l
44.33018 139.441092 l
44.567088 139.509879 l
45.593688 140.522524 l
46.067503 141.056283 l
46.146472 140.943739 l
46.304411 141.329577 l
47.48895 145.71997 l
47.567919 145.84924 l
47.725857 145.676866 l
47.804826 145.685873 l
47.962765 145.386377 l
48.278642 146.298598 l
48.673488 148.528615 l
48.831427 148.76397 l
48.910396 148.702861 l
48.989365 148.428033 l
49.305242 149.265047 l
49.384211 149.07093 l
49.700088 148.129027 l
50.173904 145.95326 l
50.252873 145.957387 l
50.410811 145.575201 l
50.647719 145.024793 l
50.884627 144.825924 l
51.042565 144.896096 l
51.358442 144.100278 l
52.148135 142.174098 l
52.306073 142.406455 l
52.62195 141.775069 l
52.937827 141.187342 l
53.016796 141.36215 l
53.174735 142.030923 l
53.490612 141.81478 l
53.885458 140.324547 l
53.964427 140.388997 l
54.359273 141.449848 l
54.438243 141.438492 l
54.517212 141.588346 l
54.833089 141.237663 l
55.069997 141.562669 l
55.306904 141.72604 l
55.464843 141.345961 l
55.70175 141.525936 l
55.859689 141.580858 l
56.096597 140.966555 l
56.570412 139.005597 l
56.728351 138.895522 l
56.886289 138.724424 l
57.281135 138.872513 l
57.675981 138.505767 l
57.83392 138.467889 l
57.991858 138.646982 l
58.149797 138.628475 l
58.228766 138.6505 l
59.176397 141.849095 l
59.650212 141.287278 l
59.88712 141.630159 l
60.045059 141.665232 l
60.281966 142.095986 l
60.360936 142.106297 l
60.91372 140.579066 l
61.150628 140.612153 l
61.308567 140.303342 l
61.545474 139.564211 l
61.782382 139.867557 l
62.01929 139.3695 l
62.098259 139.323167 l
62.414136 138.613552 l
62.887951 139.398798 l
62.966921 139.279345 l
63.203828 138.830752 l
63.282798 138.92883 l
63.756613 140.273046 l
63.914551 140.391294 l
64.07249 140.466685 l
64.309398 140.739706 l
64.625275 139.567083 l
64.783213 139.146691 l
65.09909 139.224082 l
65.335998 138.75922 l
65.651875 139.226282 l
65.730844 139.416053 l
65.809813 139.36722 l
65.888782 139.294346 l
66.283629 139.876463 l
66.678475 141.004397 l
66.915383 141.263242 l
66.994352 141.2381 l
67.15229 141.346957 l
67.310229 141.488682 l
67.547137 142.085012 l
68.25786 145.88419 l
68.336829 145.805862 l
69.047552 146.48779 l
69.28446 145.521632 l
69.679306 143.241642 l
69.758275 143.118585 l
69.995183 143.436636 l
70.232091 143.641787 l
71.258691 146.868551 l
71.416629 147.011396 l
72.048383 148.751571 l
72.601168 147.526379 l
72.917045 146.751536 l
73.074983 146.853807 l
73.311891 147.373857 l
73.46983 147.580551 l
73.706737 148.325016 l
74.970245 157.655048 l
75.286122 158.073737 l
75.365091 158.026978 l
75.444061 157.841521 l
76.075814 154.494783 l
76.154784 154.468512 l
76.312722 154.557293 l
76.470661 154.454508 l
76.865507 153.013735 l
77.339322 149.50038 l
77.813138 145.575269 l
78.050045 144.668484 l
78.207984 144.33339 l
78.760769 142.156431 l
78.997676 141.319179 l
79.155615 141.200204 l
80.024276 139.003109 l
80.103246 139.087843 l
80.419123 140.531534 l
80.735 142.864649 l
81.445723 147.167615 l
81.603661 147.369744 l
81.682631 147.320957 l
82.156446 145.918912 l
82.314384 145.200512 l
82.551292 144.348663 l
82.709231 144.38696 l
83.025108 143.966415 l
83.183046 143.599731 l
83.262015 143.558009 l
83.419954 142.925047 l
83.577892 142.353149 l
83.8148 142.376318 l
84.209646 140.940946 l
84.446554 141.934999 l
85.078308 145.378161 l
85.157277 145.379634 l
85.315216 144.987527 l
85.868 142.06089 l
86.025939 141.271513 l
86.341816 139.806435 l
86.499754 139.822507 l
86.736662 140.066819 l
86.8946 140.031786 l
87.289447 139.815073 l
87.605324 140.184383 l
87.9212 140.523945 l
88.079139 140.276931 l
88.710893 138.19324 l
88.868831 138.128962 l
89.263678 138.889607 l
90.211308 140.748008 l
90.369247 140.712666 l
90.606155 140.203736 l
90.843062 139.654377 l
91.395847 140.510865 l
91.632755 140.271102 l
91.948632 140.363937 l
92.027601 140.322812 l
92.185539 139.866493 l
92.264509 139.897964 l
92.501416 140.427115 l
92.659355 140.318889 l
93.054201 139.196331 l
93.291109 139.322736 l
93.449047 139.00899 l
93.606986 138.538857 l
93.843893 138.720336 l
94.001832 138.769593 l
94.23874 139.162199 l
94.396678 139.195354 l
94.554617 139.096803 l
94.949463 140.400975 l
95.186371 139.67008 l
95.26534 139.713474 l
95.739155 141.237822 l
96.134001 143.159066 l
96.449878 144.008927 l
96.923694 145.40569 l
97.397509 144.686544 l
97.476479 144.790303 l
97.713386 146.544103 l
98.34514 152.860662 l
98.503079 153.069861 l
98.897925 152.665963 l
99.213802 153.448346 l
99.45071 154.189911 l
99.766587 155.487072 l
99.845556 155.516228 l
100.082463 155.081258 l
100.556279 154.472316 l
100.793187 153.648738 l
100.872156 153.690384 l
101.188033 154.277363 l
101.661848 153.0479 l
102.451541 149.963575 l
102.609479 149.397207 l
102.925356 148.318516 l
103.241233 147.433793 l
103.951956 141.221357 l
104.188864 141.091197 l
104.346802 140.874101 l
105.294433 141.714702 l
105.531341 141.198507 l
105.61031 141.285822 l
106.242064 142.003375 l
106.873818 143.798047 l
106.952787 143.739552 l
107.110726 143.380929 l
107.268664 143.444387 l
107.584541 144.393719 l
107.979387 145.926357 l
108.137326 146.594321 l
108.76908 151.538224 l
110.032588 163.351289 l
110.348465 164.599077 l
110.585372 164.931136 l
110.664342 164.839917 l
110.980219 162.651586 l
111.454034 157.573235 l
112.006819 152.010722 l
113.112388 145.150818 l
113.270327 145.182434 l
113.507234 145.280467 l
113.665173 144.717127 l
113.98105 142.106312 l
114.296927 139.689234 l
114.533834 139.020386 l
114.849711 139.461048 l
115.323527 139.614598 l
115.481465 139.424867 l
115.797342 139.735762 l
116.666004 138.782027 l
116.823942 138.248259 l
117.06085 137.584626 l
117.613635 137.604887 l
118.08745 138.690089 l
118.324358 138.305524 l
118.482296 138.527755 l
118.640235 138.319348 l
119.19302 138.894725 l
119.350958 139.284432 l
119.903743 140.806821 l
120.14065 141.030254 l
120.851374 140.107846 l
121.009312 140.030728 l
121.325189 139.078962 l
121.483128 138.602379 l
121.562097 138.650255 l
122.114881 140.226039 l
122.27282 139.596216 l
122.667666 137.415326 l
122.825605 137.308429 l
123.062512 137.212146 l
123.536328 137.735052 l
123.852205 137.469742 l
124.168082 137.612473 l
124.32602 137.545396 l
124.720866 138.356118 l
125.194682 138.081339 l
126.221282 139.260329 l
126.37922 139.229101 l
126.774067 137.986039 l
127.168913 137.73172 l
127.326851 138.015607 l
127.800667 138.974405 l
128.037574 138.819468 l
128.116544 138.710526 l
128.353451 138.95462 l
128.51139 138.899331 l
128.590359 138.791533 l
128.906236 139.164524 l
129.380052 140.622632 l
129.53799 140.68993 l
129.774898 140.593508 l
129.932836 140.390767 l
130.090775 140.347597 l
130.406652 139.965653 l
130.56459 139.568737 l
130.722529 139.720709 l
130.959436 140.365602 l
131.117375 140.355073 l
131.354283 139.978753 l
131.433252 140.03007 l
131.512221 139.928805 l
131.749129 139.477291 l
132.065006 139.099539 l
132.380883 139.418804 l
132.69676 140.320914 l
132.933667 140.895517 l
133.012637 140.816489 l
133.328514 140.066375 l
133.486452 139.789097 l
133.72336 139.987492 l
133.802329 140.00479 l
134.118206 139.374564 l
134.197175 139.497842 l
134.670991 140.312273 l
135.065837 141.832251 l
135.302745 141.913183 l
135.539652 142.315989 l
135.618622 142.286777 l
135.934499 141.759667 l
136.092437 141.32285 l
136.329345 140.800636 l
136.566252 140.769171 l
136.724191 140.532938 l
136.961099 140.943242 l
137.198006 141.342335 l
137.276976 141.349017 l
137.987699 139.828656 l
138.066668 139.85488 l
138.224606 140.124217 l
138.382545 139.772818 l
138.85636 138.625724 l
139.093268 138.431982 l
139.172237 138.400866 l
139.646053 138.984612 l
139.725022 138.883708 l
140.040899 139.172058 l
140.277807 138.881902 l
140.830591 138.182578 l
141.225438 138.15738 l
141.462345 137.784013 l
141.541315 137.871437 l
141.936161 138.005128 l
142.331007 138.788405 l
142.409976 138.78796 l
142.567915 138.627447 l
142.725853 138.54755 l
142.883792 138.423622 l
143.04173 138.70154 l
143.278638 138.929607 l
143.357607 139.096894 l
143.436576 139.056766 l
143.673484 138.944885 l
144.226269 140.912458 l
144.621115 140.363375 l
144.700084 140.198966 l
144.779053 140.2597 l
144.936992 140.454617 l
145.09493 140.407178 l
145.1739 140.490652 l
145.331838 140.327937 l
145.489777 140.627519 l
145.805654 141.361816 l
145.963592 141.190096 l
146.2005 141.917378 l
146.279469 142.088054 l
146.358438 141.963113 l
146.516377 141.309702 l
146.595346 141.333038 l
146.832254 141.463856 l
147.148131 142.251217 l
147.464008 144.057956 l
148.095762 148.599365 l
148.332669 149.33796 l
148.490608 149.220494 l
148.806485 148.128641 l
148.964423 148.461173 l
149.2803 147.647179 l
150.227931 141.616277 l
150.3069 141.613864 l
151.175562 142.748931 l
151.254531 142.767647 l
151.41247 143.226465 l
151.807316 144.728658 l
152.123193 145.920318 l
152.3601 148.284952 l
153.386701 159.939872 l
153.781547 161.671408 l
153.860516 161.746227 l
153.939485 161.575554 l
154.176393 160.59386 l
154.255362 160.590224 l
154.334331 160.768336 l
154.571239 160.487267 l
154.729178 160.583262 l
154.887116 160.264964 l
155.045055 160.607257 l
155.281962 160.418119 l
155.51887 160.809777 l
155.676809 160.458579 l
156.229593 157.51606 l
156.940316 148.349326 l
157.493101 142.387231 l
157.730009 142.005291 l
158.045886 141.861891 l
158.519701 140.519074 l
158.59867 140.585317 l
158.756609 140.822195 l
159.151455 139.801031 l
159.467332 138.978687 l
159.783209 139.340466 l
159.941148 139.09055 l
160.178055 138.742262 l
160.572901 139.785058 l
160.73084 140.202473 l
161.125686 139.211691 l
161.204655 139.321646 l
161.441563 139.455365 l
161.599502 139.240619 l
162.152286 140.230972 l
162.310225 140.15843 l
162.389194 140.155531 l
162.626102 139.915834 l
162.705071 139.900067 l
162.863009 139.663313 l
163.020948 139.963293 l
163.178886 140.218296 l
163.336825 140.223456 l
163.494763 140.575997 l
163.652702 140.496859 l
163.731671 140.501007 l
163.88961 140.172552 l
164.205487 139.082663 l
164.600333 138.865319 l
164.758271 139.005646 l
164.91621 139.051602 l
165.074148 139.345573 l
165.232087 139.675838 l
165.390025 139.475719 l
165.547964 139.272004 l
165.626933 139.301377 l
166.100748 140.861344 l
166.258687 141.166961 l
166.495594 141.962302 l
166.732502 141.589517 l
167.285287 139.450688 l
167.443225 139.446738 l
167.601164 139.499303 l
167.917041 139.132008 l
168.232918 138.201729 l
168.548795 137.953511 l
168.706733 137.854873 l
169.180549 138.297839 l
169.338487 138.284755 l
169.654364 137.94787 l
169.891272 137.718649 l
170.207149 138.380811 l
170.365087 138.204478 l
170.996841 139.58755 l
171.312718 139.880091 l
171.707564 140.939676 l
171.786534 140.852891 l
171.944472 141.121143 l
172.023441 141.042346 l
172.260349 140.915481 l
172.339318 141.033107 l
172.655195 140.501029 l
172.892103 139.692257 l
173.20798 139.994668 l
173.444888 139.868455 l
173.602826 139.93959 l
173.760765 139.817718 l
173.918703 139.6851 l
174.23458 138.971332 l
174.392518 138.997365 l
175.024272 141.577151 l
175.182211 141.643202 l
175.340149 141.794308 l
175.577057 141.578991 l
175.656026 141.52512 l
175.813965 141.657747 l
175.971903 141.53354 l
176.129842 141.060436 l
176.445719 140.041378 l
176.603657 140.232323 l
176.919534 139.828378 l
177.077473 139.526827 l
177.235411 139.516426 l
177.39335 139.300738 l
177.472319 139.30846 l
178.656857 142.664871 l
179.051704 143.498529 l
179.44655 142.893967 l
179.683458 142.855071 l
179.841396 142.834975 l
180.078304 143.37478 l
180.394181 144.6345 l
180.631088 144.898264 l
180.710058 144.900358 l
180.867996 145.104614 l
181.183873 144.295222 l
181.262842 144.347887 l
181.49975 143.676249 l
181.815627 142.577864 l
181.973566 142.206339 l
182.289443 141.031357 l
182.52635 140.652077 l
182.921196 141.038519 l
183.158104 140.974438 l
183.710889 140.284695 l
183.947797 140.525186 l
184.105735 140.477717 l
184.500581 141.459779 l
184.57955 141.408925 l
184.737489 141.680082 l
184.974397 141.517937 l
185.132335 141.684127 l
185.68512 140.663715 l
186.237905 139.5576 l
186.474812 138.920721 l
186.632751 139.181336 l
186.790689 138.722515 l
186.948628 138.504739 l
187.264505 138.662012 l
187.422443 139.084536 l
187.73832 139.138887 l
188.054197 138.549594 l
188.449043 137.992164 l
188.606982 138.117289 l
188.76492 138.135369 l
188.843889 138.011015 l
188.922859 138.081035 l
189.396674 139.048626 l
189.79152 138.581528 l
189.949459 138.28288 l
190.107397 138.285465 l
190.423274 138.984499 l
190.660182 138.60585 l
190.81812 138.188167 l
190.976059 138.330453 l
192.081628 141.750276 l
192.634413 141.452712 l
192.713382 141.544311 l
193.029259 142.830069 l
193.108228 142.79988 l
193.187198 142.814578 l
193.818952 143.989693 l
194.292767 143.247003 l
194.450705 143.237787 l
195.240398 141.099313 l
195.319367 141.128667 l
195.477306 141.551036 l
195.556275 141.466679 l
195.714213 140.958993 l
195.872152 141.265703 l
196.03009 141.43297 l
196.188029 141.245173 l
196.424936 141.675991 l
196.661844 142.711987 l
196.740813 142.584184 l
196.977721 141.965149 l
197.13566 141.33308 l
197.530506 141.913981 l
197.767414 142.613406 l
198.004321 142.261199 l
198.16226 142.161302 l
198.557106 141.388491 l
198.794014 141.698854 l
199.030921 142.205381 l
199.425768 142.656964 l
199.662675 144.121775 l
200.136491 149.135293 l
200.610306 153.776959 l
200.926183 156.147936 l
201.399999 159.141055 l
201.636906 160.651093 l
202.031753 164.82881 l
202.34763 167.350976 l
203.532168 175.568786 l
203.690107 175.679752 l
204.163922 174.656587 l
204.40083 174.81869 l
204.558768 174.052244 l
207.401661 145.680795 l
207.954446 138.989074 l
208.191353 138.326351 l
208.50723 138.759485 l
208.665169 138.958232 l
209.138984 139.799664 l
209.6128 140.493842 l
209.849707 141.681303 l
210.244554 143.447632 l
210.402492 143.705378 l
210.481461 143.615345 l
210.955277 141.144807 l
211.192184 139.96778 l
211.350123 139.836905 l
211.587031 140.192954 l
211.744969 139.977797 l
211.823938 140.034608 l
212.218785 141.280176 l
212.455692 141.030503 l
212.534661 140.965001 l
212.771569 140.481188 l
212.929508 140.702658 l
213.087446 141.003576 l
213.245385 140.900514 l
213.482292 141.335293 l
213.640231 141.815531 l
213.7192 141.670202 l
213.798169 141.720393 l
214.035077 142.399383 l
214.350954 143.255846 l
214.429923 143.245281 l
214.587862 142.749276 l
214.7458 142.397631 l
214.824769 142.517143 l
215.061677 143.679122 l
215.614462 149.373584 l
216.562093 160.50722 l
216.87797 161.783463 l
217.114877 162.540075 l
217.272816 162.50889 l
217.430754 162.878282 l
217.509724 162.820144 l
217.746631 162.56445 l
217.90457 162.009111 l
219.878801 146.211538 l
219.95777 145.833739 l
220.036739 145.853409 l
220.194678 146.388644 l
220.668493 148.931802 l
220.905401 148.916501 l
220.98437 148.827095 l
221.142309 147.844035 l
221.537155 145.660705 l
221.932001 144.344549 l
222.168909 143.965974 l
222.405817 143.503409 l
222.563755 143.686922 l
222.800663 143.435139 l
222.958601 143.162498 l
223.03757 143.17687 l
223.195509 143.002474 l
223.353447 143.064438 l
223.590355 142.065722 l
223.827263 140.993233 l
224.222109 141.389201 l
224.616955 141.027506 l
224.774894 141.333876 l
224.853863 141.290107 l
225.011801 141.462058 l
225.643555 139.659457 l
225.880463 139.92313 l
226.038402 140.284583 l
226.19634 140.175262 l
226.354279 139.805436 l
226.433248 139.839241 l
226.512217 139.745042 l
226.749125 138.971615 l
227.065002 139.726524 l
227.459848 141.301116 l
227.538817 141.261964 l
227.617786 141.173611 l
228.170571 139.320506 l
228.32851 139.432428 l
228.486448 139.675104 l
228.802325 139.556052 l
229.039233 139.793274 l
229.197171 139.95842 l
229.35511 140.328351 l
229.434079 140.331204 l
229.670987 139.852033 l
229.828925 140.158716 l
230.144802 141.226797 l
230.539648 141.697554 l
230.618617 141.583663 l
231.171402 139.53772 l
231.40831 138.915105 l
231.487279 139.036389 l
231.566248 138.983431 l
231.724187 138.883648 l
231.882125 138.705486 l
232.040064 138.474356 l
232.198002 138.308368 l
232.829756 139.789515 l
232.829756 139.789515 l
stroke
grestore
0.800 setlinewidth
0 setlinejoin
0.000 setgray
gsave
35.485625 134.735963 m
35.485625 177.670769 l
stroke
grestore
gsave
232.829756 134.735963 m
232.829756 177.670769 l
stroke
grestore
gsave
35.485625 134.735963 m
232.829756 134.735963 l
stroke
grestore
gsave
35.485625 177.670769 m
232.829756 177.670769 l
stroke
grestore
gsave
7.857447 186.257731 translate
0.000000 rotate
/DejaVuSans-Bold 9.0 selectfont
0.000000 0.437500 moveto
/A glyphshow
grestore
/DejaVuSans 8.400 selectfont
gsave

81.688941 183.670769 translate
0.000000 rotate
0.000000 0 m /F glyphshow
4.576248 0 m /o glyphshow
9.709763 0 m /c glyphshow
14.322968 0 m /a glyphshow
19.464676 0 m /l glyphshow
21.795853 0 m /space glyphshow
24.462982 0 m /s glyphshow
28.834457 0 m /p glyphshow
34.160538 0 m /e glyphshow
39.322739 0 m /c glyphshow
43.935944 0 m /i glyphshow
46.267120 0 m /e glyphshow
51.429321 0 m /s glyphshow
55.800797 0 m /space glyphshow
58.467926 0 m /t glyphshow
61.757797 0 m /i glyphshow
64.088974 0 m /m glyphshow
72.262451 0 m /e glyphshow
77.424652 0 m /space glyphshow
80.091782 0 m /s glyphshow
84.463257 0 m /e glyphshow
89.625458 0 m /r glyphshow
93.075119 0 m /i glyphshow
95.406296 0 m /e glyphshow
100.568497 0 m /s glyphshow
grestore
gsave
156.573506 155.245769 m
229.829756 155.245769 l
229.829756 174.670769 l
156.573506 174.670769 l
cl
1.000 setgray
fill
grestore
1.500 setlinewidth
1 setlinejoin
0.118 0.565 1.000 setrgbcolor
gsave
158.973506 169.808269 m
164.973506 169.808269 l
170.973506 169.808269 l
stroke
grestore
0.000 setgray
/DejaVuSans 6.000 selectfont
gsave

175.773506 167.708269 translate
0.000000 rotate
0.000000 0 m /D glyphshow
4.620117 0 m /i glyphshow
6.287109 0 m /s glyphshow
9.413086 0 m /o glyphshow
13.083984 0 m /r glyphshow
15.425781 0 m /d glyphshow
19.234375 0 m /e glyphshow
22.925781 0 m /r glyphshow
25.267578 0 m /e glyphshow
28.958984 0 m /d glyphshow
32.767578 0 m /space glyphshow
34.674805 0 m /L glyphshow
37.392578 0 m /V glyphshow
grestore
1.000 0.078 0.576 setrgbcolor
gsave
158.973506 160.995769 m
164.973506 160.995769 l
170.973506 160.995769 l
stroke
grestore
0.000 setgray
gsave

175.773506 158.895769 translate
0.000000 rotate
0.000000 0 m /S glyphshow
3.808594 0 m /t glyphshow
6.161133 0 m /o glyphshow
9.832031 0 m /c glyphshow
13.130859 0 m /h glyphshow
16.933594 0 m /a glyphshow
20.610352 0 m /s glyphshow
23.736328 0 m /t glyphshow
26.088867 0 m /i glyphshow
27.755859 0 m /c glyphshow
31.054688 0 m /space glyphshow
32.961914 0 m /m glyphshow
38.806641 0 m /o glyphshow
42.477539 0 m /d glyphshow
46.286133 0 m /e glyphshow
49.977539 0 m /l glyphshow
grestore
gsave
35.485625 26.485625 m
232.829756 26.485625 l
232.829756 90.887835 l
35.485625 90.887835 l
cl
1.000 setgray
fill
grestore
0.800 setlinewidth
0 setlinecap
gsave
/o {
gsave
newpath
translate
0.8 setlinewidth
1 setlinejoin

0 setlinecap

0 0 m
0 -3.5 l

gsave
0.000 setgray
fill
grestore
stroke
grestore
} bind def
35.4856 26.4856 o
grestore
gsave
26.985625 12.938750 translate
0.000000 rotate
/DejaVuSans 7.0 selectfont
0.000000 0.678125 moveto
/one glyphshow
4.453613 0.678125 moveto
/zero glyphshow
/DejaVuSans 4.8999999999999995 selectfont
8.974219 3.357812 moveto
/minus glyphshow
13.079883 3.357812 moveto
/nine glyphshow
grestore
gsave
/o {
gsave
newpath
translate
0.8 setlinewidth
1 setlinejoin

0 setlinecap

0 0 m
0 -3.5 l

gsave
0.000 setgray
fill
grestore
stroke
grestore
} bind def
76.1795 26.4856 o
grestore
gsave
67.679458 12.938750 translate
0.000000 rotate
/DejaVuSans 7.0 selectfont
0.000000 0.743750 moveto
/one glyphshow
4.453613 0.743750 moveto
/zero glyphshow
/DejaVuSans 4.8999999999999995 selectfont
8.974219 3.423438 moveto
/minus glyphshow
13.079883 3.423438 moveto
/seven glyphshow
grestore
gsave
/o {
gsave
newpath
translate
0.8 setlinewidth
1 setlinejoin

0 setlinecap

0 0 m
0 -3.5 l

gsave
0.000 setgray
fill
grestore
stroke
grestore
} bind def
116.873 26.4856 o
grestore
gsave
108.373290 12.938750 translate
0.000000 rotate
/DejaVuSans 7.0 selectfont
0.000000 0.743750 moveto
/one glyphshow
4.453613 0.743750 moveto
/zero glyphshow
/DejaVuSans 4.8999999999999995 selectfont
8.974219 3.423438 moveto
/minus glyphshow
13.079883 3.423438 moveto
/five glyphshow
grestore
gsave
/o {
gsave
newpath
translate
0.8 setlinewidth
1 setlinejoin

0 setlinecap

0 0 m
0 -3.5 l

gsave
0.000 setgray
fill
grestore
stroke
grestore
} bind def
157.567 26.4856 o
grestore
gsave
149.067123 12.938750 translate
0.000000 rotate
/DejaVuSans 7.0 selectfont
0.000000 0.678125 moveto
/one glyphshow
4.453613 0.678125 moveto
/zero glyphshow
/DejaVuSans 4.8999999999999995 selectfont
8.974219 3.357812 moveto
/minus glyphshow
13.079883 3.357812 moveto
/three glyphshow
grestore
gsave
/o {
gsave
newpath
translate
0.8 setlinewidth
1 setlinejoin

0 setlinecap

0 0 m
0 -3.5 l

gsave
0.000 setgray
fill
grestore
stroke
grestore
} bind def
198.261 26.4856 o
grestore
gsave
189.760956 12.938750 translate
0.000000 rotate
/DejaVuSans 7.0 selectfont
0.000000 0.743750 moveto
/one glyphshow
4.453613 0.743750 moveto
/zero glyphshow
/DejaVuSans 4.8999999999999995 selectfont
8.974219 3.423438 moveto
/minus glyphshow
13.079883 3.423438 moveto
/one glyphshow
grestore
/DejaVuSans 7.000 selectfont
gsave

114.688941 2.173125 translate
0.000000 rotate
0.000000 0 m /a glyphshow
4.289551 0 m /b glyphshow
8.732910 0 m /u glyphshow
13.169434 0 m /n glyphshow
17.605957 0 m /d glyphshow
22.049316 0 m /a glyphshow
26.338867 0 m /n glyphshow
30.775391 0 m /c glyphshow
34.624023 0 m /e glyphshow
grestore
gsave
/o {
gsave
newpath
translate
0.8 setlinewidth
1 setlinejoin

0 setlinecap

-0 0 m
-3.5 0 l

gsave
0.000 setgray
fill
grestore
stroke
grestore
} bind def
35.4856 32.8442 o
grestore
gsave
11.485625 29.570749 translate
0.000000 rotate
/DejaVuSans 7.0 selectfont
0.000000 0.743750 moveto
/one glyphshow
4.453613 0.743750 moveto
/zero glyphshow
/DejaVuSans 4.8999999999999995 selectfont
8.974219 3.423438 moveto
/minus glyphshow
13.079883 3.423438 moveto
/five glyphshow
grestore
gsave
/o {
gsave
newpath
translate
0.8 setlinewidth
1 setlinejoin

0 setlinecap

-0 0 m
-3.5 0 l

gsave
0.000 setgray
fill
grestore
stroke
grestore
} bind def
35.4856 50.6768 o
grestore
gsave
11.485625 47.403358 translate
0.000000 rotate
/DejaVuSans 7.0 selectfont
0.000000 0.743750 moveto
/one glyphshow
4.453613 0.743750 moveto
/zero glyphshow
/DejaVuSans 4.8999999999999995 selectfont
8.974219 3.423438 moveto
/minus glyphshow
13.079883 3.423438 moveto
/one glyphshow
grestore
gsave
/o {
gsave
newpath
translate
0.8 setlinewidth
1 setlinejoin

0 setlinecap

-0 0 m
-3.5 0 l

gsave
0.000 setgray
fill
grestore
stroke
grestore
} bind def
35.4856 68.5094 o
grestore
gsave
15.485625 65.235968 translate
0.000000 rotate
/DejaVuSans 7.0 selectfont
0.000000 0.678125 moveto
/one glyphshow
4.453613 0.678125 moveto
/zero glyphshow
/DejaVuSans 4.8999999999999995 selectfont
8.974219 3.357812 moveto
/three glyphshow
grestore
gsave
/o {
gsave
newpath
translate
0.8 setlinewidth
1 setlinejoin

0 setlinecap

-0 0 m
-3.5 0 l

gsave
0.000 setgray
fill
grestore
stroke
grestore
} bind def
35.4856 86.342 o
grestore
gsave
15.485625 83.068577 translate
0.000000 rotate
/DejaVuSans 7.0 selectfont
0.000000 0.743750 moveto
/one glyphshow
4.453613 0.743750 moveto
/zero glyphshow
/DejaVuSans 4.8999999999999995 selectfont
8.974219 3.423438 moveto
/seven glyphshow
grestore
gsave

6.032500 45.850792 translate
90.000000 rotate
0.000000 0 m /d glyphshow
4.443359 0 m /e glyphshow
8.750000 0 m /n glyphshow
13.186523 0 m /s glyphshow
16.833496 0 m /i glyphshow
18.778320 0 m /t glyphshow
21.522949 0 m /y glyphshow
grestore
1.500 setlinewidth
2 setlinecap
gsave
197.344 64.402 35.486 26.486 clipbox
45.626174 -1 m
45.659083 64.024205 l
47.919852 72.74085 l
50.18062 77.60819 l
52.441389 81.420081 l
54.702157 84.387805 l
56.962926 86.347824 l
59.223694 87.398162 l
61.484463 87.690068 l
63.745231 87.401691 l
66.006 86.749514 l
68.266768 85.894803 l
70.527536 84.950232 l
72.788305 83.986543 l
75.049073 83.042108 l
77.309842 82.12855 l
79.57061 81.251411 l
81.831379 80.410495 l
84.092147 79.596023 l
86.352916 78.82161 l
88.613684 78.066552 l
90.874453 77.33815 l
93.135221 76.619929 l
95.39599 75.933286 l
97.656758 75.259109 l
99.917527 74.592401 l
102.178295 73.942619 l
104.439064 73.293108 l
106.699832 72.663581 l
108.960601 72.036299 l
111.221369 71.41675 l
113.482138 70.814933 l
115.742906 70.205041 l
118.003675 69.590833 l
120.264443 68.997567 l
122.525212 68.391662 l
124.78598 67.794915 l
127.046749 67.211056 l
129.307517 66.625784 l
131.568285 66.042752 l
133.829054 65.458626 l
136.089822 64.879134 l
138.350591 64.290556 l
140.611359 63.707052 l
142.872128 63.141937 l
145.132896 62.570377 l
147.393665 61.995528 l
149.654433 61.426745 l
151.915202 60.851873 l
154.17597 60.298224 l
156.436739 59.723778 l
158.697507 59.171643 l
160.958276 58.596436 l
163.219044 58.045667 l
165.479813 57.501419 l
167.740581 56.950174 l
170.00135 56.413164 l
172.262118 55.875492 l
174.522887 55.32486 l
176.783655 54.794446 l
179.044424 54.278907 l
181.305192 53.765242 l
183.565961 53.25519 l
185.826729 52.767079 l
188.087498 52.293596 l
190.348266 51.837826 l
192.609034 51.371235 l
194.869803 50.953874 l
197.130571 50.558655 l
199.39134 50.154148 l
201.652108 49.769016 l
203.912877 49.389126 l
206.173645 48.908844 l
208.434414 48.295072 l
210.695182 47.381418 l
212.955951 45.923834 l
215.216719 43.666994 l
217.477488 40.383346 l
219.738256 35.931198 l
221.999025 29.412998 l
222.014537 -1 l
stroke
grestore
1.000 0.078 0.576 setrgbcolor
gsave
197.344 64.402 35.486 26.486 clipbox
52.404909 -1 m
52.441389 71.195922 l
54.702157 81.258163 l
56.962926 85.455897 l
59.223694 87.360914 l
61.484463 87.960462 l
63.745231 87.683945 l
66.006 86.979178 l
68.266768 86.073498 l
70.527536 85.038431 l
72.788305 84.014378 l
75.049073 83.053733 l
77.309842 82.102182 l
79.57061 81.19023 l
81.831379 80.311372 l
84.092147 79.473645 l
86.352916 78.638201 l
88.613684 77.884587 l
90.874453 77.199607 l
93.135221 76.444824 l
95.39599 75.737517 l
97.656758 75.056072 l
99.917527 74.355322 l
102.178295 73.681229 l
104.439064 73.032945 l
106.699832 72.399901 l
108.960601 71.838813 l
111.221369 71.098545 l
113.482138 70.512838 l
115.742906 69.928074 l
118.003675 69.286352 l
120.264443 68.680309 l
122.525212 68.132472 l
124.78598 67.538904 l
127.046749 66.91741 l
129.307517 66.373667 l
131.568285 65.75414 l
133.829054 65.15325 l
136.089822 64.587022 l
138.350591 64.040266 l
140.611359 63.465851 l
142.872128 62.894591 l
145.132896 62.285251 l
147.393665 61.728307 l
149.654433 61.119584 l
151.915202 60.659196 l
154.17597 60.052644 l
156.436739 59.579015 l
158.697507 58.892205 l
160.958276 58.326936 l
163.219044 57.774385 l
165.479813 57.266775 l
167.740581 56.657438 l
170.00135 56.00829 l
172.262118 55.551396 l
174.522887 54.995097 l
176.783655 54.472164 l
179.044424 54.037453 l
181.305192 53.400059 l
183.565961 52.971565 l
185.826729 52.518346 l
188.087498 51.985726 l
190.348266 51.673255 l
192.609034 51.296776 l
194.869803 50.761547 l
197.130571 50.292525 l
199.39134 49.8498 l
201.652108 49.377722 l
203.912877 48.697837 l
206.173645 47.999722 l
208.434414 46.848236 l
210.695182 45.571289 l
212.955951 43.589226 l
215.216719 40.75537 l
217.477488 37.252503 l
217.496964 -1 l
stroke
grestore
0 setlinecap
[5.55 2.4] 0 setdash
gsave
197.344 64.402 35.486 26.486 clipbox
46.947932 -1 m
47.919852 21.423496 l
50.18062 51.502644 l
52.441389 68.530976 l
54.702157 77.879833 l
56.962926 82.737323 l
59.223694 84.990119 l
61.484463 85.750447 l
63.745231 85.670758 l
66.006 85.131398 l
68.266768 84.352352 l
70.527536 83.459652 l
72.788305 82.5247 l
75.049073 81.587453 l
77.309842 80.669972 l
79.57061 79.784233 l
81.831379 78.93652 l
84.092147 78.12981 l
86.352916 77.365002 l
88.613684 76.641524 l
90.874453 75.957666 l
93.135221 75.310806 l
95.39599 74.697646 l
97.656758 74.114464 l
99.917527 73.557371 l
102.178295 73.022536 l
104.439064 72.506362 l
106.699832 72.005601 l
108.960601 71.517414 l
111.221369 71.039378 l
113.482138 70.56947 l
115.742906 70.10603 l
118.003675 69.647714 l
120.264443 69.193446 l
122.525212 68.742373 l
124.78598 68.293827 l
127.046749 67.847289 l
129.307517 67.402363 l
131.568285 66.958753 l
133.829054 66.516246 l
136.089822 66.074698 l
138.350591 65.634028 l
140.611359 65.194211 l
142.872128 64.755277 l
145.132896 64.317313 l
147.393665 63.880466 l
149.654433 63.444954 l
151.915202 63.011076 l
154.17597 62.57923 l
156.436739 62.14993 l
158.697507 61.723832 l
160.958276 61.301759 l
163.219044 60.884733 l
165.479813 60.473995 l
167.740581 60.071028 l
170.00135 59.677558 l
172.262118 59.295528 l
174.522887 58.927025 l
176.783655 58.574148 l
179.044424 58.238794 l
181.305192 57.922354 l
183.565961 57.625325 l
185.826729 57.346836 l
188.087498 57.084129 l
190.348266 56.831966 l
192.609034 56.58194 l
194.869803 56.321559 l
197.130571 56.032873 l
199.39134 55.690259 l
201.652108 55.256763 l
203.912877 54.678067 l
206.173645 53.872547 l
208.434414 52.714991 l
210.695182 51.009868 l
212.955951 48.447427 l
215.216719 44.531391 l
217.477488 38.459575 l
219.738256 28.926362 l
221.999025 13.795311 l
223.378948 -1 l
stroke
grestore
0.800 setlinewidth
0 setlinejoin
2 setlinecap
[] 0 setdash
0.000 setgray
gsave
35.485625 26.485625 m
35.485625 90.887835 l
stroke
grestore
gsave
232.829756 26.485625 m
232.829756 90.887835 l
stroke
grestore
gsave
35.485625 26.485625 m
232.829756 26.485625 l
stroke
grestore
gsave
35.485625 90.887835 m
232.829756 90.887835 l
stroke
grestore
gsave
7.857447 97.328056 translate
0.000000 rotate
/DejaVuSans-Bold 9.0 selectfont
0.000000 0.437500 moveto
/B glyphshow
grestore
/DejaVuSans 8.400 selectfont
gsave

83.103003 96.887835 translate
0.000000 rotate
0.000000 0 m /A glyphshow
5.739868 0 m /b glyphshow
11.065948 0 m /u glyphshow
16.383835 0 m /n glyphshow
21.701721 0 m /d glyphshow
27.027802 0 m /a glyphshow
32.169510 0 m /n glyphshow
37.487396 0 m /c glyphshow
42.100601 0 m /e glyphshow
47.262802 0 m /space glyphshow
49.929932 0 m /d glyphshow
55.256012 0 m /i glyphshow
57.587189 0 m /s glyphshow
61.958664 0 m /t glyphshow
65.248535 0 m /r glyphshow
68.698196 0 m /i glyphshow
71.029373 0 m /b glyphshow
76.355453 0 m /u glyphshow
81.673340 0 m /t glyphshow
84.963211 0 m /i glyphshow
87.294388 0 m /o glyphshow
92.427902 0 m /n glyphshow
97.745789 0 m /s glyphshow
grestore
1.500 setlinewidth
1 setlinejoin
gsave
61.566921 55.012802 m
67.566921 55.012802 l
73.566921 55.012802 l
stroke
grestore
/DejaVuSans 6.000 selectfont
gsave

78.366921 52.912802 translate
0.000000 rotate
0.000000 0 m /S glyphshow
3.808594 0 m /p glyphshow
7.617188 0 m /e glyphshow
11.308594 0 m /c glyphshow
14.607422 0 m /i glyphshow
16.274414 0 m /e glyphshow
19.965820 0 m /s glyphshow
23.091797 0 m /space glyphshow
24.999023 0 m /a glyphshow
28.675781 0 m /v glyphshow
32.226562 0 m /g glyphshow
36.035156 0 m /period glyphshow
37.942383 0 m /space glyphshow
39.849609 0 m /i glyphshow
41.516602 0 m /n glyphshow
45.319336 0 m /space glyphshow
47.226562 0 m /d glyphshow
51.035156 0 m /i glyphshow
52.702148 0 m /s glyphshow
55.828125 0 m /o glyphshow
59.499023 0 m /r glyphshow
61.840820 0 m /d glyphshow
65.649414 0 m /e glyphshow
69.340820 0 m /r glyphshow
71.682617 0 m /e glyphshow
75.374023 0 m /d glyphshow
79.182617 0 m /space glyphshow
81.089844 0 m /L glyphshow
83.807617 0 m /V glyphshow
grestore
1.000 0.078 0.576 setrgbcolor
gsave
61.566921 46.200302 m
67.566921 46.200302 l
73.566921 46.200302 l
stroke
grestore
0.000 setgray
gsave

78.366921 44.100302 translate
0.000000 rotate
0.000000 0 m /S glyphshow
3.808594 0 m /t glyphshow
6.161133 0 m /o glyphshow
9.832031 0 m /c glyphshow
13.130859 0 m /h glyphshow
16.933594 0 m /a glyphshow
20.610352 0 m /s glyphshow
23.736328 0 m /t glyphshow
26.088867 0 m /i glyphshow
27.755859 0 m /c glyphshow
31.054688 0 m /space glyphshow
32.961914 0 m /f glyphshow
35.074219 0 m /o glyphshow
38.745117 0 m /c glyphshow
42.043945 0 m /a glyphshow
45.720703 0 m /l glyphshow
47.387695 0 m /hyphen glyphshow
49.552734 0 m /s glyphshow
52.678711 0 m /p glyphshow
56.487305 0 m /e glyphshow
60.178711 0 m /c glyphshow
63.477539 0 m /i glyphshow
65.144531 0 m /e glyphshow
68.835938 0 m /s glyphshow
71.961914 0 m /space glyphshow
73.869141 0 m /m glyphshow
79.713867 0 m /o glyphshow
83.384766 0 m /d glyphshow
87.193359 0 m /e glyphshow
90.884766 0 m /l glyphshow
grestore
0 setlinecap
[5.55 2.4] 0 setdash
1.000 0.078 0.576 setrgbcolor
gsave
61.566921 37.387802 m
67.566921 37.387802 l
73.566921 37.387802 l
stroke
grestore
0.000 setgray
gsave

78.366921 35.287802 translate
0.000000 rotate
0.000000 0 m /c glyphshow
3.298828 0 m /o glyphshow
6.969727 0 m /l glyphshow
8.636719 0 m /o glyphshow
12.307617 0 m /u glyphshow
16.110352 0 m /r glyphshow
18.452148 0 m /e glyphshow
22.143555 0 m /d glyphshow
25.952148 0 m /space glyphshow
27.859375 0 m /n glyphshow
31.662109 0 m /o glyphshow
35.333008 0 m /i glyphshow
37.000000 0 m /s glyphshow
40.125977 0 m /e glyphshow
43.817383 0 m /space glyphshow
45.724609 0 m /a glyphshow
49.401367 0 m /p glyphshow
53.209961 0 m /p glyphshow
57.018555 0 m /r glyphshow
59.360352 0 m /o glyphshow
62.906250 0 m /x glyphshow
66.457031 0 m /i glyphshow
68.124023 0 m /m glyphshow
73.968750 0 m /a glyphshow
77.645508 0 m /t glyphshow
79.998047 0 m /i glyphshow
81.665039 0 m /o glyphshow
85.335938 0 m /n glyphshow
grestore

end
showpage
