\relax 
\providecommand\hyper@newdestlabel[2]{}
\providecommand\HyperFirstAtBeginDocument{\AtBeginDocument}
\HyperFirstAtBeginDocument{\ifx\hyper@anchor\@undefined
\global\let\oldcontentsline\contentsline
\gdef\contentsline#1#2#3#4{\oldcontentsline{#1}{#2}{#3}}
\global\let\oldnewlabel\newlabel
\gdef\newlabel#1#2{\newlabelxx{#1}#2}
\gdef\newlabelxx#1#2#3#4#5#6{\oldnewlabel{#1}{{#2}{#3}}}
\AtEndDocument{\ifx\hyper@anchor\@undefined
\let\contentsline\oldcontentsline
\let\newlabel\oldnewlabel
\fi}
\fi}
\global\let\hyper@last\relax 
\gdef\HyperFirstAtBeginDocument#1{#1}
\providecommand\HyField@AuxAddToFields[1]{}
\providecommand\HyField@AuxAddToCoFields[2]{}
\newlabel{eq:gLV}{{1}{1}{}{equation.0.1}{}}
\newlabel{eq:gLV@cref}{{[equation][1][]1}{[1][1][]1}}
\@writefile{lof}{\contentsline {figure}{\numberline {1}{\ignorespaces Phase diagram, $S=500, \lambda =10^{-8},\gamma =0$\relax }}{2}{figure.caption.1}\protected@file@percent }
\providecommand*\caption@xref[2]{\@setref\relax\@undefined{#1}}
\newlabel{fig:pd}{{1}{2}{Phase diagram, $S=500, \lambda =10^{-8},\gamma =0$\relax }{figure.caption.1}{}}
\newlabel{fig:pd@cref}{{[figure][1][]1}{[1][1][]2}}
\@writefile{lof}{\contentsline {figure}{\numberline {2}{\ignorespaces Difference in trajectories of relative abundance between chaos in the weak vs.\ strong regimes. Species are ordered by there average rank over the time interval. Parameters: $S=500, \lambda =10^{-8},\gamma =0$, $\mu =0.5,\sigma =0.3$ (strong), $\tilde  \mu =5.8, \tilde  \sigma =2.4$ (weak).\relax }}{3}{figure.caption.2}\protected@file@percent }
\newlabel{fig:traj}{{2}{3}{Difference in trajectories of relative abundance between chaos in the weak vs.\ strong regimes. Species are ordered by there average rank over the time interval. Parameters: $S=500, \lambda =10^{-8},\gamma =0$, $\mu =0.5,\sigma =0.3$ (strong), $\tilde \mu =5.8, \tilde \sigma =2.4$ (weak).\relax }{figure.caption.2}{}}
\newlabel{fig:traj@cref}{{[figure][2][]2}{[1][3][]3}}
\@writefile{lof}{\contentsline {figure}{\numberline {3}{\ignorespaces A closer look at the behaviour in the chaotic phase ($\mu =0.5,\sigma =0.3,S=500,\lambda =10^{-8}$). (A) Stacked abundances show that the community is at any time dominated by a handful of species, but which species are dominant changes on some characteristic timescale. (B) The distribution of abundances is approximately a truncated power-law truncated at $\lambda $ and $1$. Thin grey lines show that each species' distribution of abundances over time (abundnace fluctuation distribution, AFD) is similar. Histogram of distribution of the abundances of all species at one random point in time (snapshot species abundance distribution, SAD) is the same as the average AFD---a sort of ``ergodicity'' property. (C) The time-series of a single-species over long time on a linear abundance scales looks like on-off intermittency.\relax }}{4}{figure.caption.3}\protected@file@percent }
\newlabel{fig:chaos}{{3}{4}{A closer look at the behaviour in the chaotic phase ($\mu =0.5,\sigma =0.3,S=500,\lambda =10^{-8}$). (A) Stacked abundances show that the community is at any time dominated by a handful of species, but which species are dominant changes on some characteristic timescale. (B) The distribution of abundances is approximately a truncated power-law truncated at $\lambda $ and $1$. Thin grey lines show that each species' distribution of abundances over time (abundnace fluctuation distribution, AFD) is similar. Histogram of distribution of the abundances of all species at one random point in time (snapshot species abundance distribution, SAD) is the same as the average AFD---a sort of ``ergodicity'' property. (C) The time-series of a single-species over long time on a linear abundance scales looks like on-off intermittency.\relax }{figure.caption.3}{}}
\newlabel{fig:chaos@cref}{{[figure][3][]3}{[1][3][]4}}
\@writefile{lof}{\contentsline {figure}{\numberline {4}{\ignorespaces Left: Maximal Lyapunov exponent $\Lambda _0$ for all non-divergent simulations. Dark grey means $\Lambda _0 <0$, and light grey $\Lambda _0 > 0.1$. Right: Variation of AFD power-law exponent $\nu $ in the chaotic phase ($S=500,\lambda =10^{-8}$) [Note! When this fig was produced I had defined $\nu $ as $-\nu $; and the two figs are not the exact same dataset, but same parameters]\relax }}{5}{figure.caption.4}\protected@file@percent }
\newlabel{fig:nuglv}{{4}{5}{Left: Maximal Lyapunov exponent $\Lambda _0$ for all non-divergent simulations. Dark grey means $\Lambda _0 <0$, and light grey $\Lambda _0 > 0.1$. Right: Variation of AFD power-law exponent $\nu $ in the chaotic phase ($S=500,\lambda =10^{-8}$) [Note! When this fig was produced I had defined $\nu $ as $-\nu $; and the two figs are not the exact same dataset, but same parameters]\relax }{figure.caption.4}{}}
\newlabel{fig:nuglv@cref}{{[figure][4][]4}{[1][3][]5}}
\newlabel{eq:red}{{4}{5}{}{equation.0.4}{}}
\newlabel{eq:red@cref}{{[equation][4][]4}{[1][5][]5}}
\newlabel{eq:x-tilde-P*}{{6}{5}{}{equation.0.6}{}}
\newlabel{eq:x-tilde-P*@cref}{{[equation][6][]6}{[1][5][]5}}
\@writefile{lof}{\contentsline {figure}{\numberline {5}{\ignorespaces Scaling of some key metrics with $S$ for $\mu =0.5,\sigma =0.3,\lambda =10^{-8}$. (A) The AFD exponent varies a little with $S$ (as MB showed). (B) The cumulative relative abundance of all species up to rank $r$. Shows that dominant set remains $O(1)$ even with $S$ very large. To understand $S\to \infty $ one should decrease $\lambda $ with $S$. Remains to check it then an $S$-independent distribution is found for lower ranks then. (C) Distribution of durations that a species remains $<0.01$ absolute abundance. Approximately exponential, so the coarse-grained ``on-off'' dynamics is basically a two-state Markov jump process. (D) A measure of species variability, basically the average KS-distance of a species AFD up to time $t$ with the species-average AFD up to time $t$. Shows that species differences decrease with time until it plateaus at a level that decreases with $S$. \relax }}{6}{figure.caption.5}\protected@file@percent }
\newlabel{fig:scaling}{{5}{6}{Scaling of some key metrics with $S$ for $\mu =0.5,\sigma =0.3,\lambda =10^{-8}$. (A) The AFD exponent varies a little with $S$ (as MB showed). (B) The cumulative relative abundance of all species up to rank $r$. Shows that dominant set remains $O(1)$ even with $S$ very large. To understand $S\to \infty $ one should decrease $\lambda $ with $S$. Remains to check it then an $S$-independent distribution is found for lower ranks then. (C) Distribution of durations that a species remains $<0.01$ absolute abundance. Approximately exponential, so the coarse-grained ``on-off'' dynamics is basically a two-state Markov jump process. (D) A measure of species variability, basically the average KS-distance of a species AFD up to time $t$ with the species-average AFD up to time $t$. Shows that species differences decrease with time until it plateaus at a level that decreases with $S$. \relax }{figure.caption.5}{}}
\newlabel{fig:scaling@cref}{{[figure][5][]5}{[1][5][]6}}
\newlabel{eq:nu-formula}{{8}{7}{}{equation.0.8}{}}
\newlabel{eq:nu-formula@cref}{{[equation][8][]8}{[1][7][]7}}
\newlabel{eq:OUP}{{13}{7}{}{equation.0.13}{}}
\newlabel{eq:OUP@cref}{{[equation][13][]13}{[1][7][]7}}
\@writefile{lof}{\contentsline {figure}{\numberline {6}{\ignorespaces In each graph, a histogram of values for $\eta _i(t)$ is plotted and compared with the unit normal distribution represented by the thick line. For $\mu =0.5,\sigma =0.3,S=500,\lambda =10^{-8}$\relax }}{8}{figure.caption.6}\protected@file@percent }
\newlabel{fig:eta-normal}{{6}{8}{In each graph, a histogram of values for $\eta _i(t)$ is plotted and compared with the unit normal distribution represented by the thick line. For $\mu =0.5,\sigma =0.3,S=500,\lambda =10^{-8}$\relax }{figure.caption.6}{}}
\newlabel{fig:eta-normal@cref}{{[figure][6][]6}{[1][7][]8}}
\@writefile{lof}{\contentsline {subfigure}{\numberline{(a)}{\ignorespaces {Histogram of $\eta _i(t)$ over all simulation time-points $t$, shown for nine different species $i$.}}}{8}{subfigure.6.1}\protected@file@percent }
\@writefile{lof}{\contentsline {subfigure}{\numberline{(b)}{\ignorespaces {Histogram of $\eta _i(t_k)$ over all species $i$ for for nine different time points $t_k$ evenly spaced across the entire simulation.}}}{8}{subfigure.6.2}\protected@file@percent }
\@writefile{lof}{\contentsline {subfigure}{\numberline{(c)}{\ignorespaces {Histogram of $\eta _i(t)$ over all species $i$ and times $t$.}}}{8}{subfigure.6.3}\protected@file@percent }
\newlabel{fig:eta-acf}{{7a}{9}{Subfigure 7a}{subfigure.7.1}{}}
\newlabel{fig:eta-acf@cref}{{[subfigure][1][7]7a}{[1][7][]9}}
\newlabel{sub@fig:eta-acf}{{(a)}{a}{Subfigure 7a\relax }{subfigure.7.1}{}}
\newlabel{fig:eta-ccf}{{7b}{9}{Subfigure 7b}{subfigure.7.2}{}}
\newlabel{fig:eta-ccf@cref}{{[subfigure][2][7]7b}{[1][7][]9}}
\newlabel{sub@fig:eta-ccf}{{(b)}{b}{Subfigure 7b\relax }{subfigure.7.2}{}}
\@writefile{lof}{\contentsline {figure}{\numberline {7}{\ignorespaces Descriptions of the autocorrelation function (ACF) $\phi _{ii}(t)$ and the cross-correlation function $\phi _{ij}(t)$ ($i >j $) for system parameters $(S, \mu , \sigma , \lambda ) = (500, 0.5, 0.3, 10^{-8})$ with simulation time step $dt = 0.01$ for a total time $T=500'000$ (i.e. $5\times 10^7$ time steps).\relax }}{9}{figure.caption.7}\protected@file@percent }
\newlabel{fig:eta-cf}{{7}{9}{Descriptions of the autocorrelation function (ACF) $\phi _{ii}(t)$ and the cross-correlation function $\phi _{ij}(t)$ ($i >j $) for system parameters $(S, \mu , \sigma , \lambda ) = (500, 0.5, 0.3, 10^{-8})$ with simulation time step $dt = 0.01$ for a total time $T=500'000$ (i.e. $5\times 10^7$ time steps).\relax }{figure.caption.7}{}}
\newlabel{fig:eta-cf@cref}{{[figure][7][]7}{[1][7][]9}}
\@writefile{lof}{\contentsline {subfigure}{\numberline{(a)}{\ignorespaces { \textit {Upper panel:} ACF $\phi _{ii}(t)$ plotted in grey for all species, with a few also in colour. \textit {Lower panel:} ACF averaged over all species and compared with $\qopname \relax o{exp}{[-t/\tau _{\text {fit}}]}$ with $\tau _{\text {fit}}$ resulting from least-squares minimization.}}}{9}{subfigure.7.1}\protected@file@percent }
\@writefile{lof}{\contentsline {subfigure}{\numberline{(b)}{\ignorespaces {For the different fixed time lags $t$ indicated, we plot the distribution of the cross-correlation function (CCF) $\phi _{ij}(t)$ across all pair of species $i > j$ (coloured graphs) and the best-fit Gaussian (balck, dashed). \textit {Inset:} empirical time-evolution of the standard deviation. }}}{9}{subfigure.7.2}\protected@file@percent }
\@writefile{lof}{\contentsline {figure}{\numberline {8}{\ignorespaces Comparison of exact dLV to reduced focal-species model with ``true'' parameters $\overline  {a},\overline  {b},\tau $. (A,C) show particular simulation at $S=500, \mu ={0.5},\sigma =0.3,\lambda =10^{-8}$. (B) shows how well the reduced model captures the AFD power-law exponent across the range of $(\mu ,\sigma )$ that produced persistent chaos. [Note! When C was produced I had defined $\nu $ as $-\nu $]\relax }}{10}{figure.caption.8}\protected@file@percent }
\newlabel{fig:comp}{{8}{10}{Comparison of exact dLV to reduced focal-species model with ``true'' parameters $\overline {a},\overline {b},\tau $. (A,C) show particular simulation at $S=500, \mu ={0.5},\sigma =0.3,\lambda =10^{-8}$. (B) shows how well the reduced model captures the AFD power-law exponent across the range of $(\mu ,\sigma )$ that produced persistent chaos. [Note! When C was produced I had defined $\nu $ as $-\nu $]\relax }{figure.caption.8}{}}
\newlabel{fig:comp@cref}{{[figure][8][]8}{[1][9][]10}}
\@writefile{lof}{\contentsline {figure}{\numberline {9}{\ignorespaces Variation of $\overline  {a}$ and $\tau $ over phase plane. (Left has $\overline  {a} < -1$ in grey; Right has $\tau >200$ in grey.)\relax }}{11}{figure.caption.9}\protected@file@percent }
\newlabel{fig:at}{{9}{11}{Variation of $\overline {a}$ and $\tau $ over phase plane. (Left has $\overline {a} < -1$ in grey; Right has $\tau >200$ in grey.)\relax }{figure.caption.9}{}}
\newlabel{fig:at@cref}{{[figure][9][]9}{[1][11][]11}}
\newlabel{eq:Xbar}{{17}{11}{}{equation.0.17}{}}
\newlabel{eq:Xbar@cref}{{[equation][17][]17}{[1][11][]11}}
\@writefile{lof}{\contentsline {figure}{\numberline {10}{\ignorespaces ``Taylor-like'' laws between compound parameters. Each point represent one result for $(\overline  {a},\overline  {b},\tau )$ for a given $(\mu ,\sigma )$. Most of the variation seems to be due to $\sigma $, with $\mu $ contributing more to spread around the trend.\relax }}{12}{figure.caption.10}\protected@file@percent }
\newlabel{fig:taylorlike}{{10}{12}{``Taylor-like'' laws between compound parameters. Each point represent one result for $(\overline {a},\overline {b},\tau )$ for a given $(\mu ,\sigma )$. Most of the variation seems to be due to $\sigma $, with $\mu $ contributing more to spread around the trend.\relax }{figure.caption.10}{}}
\newlabel{fig:taylorlike@cref}{{[figure][10][]10}{[1][11][]12}}
\newlabel{eq:eff-weak}{{20}{12}{}{equation.0.20}{}}
\newlabel{eq:eff-weak@cref}{{[equation][20][]20}{[1][12][]12}}
\gdef \@abspage@last{13}
